F2F.F64.F32.S,12
XMAD.CLO,1912
TLD.LZ.T,11021
SHF.R.S64.HI,324
TLD.LZ.P,5861
XMAD.PSL.CBCC,133212
ST.E.U16,56804
FADD.FTZ,394
XMAD.U16.S16,7
PSETP.AND.AND.S,4592
LDG.E.CG.64,144
LOP3.LUT.NZ,534
ISET.GE.OR,108
RET;,3331
SHF.R.U64,728
STL.64,16372
RRO.SINCOS,512
FSETP.LT.AND.S,24
P2R.B1,32
FADD.S,168
FSETP.NEU.OR,319
LDG.E.CG.U16,192
LDG.E.CV,689
FSETP.GTU.FTZ.AND,152
ISETP.EQ.U32.OR,221
STS.128,2874
DSET.GT.AND,8
LDG.E.CG,216
LDG.E.CI,9683
ISET.LE.U32.AND,31
LDSLK,5298
SHR.U32.S,2
CSETP.EQU.AND,6
STS.128.S,9
ISCADD32I,235
DFMA.RM,124
F2F.F32.F32.TRUNC,1684
BAR.SYNC,39155
DFMA.RP,124
VADD.U16.U16.MRG_16H,1362
DFMA.RZ,124
LDG.E.CI.64,13463
BPT.DRAIN;,9
LD.E.U16,44377
DSETP.GEU.AND,12
FSETP.GEU.AND,396
SHF.R.U64.HI,324
MUFU.RCP64H,1122
FSETP.LTU.AND,312
XMAD.CHI,38800
LDS.128,117575
STL.U8,216
FSET.GTU.FTZ.AND,4
FCMP.NEU,108
BAR.RED.POPC,545
ISET.LT.AND.S,171
LD.E.U.128,260
LEA.HI,288
I2F.F32.U32.RP,17699
I2I.S32.S32,78612
DSET.EQ.AND,106
F2F.FTZ.F32.F32,752
I2I.S16.S8,32
ISCADD,70676
ISET.GT.AND,774
ATOM.E.ADD,245
MEMBAR.CTA;,17
FMUL.S,4
I2F.F64.U32,32
LOP.AND,42282
ST.E.WT.S,120
I2F.F32.S8,11140
ST.E,84477
FMNMX,4920
DSET.GTU.AND,28
FSET.GT.AND,56
CAL,6300
VABSDIFF4,512
LOP.OR.NZ,343
SHFL.BFLY,5328
LDL.S,54
LDU.E.64,132
SHF.R.U64.S,16
FSETP.NEU.FTZ.AND,242
R2P.H1,30
DSETP.LE.AND,492
STL,208631
LOP3.LUT,3138
I2F.F32.U32,400
PSETP.AND.AND,63557
STS,105760
ISETP.GT.U32.X.AND,93
SYNC;,112409
F2I.S32.F32.TRUNC,576
MEMBAR.GL;,441
DADD.S,201
PSET.OR.AND,60
IMAD.U32.U32.X,45
SHF.L.W.S,6
SHR.U32,61445
LDG.E.64,14514
IMAD.U32.U32.S,18
STG.E.128,274
IADD32I,140824
F2F.F32.F16.S,98
ISETP.GT.AND,74549
ISETP.GE.U32.AND.S,926
MUFU.LG2,340
BRK;,495
FSETP.NEU.AND,64900
I2I.U16.U16,522
FADD,72315
XMAD.S16.S16.CSFU,7
FSETP.LT.AND,4868
CONT;,351
IMAD.HI.X.S,98
ICMP.EQ,4582
PSET.AND.AND,4034
BFE,48
LOP32I.AND,18260
LD.E.CV.64.S,2
IADD32I.X,212
IMNMX,4557
CCTL.E.IV,10095
ISETP.EQ.AND,99052
ICMP.LT,818
IADD32I.S,30
DSETP.LTU.AND,66
ISETP.LT.AND,162992
MUFU.RSQ,152
IADD.X.S,51
IMAD.S,1030
SHFL.IDX,396
ISUB.S,307
P2R,530
ISETP.NE.U32.AND,5603
ISUB.X,1509
ISETP.EQ.U32.X.AND,324
XMAD.S16.U16.CHI,7
LOP.XOR,10852
PSETP.OR.AND,3165
LOP32I.XOR.S,31
SHR,76567
ISET.GE.U32.AND,29
ISET.GT.U32.AND,91
FSETP.EQ.AND,27475
SHL,78933
SSY,163172
ISETP.LE.AND,4425
TEXDEPBAR,29290
ISETP.NE.U32.AND.S,3879
DSET.NEU.AND,12
DSETP.NE.AND,93
F2F.F32.F16,78786
FSETP.LE.AND,540
BFE.U32,3487
ICMP.EQ.U32,314
IADD,637045
I2I.S32.S32.S,27
ISETP.LT.U32.OR,27
LDG.E.CI.S8,560
ISETP.EQ.AND.S,123
SEL,65544
MOV32I,113838
ISETP.LE.U32.AND,33787
STG.E.WT,57
IMAD.U32.U32,77338
ISETP.GE.AND.S,648
ISETP.EQ.X.AND,366
VMNMX.ACC,29
SEL.S,2383
I2F.F32.U64.RP,40
ST.E.64,29097
LOP.OR.S,132
DSETP.NEU.AND,13004
LD.E.CV.S,128
IMUL.U32.U32.HI,99438
F2F.F16.F32,85898
ST.E.128.S,960
ISCADD.S,581
ISETP.EQ.OR,937
LD.E.CV,1916
S2R,79367
F2I.FTZ.U32.F32.TRUNC,17707
DEPBAR.LE,6473
STL.U16,7064
STL.S,188
LD.E.CG,3108
LOP.PASS_B,18135
F2F.F32.F32.CEIL,576
ATOMS.CAS,1766
MUFU.EX2,3356
LDC.U16,27
STG.E.CG.U16,416
SHF.L.U64,99381
LD.E.64,33313
LOP.AND.S,287
I2F.F32.S32,832
IADD.S,23546
IADD3,2178
LOP.AND.Z,695
LOP32I.XOR,453
IADD.X,334709
FSET.NEU.AND,184
ST.E.S,7138
STG.E.CG.64,2176
TLDS.LZ.NODEP.P,1189
TLDS.LZ.NODEP.T,4007
PSET.AND.AND.S,8
SHF.R.S64,324
FFMA.RM,392
ISET.LT.U32.AND,1408
LDS.U.U16,405
ISETP.LT.U32.X.AND,81
FCMP.GTU,8
FFMA.RZ,104
FFMA.RP,392
VABSDIFF.ACC,1454
LDG.E.CI.128,36
MOV.S,6909
LDG.E.CI.U16,11902
LOP32I.OR.S,120
LDG.E.128,362
PSETP.XOR.AND,2
ISET.GE.AND,153
FMUL32I,8898
ISETP.LT.OR,2482
LDC,111739
SHF.R,58419
FSET.LT.AND,40
IMAD.U32.U32.HI.X,1493
LDC.S8,32
LDL,37870
LDS,39531
ISETP.NE.X.AND,10134
IMAD,344591
SHF.L,14430
STG.E.64,9710
ISETP.LT.X.AND,9
LDS.U16,1215
PSETP.OR.OR,4939
IMUL.U32.U32,15306
MOV,1144611
ATOM.E.CAS.64,4626
LOP.AND.NZ,1306
I2F.F64.S32,96
STS.64.S,171
SHR.S,32
ST.E.WT,68
LOP32I.OR,2154
I2I.U32.U32,106
ST.E.U16.S,2538
RED.E.ADD.F32.FTZ.RN.S,18
SHF.R.S,4
ISET.EQ.U32.AND,525
ISETP.GT.U32.OR,279
LDS.U.128,82053
FCMP.EQ,240
ISETP.LE.OR,41
IMAD.HI,519
ST.E.128,118
VADD.S32.S16.MIN,34
MOV32I.S,36
BFE.U32.BREV,24
F2F.F64.F64,204
ISETP.LE.AND.S,248
PRET,176
DFMA.S,237
ISETP.GT.OR,60
ISETP.LT.AND.S,1733
IMUL,126548
FMUL,240763
STG.E.CG,724
FSETP.GT.AND,2472
FSET.NEU.FTZ.AND,72
ISET.EQ.AND,395
LD.E.CV.64,1006
LD.E,72344
ISETP.GE.OR,3167
ISETP.GE.AND,172751
LD.E.CG.U16,608
LDS.64,26464
LDL.LU,145757
I2I.S32.S16,776
FCHK.DIVIDE,78
LDG.E,32889
FSETP.GTU.AND,832
PCNT,135
ICMP.EQ.S,99
LDS.U.64,6484
FFMA.S,120
LDL.U16,7064
F2I.U64.F32.TRUNC,40
FFMA.FTZ,208
DADD,17556
ST.E.64.S,2112
STS.64,36262
S2R.S,226
LDL.U8,144
F2F.F32.F32,2700
MUFU.RCP,19799
F2I.S32.F32,64
ISETP.NE.U32.OR,3684
ISUB,64890
DMNMX,2460
F2F.F64.F64.TRUNC,88
STSCUL,5298
ISETP.NE.OR,279
SHL.W,19000
SHL.S,90
SHF.L.W,17831
SHF.L.S,147
SHFL.DOWN,2112
RED.E.ADD.F32.FTZ.RN,17382
LDG.E.U16,20727
ISET.LT.AND,120329
CSETP.NE.AND,6
DSETP.GT.AND,604
ICMP.NE,3724
FSETP.EQ.OR,32
IMUL.HI,735
ISETP.GE.U32.X.AND,242
RRO.EX2,3356
ISCADD32I.S,579
ISET.NE.AND,105
ISETP.NE.AND,31425
LOP.OR,5062
ATOM.E.CAS.U64,1542
ISETP.LT.U32.AND,23404
F2F.F64.F32,5708
FSETP.NE.AND,138
IMAD.U32.U32.HI,36143
ICMP.GT,24
P2R.H1,20
LDU.E,132
STS.U16,1620
ICMP.GE,33
DMUL.S,771
LDC.64,2291
PBK,207
LEA.HI.X,24364
FSET.EQ.AND,56
LD.E.64.S,168
DSETP.EQ.AND,4441
LDL.LU.64,4131
DFMA,290363
ISETP.GT.U32.AND,1562
DMUL,32352
DSETP.EQ.OR,44
STG.E.U16,19138
PRMT,750
FSET.EQ.FTZ.AND,64
LD.E.128,936
STS.S,570
LDS.U.32,12274
XMAD,247896
TLD.B.LZ.P,52
XMAD.PSL,5545
ISETP.GT.AND.S,146
ISETP.EQ.X.OR,480
LD.E.S,11
LDC.U8,522
ISET.NE.U32.AND,293
F2F.F32.F64,6048
IADD3.LS,1232
BRA.U,187890
XMAD.MRG,132561
LEA,24556
BRX,176
ISETP.GE.U32.AND,15977
LDL.64,4321
FCMP,472
DSETP.GTU.AND,1504
FSETP.EQ.FTZ.AND,144
BRA,210644
IMAD.HI.X,53542
LDG.E.CV.64,324
TLD.B.LZ.NODEP.P,270
STG.E,28527
ATOM.E.CAS,7064
TLD.B.LZ.NODEP.T,20
IADD3.RS,38127
SHL.W.S,16
ISETP.NE.AND.S,27
R2P,1106
ISETP.EQ.U32.AND,11064
FSETP.NEU.FTZ.OR,52
LD.E.CG.64,756
FFMA,1843284
DSET.NE.AND,31
ICMP.EQ.U32.S,36
MUFU.RSQ64H,96
