MOV
S2R
S2R
LDC.S8
IMAD
I2I.U16.S8
ISETP.GE.AND
LOP.AND
MOV
I2I.S32.S16
MOV
ISETP.EQ.AND
IMUL
IMUL
BRA
I2I.S32.S32
I2I.S32.S32
I2F.F32.U32.RP
I2F.F32.U32.RP
MUFU.RCP
MUFU.RCP
IADD32I
IADD32I
F2I.FTZ.U32.F32.TRUNC
F2I.FTZ.U32.F32.TRUNC
IMUL.U32.U32
IMUL.U32.U32
I2I.S32.S32
I2I.S32.S32
LOP.PASS_B
MOV
LOP.PASS_B
MOV32I
IMAD.U32.U32.HI
IMAD.U32.U32.HI
IMAD
I2I.S32.S32
IMAD.HI.X
IMUL.U32.U32.HI
IMAD.U32.U32
LD.E.64
I2I.S32.S32
ISETP.LE.U32.AND
IMUL.U32.U32.HI
ISUB
IMAD.U32.U32
LOP.XOR
ISETP.LE.U32.AND
IADD
ISUB
ISETP.GE.AND
ISETP.GE.U32.AND
ISETP.LE.U32.AND
IADD
ISUB
ISETP.GE.AND
I2I.S32.S32
I2I.S32.S32
ICMP.EQ
ICMP.EQ
IMAD
IMAD
IADD
IMAD
ISETP.LT.AND
IMAD.HI.X
ST.E.64
BRA
BRA
I2I.S32.S32
I2I.S32.S32
I2F.F32.U32.RP
I2F.F32.U32.RP
MUFU.RCP
MUFU.RCP
IADD32I
IADD32I
F2I.FTZ.U32.F32.TRUNC
F2I.FTZ.U32.F32.TRUNC
IMUL.U32.U32
IMUL.U32.U32
I2I.S32.S32
I2I.S32.S32
LOP.PASS_B
MOV
LOP.PASS_B
MOV32I
IMAD.U32.U32.HI
IMAD.U32.U32.HI
I2I.S32.S32
I2I.S32.S32
IMUL.U32.U32.HI
IMUL.U32.U32.HI
IMAD.U32.U32
IMAD.U32.U32
ISETP.LE.U32.AND
ISETP.LE.U32.AND
ISUB
IADD
LOP.XOR
ISUB
ISETP.GE.U32.AND
ISETP.GE.AND
ISETP.LE.U32.AND
IADD
ISETP.GE.AND
ISUB
I2I.S32.S32
I2I.S32.S32
ICMP.EQ
ICMP.EQ
IMAD
IMAD
IMAD
IMAD.HI.X
IMAD
LD.E.64
IMAD.HI.X
IADD
ISETP.LT.AND
ST.E.64
BRA
MOV
S2R
S2R
LDC.S8
IMAD
I2I.U16.S8
ISETP.GE.AND
LOP.AND
MOV
I2I.S32.S16
MOV
ISETP.EQ.AND
IMUL
IMUL
BRA
I2I.S32.S32
I2I.S32.S32
I2F.F32.U32.RP
I2F.F32.U32.RP
MUFU.RCP
MUFU.RCP
IADD32I
IADD32I
F2I.FTZ.U32.F32.TRUNC
F2I.FTZ.U32.F32.TRUNC
IMUL.U32.U32
IMUL.U32.U32
I2I.S32.S32
I2I.S32.S32
LOP.PASS_B
MOV
LOP.PASS_B
MOV32I
IMAD.U32.U32.HI
IMAD.U32.U32.HI
IMAD
I2I.S32.S32
IMAD.HI.X
IMUL.U32.U32.HI
IMAD.U32.U32
LD.E
I2I.S32.S32
ISETP.LE.U32.AND
IMUL.U32.U32.HI
ISUB
IMAD.U32.U32
LOP.XOR
ISETP.LE.U32.AND
IADD
ISUB
ISETP.GE.AND
ISETP.GE.U32.AND
ISETP.LE.U32.AND
IADD
ISUB
ISETP.GE.AND
I2I.S32.S32
I2I.S32.S32
ICMP.EQ
ICMP.EQ
IMAD
IMAD
IADD
IMAD
ISETP.LT.AND
IMAD.HI.X
ST.E
BRA
BRA
I2I.S32.S32
I2I.S32.S32
I2F.F32.U32.RP
I2F.F32.U32.RP
MUFU.RCP
MUFU.RCP
IADD32I
IADD32I
F2I.FTZ.U32.F32.TRUNC
F2I.FTZ.U32.F32.TRUNC
IMUL.U32.U32
IMUL.U32.U32
I2I.S32.S32
I2I.S32.S32
LOP.PASS_B
MOV
LOP.PASS_B
MOV32I
IMAD.U32.U32.HI
IMAD.U32.U32.HI
I2I.S32.S32
I2I.S32.S32
IMUL.U32.U32.HI
IMUL.U32.U32.HI
IMAD.U32.U32
IMAD.U32.U32
ISETP.LE.U32.AND
ISETP.LE.U32.AND
ISUB
IADD
LOP.XOR
ISUB
ISETP.GE.U32.AND
ISETP.GE.AND
ISETP.LE.U32.AND
IADD
ISETP.GE.AND
ISUB
I2I.S32.S32
I2I.S32.S32
ICMP.EQ
ICMP.EQ
IMAD
IMAD
IMAD
IMAD.HI.X
IMAD
LD.E
IMAD.HI.X
IADD
ISETP.LT.AND
ST.E
BRA
MOV
S2R
S2R
IMAD
LDC.S8
ISETP.GE.AND
I2I.U16.S8
LOP.AND
MOV
MOV
I2I.S32.S16
IMUL
IMUL
ISETP.EQ.AND
BRA
I2I.S32.S32
I2I.S32.S32
LOP.PASS_B
I2F.F32.U32.RP
I2F.F32.U32.RP
MOV
MUFU.RCP
LOP.PASS_B
MUFU.RCP
IADD32I
MOV32I
IADD32I
F2I.FTZ.U32.F32.TRUNC
F2I.FTZ.U32.F32.TRUNC
IMUL.U32.U32
IMUL.U32.U32
I2I.S32.S32
I2I.S32.S32
IMAD.U32.U32.HI
IMAD.U32.U32.HI
IMAD
I2I.S32.S32
IMAD.HI.X
IMUL.U32.U32.HI
LD.E.64
IMAD.U32.U32
I2I.S32.S32
ISETP.LE.U32.AND
LOP.XOR
IMUL.U32.U32.HI
ISUB
IADD
IMAD.U32.U32
ISETP.GE.U32.AND
ISETP.LE.U32.AND
IADD
ISETP.GE.AND
ISUB
ISETP.GE.AND
IADD
ISETP.LE.U32.AND
I2I.S32.S32
ISUB
ICMP.EQ
ISETP.LT.AND
I2I.S32.S32
IMAD
ICMP.EQ
IMAD
IMAD
IMAD.HI.X
ST.E.64
BRA
BRA
I2I.S32.S32
I2I.S32.S32
LOP.PASS_B
I2F.F32.U32.RP
I2F.F32.U32.RP
MOV
MUFU.RCP
LOP.PASS_B
MUFU.RCP
IADD32I
MOV32I
IADD32I
F2I.FTZ.U32.F32.TRUNC
F2I.FTZ.U32.F32.TRUNC
IMUL.U32.U32
IMUL.U32.U32
I2I.S32.S32
I2I.S32.S32
IMAD.U32.U32.HI
IMAD.U32.U32.HI
I2I.S32.S32
I2I.S32.S32
IMUL.U32.U32.HI
IMUL.U32.U32.HI
IMAD.U32.U32
IMAD.U32.U32
LOP.XOR
ISETP.LE.U32.AND
ISETP.LE.U32.AND
ISETP.GE.AND
ISUB
IADD
ISUB
ISETP.GE.U32.AND
ISETP.LE.U32.AND
IADD
ISETP.GE.AND
ISUB
I2I.S32.S32
I2I.S32.S32
ICMP.EQ
ICMP.EQ
IMAD
IMAD
IMAD
IMAD.HI.X
IMAD
LD.E.64
IMAD.HI.X
IADD
ISETP.LT.AND
ST.E.64
BRA
MOV
S2R
S2R
IMAD
LDC.S8
ISETP.GE.AND
I2I.U16.S8
LOP.AND
MOV
MOV
I2I.S32.S16
IMUL
IMUL
ISETP.EQ.AND
BRA
I2I.S32.S32
I2I.S32.S32
LOP.PASS_B
I2F.F32.U32.RP
I2F.F32.U32.RP
MOV
MUFU.RCP
LOP.PASS_B
MUFU.RCP
IADD32I
MOV32I
IADD32I
F2I.FTZ.U32.F32.TRUNC
F2I.FTZ.U32.F32.TRUNC
IMUL.U32.U32
IMUL.U32.U32
I2I.S32.S32
I2I.S32.S32
IMAD.U32.U32.HI
IMAD.U32.U32.HI
IMAD
I2I.S32.S32
IMAD.HI.X
IMUL.U32.U32.HI
LD.E
IMAD.U32.U32
I2I.S32.S32
ISETP.LE.U32.AND
LOP.XOR
IMUL.U32.U32.HI
ISUB
IADD
IMAD.U32.U32
ISETP.GE.U32.AND
ISETP.LE.U32.AND
IADD
ISETP.GE.AND
ISUB
ISETP.GE.AND
IADD
ISETP.LE.U32.AND
I2I.S32.S32
ISUB
ICMP.EQ
ISETP.LT.AND
I2I.S32.S32
IMAD
ICMP.EQ
IMAD
IMAD
IMAD.HI.X
ST.E
BRA
BRA
I2I.S32.S32
I2I.S32.S32
LOP.PASS_B
I2F.F32.U32.RP
I2F.F32.U32.RP
MOV
MUFU.RCP
LOP.PASS_B
MUFU.RCP
IADD32I
MOV32I
IADD32I
F2I.FTZ.U32.F32.TRUNC
F2I.FTZ.U32.F32.TRUNC
IMUL.U32.U32
IMUL.U32.U32
I2I.S32.S32
I2I.S32.S32
IMAD.U32.U32.HI
IMAD.U32.U32.HI
I2I.S32.S32
I2I.S32.S32
IMUL.U32.U32.HI
IMUL.U32.U32.HI
IMAD.U32.U32
IMAD.U32.U32
LOP.XOR
ISETP.LE.U32.AND
ISETP.LE.U32.AND
ISETP.GE.AND
ISUB
IADD
ISUB
ISETP.GE.U32.AND
ISETP.LE.U32.AND
IADD
ISETP.GE.AND
ISUB
I2I.S32.S32
I2I.S32.S32
ICMP.EQ
ICMP.EQ
IMAD
IMAD
IMAD
IMAD.HI.X
IMAD
LD.E
IMAD.HI.X
IADD
ISETP.LT.AND
ST.E
BRA
MOV
S2R
S2R
IMAD
LDC.S8
ISETP.GE.AND
I2I.U16.S8
LOP.AND
MOV
I2I.S32.S16
MOV
ISETP.EQ.AND
IMUL
IMUL
BRA
I2I.S32.S32
LOP.PASS_B
I2I.S32.S32
MOV
I2F.F32.U32.RP
LOP.PASS_B
I2F.F32.U32.RP
MOV32I
MUFU.RCP
MUFU.RCP
IADD32I
IADD32I
F2I.FTZ.U32.F32.TRUNC
F2I.FTZ.U32.F32.TRUNC
IMUL.U32.U32
IMUL.U32.U32
I2I.S32.S32
I2I.S32.S32
IMAD.U32.U32.HI
IMAD.U32.U32.HI
I2I.S32.S32
I2I.S32.S32
IMUL.U32.U32.HI
IMUL.U32.U32.HI
IMAD.U32.U32
IMAD.U32.U32
ISETP.LE.U32.AND
ISETP.LE.U32.AND
IADD
ISUB
LOP.XOR
ISUB
ISETP.GE.U32.AND
ISETP.GE.AND
IADD
ISETP.LE.U32.AND
I2I.S32.S32
ISETP.GE.AND
ICMP.EQ
ISUB
IMAD
I2I.S32.S32
IMAD
IMAD.HI.X
IADD
ICMP.EQ
IMAD
LD.E.64
IMAD
ISETP.LT.AND
IMAD.HI.X
ST.E.64
BRA
BRA
I2I.S32.S32
LOP.PASS_B
I2I.S32.S32
MOV
I2F.F32.U32.RP
LOP.PASS_B
I2F.F32.U32.RP
MOV32I
MUFU.RCP
MUFU.RCP
IADD32I
IADD32I
F2I.FTZ.U32.F32.TRUNC
F2I.FTZ.U32.F32.TRUNC
IMUL.U32.U32
IMUL.U32.U32
I2I.S32.S32
I2I.S32.S32
IMAD.U32.U32.HI
IMAD.U32.U32.HI
I2I.S32.S32
LOP.XOR
I2I.S32.S32
IMUL.U32.U32.HI
ISETP.GE.AND
IMUL.U32.U32.HI
IMAD.U32.U32
IMAD.U32.U32
ISETP.LE.U32.AND
ISETP.LE.U32.AND
IADD
ISUB
ISUB
ISETP.GE.U32.AND
ISETP.LE.U32.AND
IADD
ISETP.GE.AND
I2I.S32.S32
ISUB
ICMP.EQ
I2I.S32.S32
IMAD
ICMP.EQ
IMAD
IMAD
IMAD.HI.X
IMAD
LD.E.64
IMAD.HI.X
IADD
ISETP.LT.AND
ST.E.64
BRA
BRA
MOV
S2R
S2R
IMAD
LDC.S8
ISETP.GE.AND
I2I.U16.S8
LOP.AND
MOV
I2I.S32.S16
MOV
ISETP.EQ.AND
IMUL
IMUL
BRA
I2I.S32.S32
LOP.PASS_B
I2I.S32.S32
MOV
I2F.F32.U32.RP
LOP.PASS_B
I2F.F32.U32.RP
MOV32I
MUFU.RCP
MUFU.RCP
IADD32I
IADD32I
F2I.FTZ.U32.F32.TRUNC
F2I.FTZ.U32.F32.TRUNC
IMUL.U32.U32
IMUL.U32.U32
I2I.S32.S32
I2I.S32.S32
IMAD.U32.U32.HI
IMAD.U32.U32.HI
I2I.S32.S32
LOP.XOR
I2I.S32.S32
IMUL.U32.U32.HI
IMUL.U32.U32.HI
IMAD.U32.U32
IMAD.U32.U32
ISETP.LE.U32.AND
ISETP.LE.U32.AND
IADD
ISUB
ISUB
ISETP.GE.U32.AND
ISETP.GE.AND
IADD
ISETP.LE.U32.AND
I2I.S32.S32
ISETP.GE.AND
ICMP.EQ
ISUB
IMAD
I2I.S32.S32
IMAD
IMAD.HI.X
ICMP.EQ
LD.E
IMAD
IADD
IMAD
ISETP.LT.AND
IMAD.HI.X
ST.E
BRA
BRA
I2I.S32.S32
LOP.PASS_B
I2I.S32.S32
MOV
I2F.F32.U32.RP
LOP.PASS_B
I2F.F32.U32.RP
MOV32I
MUFU.RCP
MUFU.RCP
IADD32I
IADD32I
F2I.FTZ.U32.F32.TRUNC
F2I.FTZ.U32.F32.TRUNC
IMUL.U32.U32
IMUL.U32.U32
I2I.S32.S32
I2I.S32.S32
IMAD.U32.U32.HI
IMAD.U32.U32.HI
I2I.S32.S32
LOP.XOR
I2I.S32.S32
IMUL.U32.U32.HI
ISETP.GE.AND
IMUL.U32.U32.HI
IMAD.U32.U32
IMAD.U32.U32
ISETP.LE.U32.AND
ISETP.LE.U32.AND
IADD
ISUB
ISUB
ISETP.GE.U32.AND
ISETP.LE.U32.AND
IADD
ISETP.GE.AND
I2I.S32.S32
ISUB
ICMP.EQ
I2I.S32.S32
IMAD
ICMP.EQ
IMAD
IMAD
IMAD.HI.X
IMAD
LD.E
IMAD.HI.X
IADD
ISETP.LT.AND
ST.E
BRA
BRA
MOV
S2R
S2R
IMAD
LDC.S8
ISETP.GE.AND
I2I.U16.S8
LOP.AND
MOV
I2I.S32.S16
MOV
ISETP.EQ.AND
IMUL
IMUL
BRA
I2I.S32.S32
LOP.PASS_B
I2I.S32.S32
MOV
I2F.F32.U32.RP
LOP.PASS_B
I2F.F32.U32.RP
MOV32I
MUFU.RCP
MUFU.RCP
IADD32I
IADD32I
F2I.FTZ.U32.F32.TRUNC
F2I.FTZ.U32.F32.TRUNC
IMUL.U32.U32
IMUL.U32.U32
I2I.S32.S32
I2I.S32.S32
IMAD.U32.U32.HI
IMAD.U32.U32.HI
I2I.S32.S32
I2I.S32.S32
IMUL.U32.U32.HI
IMUL.U32.U32.HI
IMAD.U32.U32
IMAD.U32.U32
ISETP.LE.U32.AND
ISETP.LE.U32.AND
IADD
ISUB
LOP.XOR
ISUB
ISETP.GE.U32.AND
ISETP.GE.AND
IADD
ISETP.LE.U32.AND
I2I.S32.S32
ISETP.GE.AND
ICMP.EQ
ISUB
IMAD
I2I.S32.S32
IMAD
IMAD.HI.X
IADD
ICMP.EQ
IMAD
LD.E.64
IMAD
ISETP.LT.AND
IMAD.HI.X
ST.E.64
BRA
BRA
I2I.S32.S32
LOP.PASS_B
I2I.S32.S32
MOV
I2F.F32.U32.RP
LOP.PASS_B
I2F.F32.U32.RP
MOV32I
MUFU.RCP
MUFU.RCP
IADD32I
IADD32I
F2I.FTZ.U32.F32.TRUNC
F2I.FTZ.U32.F32.TRUNC
IMUL.U32.U32
IMUL.U32.U32
I2I.S32.S32
I2I.S32.S32
IMAD.U32.U32.HI
IMAD.U32.U32.HI
I2I.S32.S32
LOP.XOR
I2I.S32.S32
IMUL.U32.U32.HI
ISETP.GE.AND
IMUL.U32.U32.HI
IMAD.U32.U32
IMAD.U32.U32
ISETP.LE.U32.AND
ISETP.LE.U32.AND
IADD
ISUB
ISUB
ISETP.GE.U32.AND
ISETP.LE.U32.AND
IADD
ISETP.GE.AND
I2I.S32.S32
ISUB
ICMP.EQ
I2I.S32.S32
IMAD
ICMP.EQ
IMAD
IMAD
IMAD.HI.X
IMAD
LD.E.64
IMAD.HI.X
IADD
ISETP.LT.AND
ST.E.64
BRA
MOV
BRA
MOV
S2R
S2R
IMAD
LDC.S8
ISETP.GE.AND
I2I.U16.S8
LOP.AND
MOV
I2I.S32.S16
MOV
ISETP.EQ.AND
IMUL
IMUL
BRA
I2I.S32.S32
LOP.PASS_B
I2I.S32.S32
MOV
I2F.F32.U32.RP
LOP.PASS_B
I2F.F32.U32.RP
MOV32I
MUFU.RCP
MUFU.RCP
IADD32I
IADD32I
F2I.FTZ.U32.F32.TRUNC
F2I.FTZ.U32.F32.TRUNC
IMUL.U32.U32
IMUL.U32.U32
I2I.S32.S32
I2I.S32.S32
IMAD.U32.U32.HI
IMAD.U32.U32.HI
I2I.S32.S32
LOP.XOR
I2I.S32.S32
IMUL.U32.U32.HI
IMUL.U32.U32.HI
IMAD.U32.U32
IMAD.U32.U32
ISETP.LE.U32.AND
ISETP.LE.U32.AND
IADD
ISUB
ISUB
ISETP.GE.U32.AND
ISETP.GE.AND
IADD
ISETP.LE.U32.AND
I2I.S32.S32
ISETP.GE.AND
ICMP.EQ
ISUB
IMAD
I2I.S32.S32
IMAD
IMAD.HI.X
ICMP.EQ
LD.E
IMAD
IADD
IMAD
ISETP.LT.AND
IMAD.HI.X
ST.E
BRA
BRA
I2I.S32.S32
LOP.PASS_B
I2I.S32.S32
MOV
I2F.F32.U32.RP
LOP.PASS_B
I2F.F32.U32.RP
MOV32I
MUFU.RCP
MUFU.RCP
IADD32I
IADD32I
F2I.FTZ.U32.F32.TRUNC
F2I.FTZ.U32.F32.TRUNC
IMUL.U32.U32
IMUL.U32.U32
I2I.S32.S32
I2I.S32.S32
IMAD.U32.U32.HI
IMAD.U32.U32.HI
I2I.S32.S32
LOP.XOR
I2I.S32.S32
IMUL.U32.U32.HI
ISETP.GE.AND
IMUL.U32.U32.HI
IMAD.U32.U32
IMAD.U32.U32
ISETP.LE.U32.AND
ISETP.LE.U32.AND
IADD
ISUB
ISUB
ISETP.GE.U32.AND
ISETP.LE.U32.AND
IADD
ISETP.GE.AND
I2I.S32.S32
ISUB
ICMP.EQ
I2I.S32.S32
IMAD
ICMP.EQ
IMAD
IMAD
IMAD.HI.X
IMAD
LD.E
IMAD.HI.X
IADD
ISETP.LT.AND
ST.E
BRA
MOV
BRA
MOV
S2R
S2R
XMAD.MRG
XMAD
XMAD.PSL.CBCC
ISETP.GE.AND
LDC.S8
I2I.S16.S8
LOP32I.AND
I2I.S32.S16
MOV
ISETP.EQ.AND
XMAD
XMAD.MRG
XMAD.PSL.CBCC
BRA
I2I.S32.S32
I2F.F32.U32.RP
MUFU.RCP
IADD32I
F2I.FTZ.U32.F32.TRUNC
XMAD
XMAD.MRG
XMAD.PSL.CBCC
IADD
XMAD
XMAD
XMAD
XMAD.CHI
IADD3.RS
SHL
I2I.S32.S32
SHR
I2I.S32.S32
IADD
I2I.S32.S32
IADD.X
I2F.F32.U32.RP
ISETP.NE.AND
LDG.E.64
MUFU.RCP
IADD32I
F2I.FTZ.U32.F32.TRUNC
XMAD
XMAD.MRG
XMAD.PSL.CBCC
IADD
XMAD
XMAD
XMAD
XMAD
XMAD.CHI
I2I.S32.S32
XMAD.CHI
XMAD
XMAD
IADD3.RS
IADD3.RS
XMAD
XMAD
XMAD
XMAD
XMAD.MRG
XMAD.CHI
XMAD.PSL.CBCC
IADD3.RS
ISETP.LE.U32.AND
XMAD
XMAD.MRG
XMAD.PSL.CBCC
IADD
ISETP.LE.U32.AND
ISETP.GE.U32.AND
LOP.XOR
IADD32I
ISETP.GE.AND
IADD
IADD32I
PSETP.AND.AND
ISETP.LE.U32.AND
ISETP.GE.AND
LOP.PASS_B
IADD
MOV
SEL
IADD
XMAD
XMAD.MRG
IADD
XMAD.PSL.CBCC
SEL
MOV
XMAD.MRG
XMAD
XMAD
XMAD.PSL.CBCC
XMAD.MRG
XMAD.PSL.CBCC
SHL
SHR
ISETP.LT.AND
IADD
IADD.X
STG.E.64
BRA
I2I.S32.S32
I2F.F32.U32.RP
MUFU.RCP
IADD32I
F2I.FTZ.U32.F32.TRUNC
XMAD
XMAD.MRG
XMAD.PSL.CBCC
IADD
XMAD
XMAD
XMAD
XMAD.CHI
IADD3.RS
ISETP.NE.AND
I2I.S32.S32
I2F.F32.U32.RP
MUFU.RCP
IADD32I
I2I.S32.S32
F2I.FTZ.U32.F32.TRUNC
XMAD
I2I.S32.S32
XMAD.MRG
XMAD.PSL.CBCC
I2I.S32.S32
IADD
XMAD
XMAD
XMAD
XMAD
XMAD.CHI
XMAD.CHI
XMAD
XMAD
IADD3.RS
IADD3.RS
XMAD
XMAD
XMAD
XMAD
XMAD.MRG
XMAD.CHI
XMAD.PSL.CBCC
IADD3.RS
ISETP.LE.U32.AND
XMAD
XMAD.MRG
XMAD.PSL.CBCC
IADD
ISETP.LE.U32.AND
ISETP.GE.U32.AND
LOP.XOR
IADD32I
IADD
ISETP.GE.AND
IADD32I
ISETP.LE.U32.AND
PSETP.AND.AND
MOV
ISETP.GE.AND
LOP.PASS_B
IADD
IADD
MOV
SEL
MOV
XMAD
XMAD.MRG
IADD
XMAD.PSL.CBCC
SEL
XMAD.MRG
XMAD
XMAD.PSL.CBCC
SHL
SHR
IADD
IADD.X
LDG.E.64
MOV
XMAD
XMAD.MRG
SHL
XMAD.PSL.CBCC
SHR
ISETP.LT.AND
IADD
IADD.X
MOV
STG.E.64
BRA
BRA
MOV
S2R
S2R
XMAD.MRG
XMAD
XMAD.PSL.CBCC
ISETP.GE.AND
LDC.S8
I2I.S16.S8
LOP32I.AND
I2I.S32.S16
MOV
ISETP.EQ.AND
XMAD
XMAD.MRG
XMAD.PSL.CBCC
BRA
I2I.S32.S32
I2F.F32.U32.RP
MUFU.RCP
IADD32I
F2I.FTZ.U32.F32.TRUNC
XMAD
XMAD.MRG
XMAD.PSL.CBCC
IADD
XMAD
XMAD
XMAD
XMAD.CHI
IADD3.RS
SHL
I2I.S32.S32
SHR
I2I.S32.S32
IADD
IADD.X
I2I.S32.S32
ISETP.NE.AND
LDG.E
XMAD
I2F.F32.U32.RP
MUFU.RCP
IADD32I
I2I.S32.S32
F2I.FTZ.U32.F32.TRUNC
XMAD
XMAD.MRG
XMAD.PSL.CBCC
IADD
XMAD
XMAD
XMAD
XMAD
XMAD.CHI
XMAD.CHI
XMAD
IADD3.RS
IADD3.RS
XMAD
XMAD
XMAD
XMAD
XMAD.CHI
XMAD.MRG
IADD3.RS
XMAD.PSL.CBCC
XMAD
XMAD.MRG
ISETP.LE.U32.AND
XMAD.PSL.CBCC
ISETP.LE.U32.AND
IADD
ISETP.GE.U32.AND
LOP.XOR
IADD
IADD32I
ISETP.GE.AND
ISETP.LE.U32.AND
IADD32I
PSETP.AND.AND
ISETP.GE.AND
LOP.PASS_B
IADD
IADD
MOV
SEL
MOV
XMAD
XMAD.MRG
IADD
XMAD.PSL.CBCC
SEL
MOV
XMAD.MRG
XMAD
XMAD
XMAD.PSL.CBCC
XMAD.MRG
XMAD.PSL.CBCC
SHL
SHR
ISETP.LT.AND
IADD
IADD.X
STG.E
BRA
I2I.S32.S32
I2F.F32.U32.RP
MUFU.RCP
IADD32I
F2I.FTZ.U32.F32.TRUNC
XMAD
XMAD.MRG
XMAD.PSL.CBCC
IADD
XMAD
XMAD
XMAD
XMAD.CHI
IADD3.RS
ISETP.NE.AND
I2I.S32.S32
I2F.F32.U32.RP
MUFU.RCP
IADD32I
I2I.S32.S32
F2I.FTZ.U32.F32.TRUNC
XMAD
I2I.S32.S32
XMAD.MRG
XMAD.PSL.CBCC
I2I.S32.S32
IADD
XMAD
XMAD
XMAD
XMAD
XMAD.CHI
XMAD.CHI
XMAD
XMAD
IADD3.RS
IADD3.RS
XMAD
XMAD
XMAD
XMAD
XMAD.MRG
XMAD.CHI
XMAD.PSL.CBCC
IADD3.RS
ISETP.LE.U32.AND
XMAD
XMAD.MRG
XMAD.PSL.CBCC
IADD
ISETP.LE.U32.AND
ISETP.GE.U32.AND
LOP.XOR
IADD32I
IADD
ISETP.GE.AND
IADD32I
ISETP.LE.U32.AND
PSETP.AND.AND
MOV
ISETP.GE.AND
LOP.PASS_B
IADD
IADD
MOV
SEL
MOV
XMAD
XMAD.MRG
IADD
XMAD.PSL.CBCC
SEL
XMAD.MRG
XMAD
XMAD.PSL.CBCC
SHL
SHR
IADD
IADD.X
LDG.E
MOV
XMAD
XMAD.MRG
SHL
XMAD.PSL.CBCC
SHR
ISETP.LT.AND
IADD
IADD.X
MOV
STG.E
BRA
BRA
MOV
S2R
S2R
XMAD.MRG
XMAD
XMAD.PSL.CBCC
ISETP.GE.AND
LDC.S8
I2I.S16.S8
LOP32I.AND
I2I.S32.S16
MOV
ISETP.EQ.AND
XMAD
XMAD.MRG
XMAD.PSL.CBCC
BRA
I2I.S32.S32
I2F.F32.U32.RP
MUFU.RCP
IADD32I
F2I.FTZ.U32.F32.TRUNC
XMAD
XMAD.MRG
XMAD.PSL.CBCC
IADD
XMAD
XMAD
XMAD
XMAD.CHI
IADD3.RS
SHL
I2I.S32.S32
SHR
I2I.S32.S32
IADD
I2I.S32.S32
IADD.X
I2F.F32.U32.RP
ISETP.NE.AND
LDG.E.64
MUFU.RCP
IADD32I
F2I.FTZ.U32.F32.TRUNC
XMAD
XMAD.MRG
XMAD.PSL.CBCC
IADD
XMAD
XMAD
XMAD
XMAD
XMAD.CHI
I2I.S32.S32
XMAD.CHI
XMAD
XMAD
IADD3.RS
IADD3.RS
XMAD
XMAD
XMAD
XMAD
XMAD.MRG
XMAD.CHI
XMAD.PSL.CBCC
IADD3.RS
ISETP.LE.U32.AND
XMAD
XMAD.MRG
XMAD.PSL.CBCC
IADD
ISETP.LE.U32.AND
ISETP.GE.U32.AND
LOP.XOR
IADD32I
ISETP.GE.AND
IADD
IADD32I
PSETP.AND.AND
ISETP.LE.U32.AND
ISETP.GE.AND
LOP.PASS_B
IADD
MOV
SEL
IADD
XMAD
XMAD.MRG
IADD
XMAD.PSL.CBCC
SEL
MOV
XMAD.MRG
XMAD
XMAD
XMAD.PSL.CBCC
XMAD.MRG
XMAD.PSL.CBCC
SHL
SHR
ISETP.LT.AND
IADD
IADD.X
STG.E.64
BRA
I2I.S32.S32
I2F.F32.U32.RP
MUFU.RCP
IADD32I
F2I.FTZ.U32.F32.TRUNC
XMAD
XMAD.MRG
XMAD.PSL.CBCC
IADD
XMAD
XMAD
XMAD
XMAD.CHI
IADD3.RS
ISETP.NE.AND
I2I.S32.S32
I2F.F32.U32.RP
MUFU.RCP
IADD32I
I2I.S32.S32
F2I.FTZ.U32.F32.TRUNC
XMAD
I2I.S32.S32
XMAD.MRG
XMAD.PSL.CBCC
I2I.S32.S32
IADD
XMAD
XMAD
XMAD
XMAD
XMAD.CHI
XMAD.CHI
XMAD
XMAD
IADD3.RS
IADD3.RS
XMAD
XMAD
XMAD
XMAD
XMAD.MRG
XMAD.CHI
XMAD.PSL.CBCC
IADD3.RS
ISETP.LE.U32.AND
XMAD
XMAD.MRG
XMAD.PSL.CBCC
IADD
ISETP.LE.U32.AND
ISETP.GE.U32.AND
LOP.XOR
IADD32I
IADD
ISETP.GE.AND
IADD32I
ISETP.LE.U32.AND
PSETP.AND.AND
MOV
ISETP.GE.AND
LOP.PASS_B
IADD
IADD
MOV
SEL
MOV
XMAD
XMAD.MRG
IADD
XMAD.PSL.CBCC
SEL
XMAD.MRG
XMAD
XMAD.PSL.CBCC
SHL
SHR
IADD
IADD.X
LDG.E.64
MOV
XMAD
XMAD.MRG
SHL
XMAD.PSL.CBCC
SHR
ISETP.LT.AND
IADD
IADD.X
MOV
STG.E.64
BRA
BRA
MOV
S2R
S2R
XMAD.MRG
XMAD
XMAD.PSL.CBCC
ISETP.GE.AND
LDC.S8
I2I.S16.S8
LOP32I.AND
I2I.S32.S16
MOV
ISETP.EQ.AND
XMAD
XMAD.MRG
XMAD.PSL.CBCC
BRA
I2I.S32.S32
I2F.F32.U32.RP
MUFU.RCP
IADD32I
F2I.FTZ.U32.F32.TRUNC
XMAD
XMAD.MRG
XMAD.PSL.CBCC
IADD
XMAD
XMAD
XMAD
XMAD.CHI
IADD3.RS
SHL
I2I.S32.S32
SHR
I2I.S32.S32
IADD
IADD.X
I2I.S32.S32
ISETP.NE.AND
LDG.E
XMAD
I2F.F32.U32.RP
MUFU.RCP
IADD32I
I2I.S32.S32
F2I.FTZ.U32.F32.TRUNC
XMAD
XMAD.MRG
XMAD.PSL.CBCC
IADD
XMAD
XMAD
XMAD
XMAD
XMAD.CHI
XMAD.CHI
XMAD
IADD3.RS
IADD3.RS
XMAD
XMAD
XMAD
XMAD
XMAD.CHI
XMAD.MRG
IADD3.RS
XMAD.PSL.CBCC
XMAD
XMAD.MRG
ISETP.LE.U32.AND
XMAD.PSL.CBCC
ISETP.LE.U32.AND
IADD
ISETP.GE.U32.AND
LOP.XOR
IADD
IADD32I
ISETP.GE.AND
ISETP.LE.U32.AND
IADD32I
PSETP.AND.AND
ISETP.GE.AND
LOP.PASS_B
IADD
IADD
MOV
SEL
MOV
XMAD
XMAD.MRG
IADD
XMAD.PSL.CBCC
SEL
MOV
XMAD.MRG
XMAD
XMAD
XMAD.PSL.CBCC
XMAD.MRG
XMAD.PSL.CBCC
SHL
SHR
ISETP.LT.AND
IADD
IADD.X
STG.E
BRA
I2I.S32.S32
I2F.F32.U32.RP
MUFU.RCP
IADD32I
F2I.FTZ.U32.F32.TRUNC
XMAD
XMAD.MRG
XMAD.PSL.CBCC
IADD
XMAD
XMAD
XMAD
XMAD.CHI
IADD3.RS
ISETP.NE.AND
I2I.S32.S32
I2F.F32.U32.RP
MUFU.RCP
IADD32I
I2I.S32.S32
F2I.FTZ.U32.F32.TRUNC
XMAD
I2I.S32.S32
XMAD.MRG
XMAD.PSL.CBCC
I2I.S32.S32
IADD
XMAD
XMAD
XMAD
XMAD
XMAD.CHI
XMAD.CHI
XMAD
XMAD
IADD3.RS
IADD3.RS
XMAD
XMAD
XMAD
XMAD
XMAD.MRG
XMAD.CHI
XMAD.PSL.CBCC
IADD3.RS
ISETP.LE.U32.AND
XMAD
XMAD.MRG
XMAD.PSL.CBCC
IADD
ISETP.LE.U32.AND
ISETP.GE.U32.AND
LOP.XOR
IADD32I
IADD
ISETP.GE.AND
IADD32I
ISETP.LE.U32.AND
PSETP.AND.AND
MOV
ISETP.GE.AND
LOP.PASS_B
IADD
IADD
MOV
SEL
MOV
XMAD
XMAD.MRG
IADD
XMAD.PSL.CBCC
SEL
XMAD.MRG
XMAD
XMAD.PSL.CBCC
SHL
SHR
IADD
IADD.X
LDG.E
MOV
XMAD
XMAD.MRG
SHL
XMAD.PSL.CBCC
SHR
ISETP.LT.AND
IADD
IADD.X
MOV
STG.E
BRA
BRA
