MOV
S2R
S2R
IMAD
ISETP.GE.AND
ISETP.LT.AND
MOV
IMUL
BRA
I2I.S32.S32
I2I.S32.S32
I2F.F32.U32.RP
I2F.F32.U32.RP
MUFU.RCP
MOV
IADD32I
MUFU.RCP
F2I.FTZ.U32.F32.TRUNC
IADD32I
IMUL.U32.U32
IMUL
I2I.S32.S32
LOP.PASS_B
IMUL
SHL
F2I.FTZ.U32.F32.TRUNC
IMAD.U32.U32.HI
I2I.S32.S32
I2I.S32.S32
IMUL.U32.U32.HI
I2I.S32.S32
I2F.F32.U32.RP
IMAD.U32.U32
I2F.F32.U32.RP
ISETP.LE.U32.AND
MUFU.RCP
ISUB
MUFU.RCP
IADD
LOP.XOR
ISETP.GE.U32.AND
IADD32I
IADD32I
ISETP.GE.AND
IADD
F2I.FTZ.U32.F32.TRUNC
F2I.FTZ.U32.F32.TRUNC
I2I.S32.S32
ISETP.NE.AND
IMUL.U32.U32
IMUL.U32.U32
SEL
I2I.S32.S32
I2I.S32.S32
IMUL.U32.U32
IMAD.U32.U32.HI
I2I.S32.S32
I2I.S32.S32
IMAD.U32.U32.HI
I2I.S32.S32
I2I.S32.S32
IMAD.U32.U32.HI
IMUL.U32.U32.HI
IMUL.U32.U32.HI
IMAD.U32.U32
IMUL.U32.U32.HI
IMAD.U32.U32
ISETP.LE.U32.AND
IMAD.U32.U32
ISETP.LE.U32.AND
ISUB
ISETP.LE.U32.AND
ISUB
ISETP.LE.U32.AND
LOP.XOR
IADD
ISUB
ISETP.GE.U32.AND
ISETP.GE.AND
ISUB
ISETP.GE.AND
ISETP.LE.U32.AND
IADD
I2I.S32.S32
ISETP.NE.AND
ISETP.GE.AND
LOP.PASS_B
ISUB
I2I.S32.S32
LOP.PASS_B
LOP.PASS_B
SEL
MOV32I
I2I.S32.S32
SEL
IMAD
SEL
IMAD
MOV
IMAD.HI.X
MOV32I
IMAD
ISETP.GT.AND
IMAD
MOV
MOV
ST.E
IMAD.HI.X
BRA
MOV
ISET.LT.AND
IADD
IADD
LD.E
IADD
ISETP.LT.AND
IADD.X
FADD
ST.E
LD.E
IADD
IADD.X
FADD
ST.E
BRA
ISETP.LT.AND
BRA
ISET.LT.AND
IADD
LD.E
ISETP.LT.AND
IADD
IADD.X
FADD
ST.E
BRA
IADD
ISETP.LT.AND
BRA
BRA
MOV32I
IMAD
IMAD.HI.X
IADD
ST.E
ISETP.LT.AND
BRA
MOV
S2R
S2R
IMAD
ISETP.GE.AND
ISETP.LT.AND
MOV
IMUL
BRA
I2I.S32.S32
MOV
I2F.F32.U32.RP
LOP.PASS_B
MUFU.RCP
IMUL
IADD32I
F2I.FTZ.U32.F32.TRUNC
IMUL.U32.U32
IMUL
I2I.S32.S32
SHL
IMAD.U32.U32.HI
I2I.S32.S32
I2I.S32.S32
IMUL.U32.U32.HI
IMAD.U32.U32
I2F.F32.U32.RP
I2I.S32.S32
I2I.S32.S32
ISETP.LE.U32.AND
MUFU.RCP
I2F.F32.U32.RP
I2F.F32.U32.RP
ISUB
MUFU.RCP
IADD
LOP.XOR
MUFU.RCP
IADD32I
ISETP.GE.U32.AND
ISETP.GE.AND
IADD32I
IADD32I
F2I.FTZ.U32.F32.TRUNC
IADD
F2I.FTZ.U32.F32.TRUNC
ISETP.NE.AND
IMUL.U32.U32
I2I.S32.S32
F2I.FTZ.U32.F32.TRUNC
IMUL.U32.U32
I2I.S32.S32
SEL
IMUL.U32.U32
I2I.S32.S32
IMAD.U32.U32.HI
I2I.S32.S32
I2I.S32.S32
IMUL.U32.U32.HI
IMAD.U32.U32.HI
IMAD.U32.U32.HI
I2I.S32.S32
I2I.S32.S32
IMAD.U32.U32
IMUL.U32.U32.HI
IMUL.U32.U32.HI
ISETP.LE.U32.AND
IMAD.U32.U32
IMAD.U32.U32
ISUB
ISETP.LE.U32.AND
ISETP.LE.U32.AND
ISUB
ISETP.GE.U32.AND
IADD
LOP.XOR
ISUB
ISETP.LE.U32.AND
ISETP.GE.AND
IADD
ISETP.LE.U32.AND
ISETP.GE.AND
ISUB
MOV32I
ISETP.GE.AND
ISUB
ISETP.NE.AND
I2I.S32.S32
I2I.S32.S32
LOP.PASS_B
LOP.PASS_B
IMAD
I2I.S32.S32
LOP.PASS_B
SEL
SEL
IMAD.HI.X
SEL
MOV
IMAD
ST.E.64
MOV
MOV32I
IMAD
ISETP.GT.AND
IMAD
MOV
MOV
IMAD.HI.X
BRA
MOV
ISET.LT.AND
IADD
IADD
LD.E.64
IADD
ISETP.LT.AND
IADD.X
DADD
ST.E.64
LD.E.64
IADD
IADD.X
DADD
ST.E.64
BRA
ISETP.LT.AND
BRA
ISET.LT.AND
IADD
LD.E.64
ISETP.LT.AND
IADD
IADD.X
DADD
ST.E.64
BRA
IADD
ISETP.LT.AND
BRA
BRA
MOV32I
IMAD
IMAD.HI.X
IADD
ST.E.64
ISETP.LT.AND
BRA
MOV
S2R
S2R
IMAD
ISETP.GE.AND
I2I.S32.S32
I2I.S32.S32
I2I.S32.S32
I2F.F32.U32.RP
I2F.F32.U32.RP
I2F.F32.U32.RP
MUFU.RCP
MUFU.RCP
MUFU.RCP
IADD32I
IADD32I
IADD32I
F2I.FTZ.U32.F32.TRUNC
F2I.FTZ.U32.F32.TRUNC
F2I.FTZ.U32.F32.TRUNC
IMUL.U32.U32
IMUL.U32.U32
IMUL.U32.U32
I2I.S32.S32
MOV
I2I.S32.S32
I2I.S32.S32
LOP.PASS_B
LOP.PASS_B
LOP.PASS_B
MOV32I
IMUL
IMAD.U32.U32.HI
IMAD.U32.U32.HI
IMAD.U32.U32.HI
I2I.S32.S32
LOP.XOR
IMUL.U32.U32.HI
ISETP.GE.AND
IMAD.U32.U32
ISETP.LE.U32.AND
ISUB
IADD
ISETP.GE.U32.AND
IADD
I2I.S32.S32
ISETP.NE.AND
I2I.S32.S32
IMUL.U32.U32.HI
SEL
IMAD.U32.U32
I2I.S32.S32
ISETP.LE.U32.AND
IMUL.U32.U32.HI
ISUB
IMAD.U32.U32
ISETP.LE.U32.AND
ISETP.LE.U32.AND
ISUB
ISUB
IADD
ISETP.GE.U32.AND
ISETP.GE.AND
LOP.XOR
IADD
ISETP.GE.AND
I2I.S32.S32
ISETP.NE.AND
I2I.S32.S32
SEL
SEL
IMAD
IMAD
IMAD.HI.X
IMAD
LD.E
IMAD.HI.X
IADD
ISETP.LT.AND
ST.E
BRA
MOV
S2R
S2R
IMAD
ISETP.GE.AND
I2I.S32.S32
I2I.S32.S32
I2I.S32.S32
I2F.F32.U32.RP
I2F.F32.U32.RP
I2F.F32.U32.RP
MUFU.RCP
MUFU.RCP
MUFU.RCP
IADD32I
IADD32I
IADD32I
F2I.FTZ.U32.F32.TRUNC
F2I.FTZ.U32.F32.TRUNC
F2I.FTZ.U32.F32.TRUNC
IMUL.U32.U32
IMUL.U32.U32
IMUL.U32.U32
I2I.S32.S32
MOV
I2I.S32.S32
I2I.S32.S32
LOP.PASS_B
LOP.PASS_B
LOP.PASS_B
MOV32I
IMUL
IMAD.U32.U32.HI
IMAD.U32.U32.HI
IMAD.U32.U32.HI
I2I.S32.S32
LOP.XOR
IMUL.U32.U32.HI
ISETP.GE.AND
IMAD.U32.U32
ISETP.LE.U32.AND
ISUB
IADD
ISETP.GE.U32.AND
IADD
I2I.S32.S32
ISETP.NE.AND
I2I.S32.S32
IMUL.U32.U32.HI
SEL
IMAD.U32.U32
I2I.S32.S32
ISETP.LE.U32.AND
IMUL.U32.U32.HI
ISUB
IMAD.U32.U32
ISETP.LE.U32.AND
ISETP.LE.U32.AND
ISUB
ISUB
IADD
ISETP.GE.U32.AND
ISETP.GE.AND
LOP.XOR
IADD
ISETP.GE.AND
I2I.S32.S32
ISETP.NE.AND
I2I.S32.S32
SEL
SEL
IMAD
IMAD
IMAD.HI.X
IMAD
LD.E.64
IMAD.HI.X
IADD
ISETP.LT.AND
ST.E.64
BRA
MOV
S2R
S2R
IMAD
ISETP.GE.AND
MOV
ISETP.LT.AND
IMUL
BRA
I2I.S32.S32
I2I.S32.S32
LOP.PASS_B
I2F.F32.U32.RP
I2F.F32.U32.RP
MUFU.RCP
MOV
MUFU.RCP
IADD32I
IMUL
IMUL
F2I.FTZ.U32.F32.TRUNC
IADD32I
SHL
IMUL.U32.U32
F2I.FTZ.U32.F32.TRUNC
I2I.S32.S32
IMAD.U32.U32.HI
I2I.S32.S32
I2I.S32.S32
ISETP.NE.AND
IMUL.U32.U32.HI
I2F.F32.U32.RP
ISETP.NE.AND
IMAD.U32.U32
MUFU.RCP
LOP.XOR
ISETP.LE.U32.AND
IADD32I
ISETP.GE.AND
ISUB
IADD
F2I.FTZ.U32.F32.TRUNC
ISETP.GE.U32.AND
I2I.S32.S32
IMUL.U32.U32
IADD
I2F.F32.U32.RP
I2I.S32.S32
I2I.S32.S32
ISETP.GE.AND
SEL
IMAD.U32.U32.HI
MUFU.RCP
I2I.S32.S32
IMUL.U32.U32
IADD32I
IMUL.U32.U32.HI
I2I.S32.S32
F2I.FTZ.U32.F32.TRUNC
IMAD.U32.U32
IMAD.U32.U32.HI
IMUL.U32.U32
ISETP.LE.U32.AND
LOP.PASS_B
I2I.S32.S32
ISUB
IADD
IMAD.U32.U32.HI
ISETP.GE.U32.AND
I2I.S32.S32
I2I.S32.S32
IADD
IMUL.U32.U32.HI
IMUL.U32.U32.HI
LOP.PASS_B
IMAD.U32.U32
IMAD.U32.U32
LOP.PASS_B
ISETP.LE.U32.AND
ISETP.LE.U32.AND
MOV32I
ISUB
ISUB
ISETP.GE.AND
ISETP.LE.U32.AND
LOP.XOR
MOV
ISUB
ISETP.GE.AND
ISETP.LE.U32.AND
I2I.S32.S32
I2I.S32.S32
ISUB
SEL
SEL
I2I.S32.S32
MOV32I
IMAD
SEL
IMAD
ISETP.GT.AND
IMAD
IMAD.HI.X
MOV
IMAD
MOV
ST.E
IMAD.HI.X
BRA
MOV
ISET.LT.AND
IADD
LD.E
IADD
IADD
ISETP.LT.AND
IADD.X
FADD
ST.E
LD.E
IADD
IADD.X
FADD
ST.E
BRA
ISETP.LT.AND
BRA
ISET.LT.AND
LD.E
IADD
IADD
ISETP.LT.AND
IADD.X
FADD
ST.E
BRA
IADD
ISETP.LT.AND
BRA
BRA
MOV32I
IMAD
IMAD.HI.X
IADD
ST.E
ISETP.LT.AND
BRA
MOV
S2R
S2R
IMAD
ISETP.GE.AND
MOV
ISETP.LT.AND
IMUL
BRA
I2I.S32.S32
MOV
LOP.PASS_B
I2F.F32.U32.RP
IMUL
MUFU.RCP
IADD32I
F2I.FTZ.U32.F32.TRUNC
IMUL
IMUL.U32.U32
SHL
I2I.S32.S32
IMAD.U32.U32.HI
I2I.S32.S32
I2I.S32.S32
I2I.S32.S32
IMUL.U32.U32.HI
I2F.F32.U32.RP
LOP.XOR
IMAD.U32.U32
MUFU.RCP
I2F.F32.U32.RP
ISETP.LE.U32.AND
IADD32I
ISETP.GE.AND
ISUB
IADD
F2I.FTZ.U32.F32.TRUNC
ISETP.GE.U32.AND
MUFU.RCP
IMUL.U32.U32
IADD
ISETP.NE.AND
I2I.S32.S32
I2I.S32.S32
IADD32I
I2I.S32.S32
SEL
I2F.F32.U32.RP
IMAD.U32.U32.HI
I2I.S32.S32
MUFU.RCP
F2I.FTZ.U32.F32.TRUNC
IMUL.U32.U32.HI
IADD32I
IMUL.U32.U32
IMAD.U32.U32
F2I.FTZ.U32.F32.TRUNC
I2I.S32.S32
ISETP.LE.U32.AND
IMUL.U32.U32
IMAD.U32.U32.HI
I2I.S32.S32
ISUB
I2I.S32.S32
IMUL.U32.U32.HI
ISETP.GE.U32.AND
IMAD.U32.U32.HI
I2I.S32.S32
IMAD.U32.U32
IADD
IMUL.U32.U32.HI
ISETP.LE.U32.AND
IADD
IMAD.U32.U32
ISUB
ISETP.GE.AND
ISETP.LE.U32.AND
ISETP.LE.U32.AND
ISETP.NE.AND
ISUB
ISUB
ISETP.GE.AND
LOP.XOR
ISETP.LE.U32.AND
LOP.PASS_B
ISETP.GE.AND
ISUB
LOP.PASS_B
I2I.S32.S32
I2I.S32.S32
LOP.PASS_B
I2I.S32.S32
SEL
SEL
MOV32I
SEL
IMAD
IMAD
MOV32I
MOV
IMAD
IMAD.HI.X
ISETP.GT.AND
IMAD
MOV
MOV
MOV
ST.E.64
IMAD.HI.X
BRA
MOV
ISET.LT.AND
IADD
LD.E.64
IADD
IADD
ISETP.LT.AND
IADD.X
DADD
ST.E.64
LD.E.64
IADD
IADD.X
DADD
ST.E.64
BRA
ISETP.LT.AND
BRA
ISET.LT.AND
LD.E.64
IADD
IADD
ISETP.LT.AND
IADD.X
DADD
ST.E.64
BRA
IADD
ISETP.LT.AND
BRA
BRA
MOV32I
IMAD
IMAD.HI.X
IADD
ST.E.64
ISETP.LT.AND
BRA
MOV
S2R
S2R
IMAD
ISETP.GE.AND
I2I.S32.S32
I2I.S32.S32
I2I.S32.S32
I2F.F32.U32.RP
MOV
I2F.F32.U32.RP
I2F.F32.U32.RP
MUFU.RCP
IMUL
MUFU.RCP
IADD32I
MUFU.RCP
IADD32I
F2I.FTZ.U32.F32.TRUNC
IADD32I
F2I.FTZ.U32.F32.TRUNC
IMUL.U32.U32
F2I.FTZ.U32.F32.TRUNC
IMUL.U32.U32
I2I.S32.S32
IMUL.U32.U32
I2I.S32.S32
LOP.PASS_B
I2I.S32.S32
IMAD.U32.U32.HI
LOP.PASS_B
LOP.PASS_B
MOV32I
IMAD.U32.U32.HI
IMAD.U32.U32.HI
I2I.S32.S32
LOP.XOR
ISETP.GE.AND
IMUL.U32.U32.HI
ISETP.GE.AND
IMAD.U32.U32
ISETP.LE.U32.AND
ISUB
IADD
ISETP.GE.U32.AND
I2I.S32.S32
IADD
ISETP.NE.AND
IMUL.U32.U32.HI
I2I.S32.S32
IMAD.U32.U32
SEL
ISETP.LE.U32.AND
I2I.S32.S32
ISUB
IMUL.U32.U32.HI
ISETP.LE.U32.AND
IMAD.U32.U32
ISUB
ISETP.LE.U32.AND
I2I.S32.S32
ISUB
IADD
ISETP.NE.AND
ISETP.GE.U32.AND
LOP.XOR
SEL
IADD
ISETP.GE.AND
I2I.S32.S32
SEL
IMAD
IMAD
IMAD.HI.X
IMAD
LD.E
IMAD.HI.X
IADD
ISETP.LT.AND
ST.E
BRA
MOV
S2R
S2R
IMAD
ISETP.GE.AND
I2I.S32.S32
I2I.S32.S32
I2I.S32.S32
MOV
I2F.F32.U32.RP
I2F.F32.U32.RP
I2F.F32.U32.RP
MUFU.RCP
IMUL
MUFU.RCP
IADD32I
MUFU.RCP
IADD32I
F2I.FTZ.U32.F32.TRUNC
IADD32I
F2I.FTZ.U32.F32.TRUNC
IMUL.U32.U32
F2I.FTZ.U32.F32.TRUNC
IMUL.U32.U32
I2I.S32.S32
IMUL.U32.U32
I2I.S32.S32
LOP.PASS_B
I2I.S32.S32
LOP.PASS_B
LOP.PASS_B
MOV32I
IMAD.U32.U32.HI
IMAD.U32.U32.HI
IMAD.U32.U32.HI
I2I.S32.S32
LOP.XOR
ISETP.GE.AND
IMUL.U32.U32.HI
ISETP.GE.AND
IMAD.U32.U32
ISETP.LE.U32.AND
ISUB
IADD
ISETP.GE.U32.AND
I2I.S32.S32
IADD
ISETP.NE.AND
IMUL.U32.U32.HI
I2I.S32.S32
IMAD.U32.U32
SEL
ISETP.LE.U32.AND
I2I.S32.S32
ISUB
IMUL.U32.U32.HI
ISETP.LE.U32.AND
IMAD.U32.U32
ISUB
ISETP.LE.U32.AND
I2I.S32.S32
ISUB
IADD
ISETP.NE.AND
ISETP.GE.U32.AND
LOP.XOR
SEL
IADD
ISETP.GE.AND
I2I.S32.S32
SEL
IMAD
IMAD
IMAD.HI.X
IMAD
LD.E.64
IMAD.HI.X
IADD
ISETP.LT.AND
ST.E.64
BRA
MOV
S2R
S2R
IMAD
ISETP.GE.AND
ISETP.LT.AND
MOV
IMUL
BRA
I2I.S32.S32
LOP.PASS_B
I2I.S32.S32
LOP.PASS_B
I2I.S32.S32
LOP.PASS_B
I2F.F32.U32.RP
MOV32I
I2I.S32.S32
MOV
I2F.F32.U32.RP
I2F.F32.U32.RP
MUFU.RCP
I2F.F32.U32.RP
MUFU.RCP
IADD32I
MUFU.RCP
IADD32I
MUFU.RCP
MOV
F2I.FTZ.U32.F32.TRUNC
IADD32I
IADD32I
F2I.FTZ.U32.F32.TRUNC
IMUL.U32.U32
F2I.FTZ.U32.F32.TRUNC
F2I.FTZ.U32.F32.TRUNC
I2I.S32.S32
IMUL.U32.U32
IMUL.U32.U32
IMUL.U32.U32
I2I.S32.S32
IMUL
I2I.S32.S32
IMUL
I2I.S32.S32
IMAD.U32.U32.HI
LOP.PASS_B
IMAD.U32.U32.HI
MOV32I
SHL
IMAD.U32.U32.HI
IMAD.U32.U32.HI
I2I.S32.S32
LOP.XOR
IMUL.U32.U32.HI
IMAD.U32.U32
MOV
ISETP.LE.U32.AND
ISUB
IADD
ISETP.GE.U32.AND
ISETP.GE.AND
IADD
ISETP.NE.AND
I2I.S32.S32
SEL
I2I.S32.S32
LOP.XOR
I2I.S32.S32
ISETP.GE.AND
IMUL.U32.U32.HI
I2I.S32.S32
IMUL.U32.U32.HI
IMAD.U32.U32
IMUL.U32.U32.HI
IMAD.U32.U32
ISETP.LE.U32.AND
IMAD.U32.U32
ISETP.LE.U32.AND
ISUB
ISETP.LE.U32.AND
ISUB
IADD
ISETP.LE.U32.AND
ISUB
ISETP.GE.U32.AND
ISETP.GE.AND
ISUB
ISETP.LE.U32.AND
IADD
ISETP.NE.AND
I2I.S32.S32
ISUB
ISETP.GE.AND
I2I.S32.S32
SEL
I2I.S32.S32
SEL
SEL
IMAD
IMAD
ISETP.GT.AND
IMAD
IMAD.HI.X
MOV
IMAD
ST.E
IMAD.HI.X
BRA
MOV
ISET.LT.AND
IADD
LD.E
IADD
IADD
FADD
IADD.X
ST.E
LD.E
ISETP.LT.AND
IADD
FADD
IADD.X
ST.E
BRA
ISETP.LT.AND
BRA
ISET.LT.AND
LD.E
IADD
ISETP.LT.AND
IADD
FADD
IADD.X
ST.E
BRA
IADD
ISETP.LT.AND
BRA
BRA
MOV32I
IMAD
IMAD.HI.X
IADD
ST.E
ISETP.LT.AND
BRA
BRA
MOV
S2R
S2R
IMAD
ISETP.GE.AND
ISETP.LT.AND
MOV
IMUL
BRA
I2I.S32.S32
LOP.PASS_B
I2I.S32.S32
LOP.PASS_B
I2I.S32.S32
LOP.PASS_B
I2F.F32.U32.RP
MOV32I
I2I.S32.S32
LOP.PASS_B
I2F.F32.U32.RP
MOV32I
I2F.F32.U32.RP
MUFU.RCP
I2F.F32.U32.RP
IADD32I
MUFU.RCP
MOV
MUFU.RCP
IADD32I
MUFU.RCP
F2I.FTZ.U32.F32.TRUNC
IADD32I
F2I.FTZ.U32.F32.TRUNC
IADD32I
F2I.FTZ.U32.F32.TRUNC
IMUL.U32.U32
F2I.FTZ.U32.F32.TRUNC
I2I.S32.S32
IMUL.U32.U32
IMUL.U32.U32
IMUL.U32.U32
I2I.S32.S32
IMUL
I2I.S32.S32
IMAD.U32.U32.HI
I2I.S32.S32
IMUL
IMAD.U32.U32.HI
IMAD.U32.U32.HI
SHL
IMAD.U32.U32.HI
I2I.S32.S32
LOP.XOR
IMUL.U32.U32.HI
ISETP.GE.AND
IMAD.U32.U32
MOV
ISETP.LE.U32.AND
I2I.S32.S32
ISUB
IADD
ISETP.GE.U32.AND
IADD
ISETP.NE.AND
I2I.S32.S32
SEL
I2I.S32.S32
I2I.S32.S32
IMUL.U32.U32.HI
IMUL.U32.U32.HI
IMUL.U32.U32.HI
IMAD.U32.U32
IMAD.U32.U32
MOV
ISETP.LE.U32.AND
IMAD.U32.U32
LOP.XOR
ISETP.LE.U32.AND
ISUB
ISETP.LE.U32.AND
ISUB
IADD
ISETP.LE.U32.AND
ISUB
ISETP.GE.U32.AND
ISETP.GE.AND
IADD
ISUB
ISETP.LE.U32.AND
ISETP.GE.AND
I2I.S32.S32
ISETP.NE.AND
ISUB
ISETP.GE.AND
I2I.S32.S32
SEL
I2I.S32.S32
SEL
SEL
MOV
IMAD
IMAD
IMAD
ISETP.GT.AND
IMAD.HI.X
IMAD
MOV
ST.E.64
IMAD.HI.X
BRA
MOV
ISET.LT.AND
IADD
LD.E.64
IADD
IADD
DADD
IADD.X
ST.E.64
LD.E.64
ISETP.LT.AND
DADD
IADD
ST.E.64
IADD.X
BRA
ISETP.LT.AND
BRA
ISET.LT.AND
LD.E.64
IADD
ISETP.LT.AND
DADD
IADD
ST.E.64
IADD.X
BRA
IADD
ISETP.LT.AND
BRA
BRA
MOV32I
IMAD
IMAD.HI.X
IADD
ST.E.64
ISETP.LT.AND
BRA
BRA
MOV
S2R
S2R
IMAD
ISETP.GE.AND
I2I.S32.S32
I2I.S32.S32
I2I.S32.S32
I2F.F32.U32.RP
I2F.F32.U32.RP
I2F.F32.U32.RP
MUFU.RCP
MUFU.RCP
IADD32I
MUFU.RCP
IADD32I
IADD32I
F2I.FTZ.U32.F32.TRUNC
MOV
F2I.FTZ.U32.F32.TRUNC
F2I.FTZ.U32.F32.TRUNC
IMUL.U32.U32
IMUL.U32.U32
IMUL.U32.U32
I2I.S32.S32
I2I.S32.S32
I2I.S32.S32
LOP.PASS_B
IMAD.U32.U32.HI
LOP.PASS_B
IMAD.U32.U32.HI
LOP.PASS_B
MOV32I
IMUL
IMAD.U32.U32.HI
I2I.S32.S32
LOP.XOR
IMUL.U32.U32.HI
ISETP.GE.AND
IMAD.U32.U32
ISETP.LE.U32.AND
ISUB
IADD
ISETP.GE.U32.AND
IADD
ISETP.NE.AND
I2I.S32.S32
SEL
I2I.S32.S32
ISETP.GE.AND
I2I.S32.S32
IMUL.U32.U32.HI
IMUL.U32.U32.HI
IMAD.U32.U32
LOP.XOR
IMAD.U32.U32
ISETP.LE.U32.AND
ISETP.LE.U32.AND
ISUB
ISUB
IADD
ISETP.LE.U32.AND
ISETP.GE.U32.AND
ISUB
ISETP.GE.AND
IADD
ISETP.NE.AND
I2I.S32.S32
I2I.S32.S32
SEL
SEL
IMAD
IMAD
IMAD.HI.X
IMAD
LD.E
IMAD.HI.X
IADD
ST.E
ISETP.LT.AND
BRA
BRA
MOV
S2R
S2R
IMAD
ISETP.GE.AND
I2I.S32.S32
LOP.PASS_B
I2I.S32.S32
LOP.PASS_B
I2I.S32.S32
I2F.F32.U32.RP
I2F.F32.U32.RP
I2F.F32.U32.RP
MUFU.RCP
MUFU.RCP
MUFU.RCP
IADD32I
IADD32I
IADD32I
F2I.FTZ.U32.F32.TRUNC
MOV
F2I.FTZ.U32.F32.TRUNC
F2I.FTZ.U32.F32.TRUNC
IMUL.U32.U32
IMUL.U32.U32
IMUL.U32.U32
I2I.S32.S32
I2I.S32.S32
I2I.S32.S32
LOP.PASS_B
IMAD.U32.U32.HI
MOV32I
IMUL
IMAD.U32.U32.HI
IMAD.U32.U32.HI
I2I.S32.S32
LOP.XOR
IMUL.U32.U32.HI
ISETP.GE.AND
IMAD.U32.U32
ISETP.LE.U32.AND
I2I.S32.S32
ISUB
IADD
ISETP.GE.U32.AND
IADD
ISETP.NE.AND
I2I.S32.S32
SEL
IMUL.U32.U32.HI
I2I.S32.S32
ISETP.GE.AND
IMAD.U32.U32
IMUL.U32.U32.HI
ISETP.LE.U32.AND
IMAD.U32.U32
ISUB
ISETP.LE.U32.AND
ISETP.LE.U32.AND
IADD
ISUB
LOP.XOR
ISETP.GE.U32.AND
ISUB
ISETP.GE.AND
IADD
ISETP.NE.AND
I2I.S32.S32
I2I.S32.S32
SEL
SEL
IMAD
IMAD
IMAD.HI.X
IMAD
LD.E.64
IMAD.HI.X
IADD
ISETP.LT.AND
ST.E.64
BRA
BRA
MOV
S2R
S2R
IMAD
ISETP.GE.AND
ISETP.LT.AND
MOV
IMUL
BRA
I2I.S32.S32
LOP.PASS_B
I2I.S32.S32
LOP.PASS_B
I2I.S32.S32
LOP.PASS_B
I2F.F32.U32.RP
MOV32I
I2I.S32.S32
MOV
I2F.F32.U32.RP
I2F.F32.U32.RP
MUFU.RCP
I2F.F32.U32.RP
MUFU.RCP
IADD32I
MUFU.RCP
IADD32I
MUFU.RCP
MOV
F2I.FTZ.U32.F32.TRUNC
IADD32I
IADD32I
F2I.FTZ.U32.F32.TRUNC
IMUL.U32.U32
F2I.FTZ.U32.F32.TRUNC
F2I.FTZ.U32.F32.TRUNC
I2I.S32.S32
IMUL.U32.U32
IMUL.U32.U32
IMUL.U32.U32
I2I.S32.S32
IMUL
I2I.S32.S32
IMUL
I2I.S32.S32
IMAD.U32.U32.HI
LOP.PASS_B
IMAD.U32.U32.HI
MOV32I
SHF.L
IMAD.U32.U32.HI
IMAD.U32.U32.HI
I2I.S32.S32
LOP.XOR
IMUL.U32.U32.HI
IMAD.U32.U32
MOV
ISETP.LE.U32.AND
ISUB
IADD
ISETP.GE.U32.AND
ISETP.GE.AND
IADD
ISETP.NE.AND
I2I.S32.S32
SEL
I2I.S32.S32
LOP.XOR
I2I.S32.S32
ISETP.GE.AND
IMUL.U32.U32.HI
I2I.S32.S32
IMUL.U32.U32.HI
IMAD.U32.U32
IMUL.U32.U32.HI
IMAD.U32.U32
ISETP.LE.U32.AND
IMAD.U32.U32
ISETP.LE.U32.AND
ISUB
ISETP.LE.U32.AND
ISUB
IADD
ISETP.LE.U32.AND
ISUB
ISETP.GE.U32.AND
ISETP.GE.AND
ISUB
ISETP.LE.U32.AND
IADD
ISETP.NE.AND
I2I.S32.S32
ISUB
ISETP.GE.AND
I2I.S32.S32
SEL
I2I.S32.S32
SEL
SEL
IMAD
IMAD
ISETP.GT.AND
IMAD
IMAD.HI.X
MOV
IMAD
ST.E
IMAD.HI.X
BRA
MOV
ISET.LT.AND
IADD
LD.E
IADD
IADD
FADD
IADD.X
ST.E
LD.E
ISETP.LT.AND
IADD
FADD
IADD.X
ST.E
BRA
ISETP.LT.AND
BRA
ISET.LT.AND
LD.E
IADD
ISETP.LT.AND
IADD
FADD
IADD.X
ST.E
BRA
IADD
ISETP.LT.AND
BRA
BRA
MOV32I
IMAD
IMAD.HI.X
IADD
ST.E
ISETP.LT.AND
BRA
MOV
BRA
MOV
S2R
S2R
IMAD
ISETP.GE.AND
ISETP.LT.AND
MOV
IMUL
BRA
I2I.S32.S32
LOP.PASS_B
I2I.S32.S32
LOP.PASS_B
I2I.S32.S32
LOP.PASS_B
I2F.F32.U32.RP
MOV32I
I2I.S32.S32
LOP.PASS_B
I2F.F32.U32.RP
MOV32I
I2F.F32.U32.RP
MUFU.RCP
I2F.F32.U32.RP
IADD32I
MUFU.RCP
MOV
MUFU.RCP
IADD32I
MUFU.RCP
F2I.FTZ.U32.F32.TRUNC
IADD32I
F2I.FTZ.U32.F32.TRUNC
IADD32I
F2I.FTZ.U32.F32.TRUNC
IMUL.U32.U32
F2I.FTZ.U32.F32.TRUNC
I2I.S32.S32
IMUL.U32.U32
IMUL.U32.U32
IMUL.U32.U32
I2I.S32.S32
IMUL
I2I.S32.S32
IMAD.U32.U32.HI
I2I.S32.S32
IMUL
IMAD.U32.U32.HI
IMAD.U32.U32.HI
SHF.L
IMAD.U32.U32.HI
I2I.S32.S32
LOP.XOR
IMUL.U32.U32.HI
ISETP.GE.AND
IMAD.U32.U32
MOV
ISETP.LE.U32.AND
I2I.S32.S32
ISUB
IADD
ISETP.GE.U32.AND
IADD
ISETP.NE.AND
I2I.S32.S32
SEL
I2I.S32.S32
I2I.S32.S32
IMUL.U32.U32.HI
IMUL.U32.U32.HI
IMUL.U32.U32.HI
IMAD.U32.U32
IMAD.U32.U32
MOV
ISETP.LE.U32.AND
IMAD.U32.U32
LOP.XOR
ISETP.LE.U32.AND
ISUB
ISETP.LE.U32.AND
ISUB
IADD
ISETP.LE.U32.AND
ISUB
ISETP.GE.U32.AND
ISETP.GE.AND
IADD
ISUB
ISETP.LE.U32.AND
ISETP.GE.AND
I2I.S32.S32
ISETP.NE.AND
ISUB
ISETP.GE.AND
I2I.S32.S32
SEL
I2I.S32.S32
SEL
SEL
MOV
IMAD
IMAD
IMAD
ISETP.GT.AND
IMAD.HI.X
IMAD
MOV
ST.E.64
IMAD.HI.X
BRA
MOV
ISET.LT.AND
IADD
LD.E.64
IADD
IADD
DADD
IADD.X
ST.E.64
LD.E.64
ISETP.LT.AND
IADD
DADD
IADD.X
ST.E.64
BRA
ISETP.LT.AND
BRA
ISET.LT.AND
LD.E.64
IADD
ISETP.LT.AND
IADD
DADD
IADD.X
ST.E.64
BRA
IADD
ISETP.LT.AND
BRA
BRA
MOV32I
IMAD
IMAD.HI.X
IADD
ST.E.64
ISETP.LT.AND
BRA
MOV
BRA
MOV
S2R
S2R
IMAD
ISETP.GE.AND
I2I.S32.S32
I2I.S32.S32
I2I.S32.S32
I2F.F32.U32.RP
I2F.F32.U32.RP
I2F.F32.U32.RP
MUFU.RCP
MUFU.RCP
IADD32I
MUFU.RCP
IADD32I
IADD32I
F2I.FTZ.U32.F32.TRUNC
MOV
F2I.FTZ.U32.F32.TRUNC
F2I.FTZ.U32.F32.TRUNC
IMUL.U32.U32
IMUL.U32.U32
IMUL.U32.U32
I2I.S32.S32
I2I.S32.S32
I2I.S32.S32
LOP.PASS_B
IMAD.U32.U32.HI
LOP.PASS_B
IMAD.U32.U32.HI
LOP.PASS_B
MOV32I
IMUL
IMAD.U32.U32.HI
I2I.S32.S32
LOP.XOR
IMUL.U32.U32.HI
ISETP.GE.AND
IMAD.U32.U32
ISETP.LE.U32.AND
ISUB
IADD
ISETP.GE.U32.AND
IADD
ISETP.NE.AND
I2I.S32.S32
SEL
I2I.S32.S32
ISETP.GE.AND
I2I.S32.S32
IMUL.U32.U32.HI
IMUL.U32.U32.HI
IMAD.U32.U32
LOP.XOR
IMAD.U32.U32
ISETP.LE.U32.AND
ISETP.LE.U32.AND
ISUB
ISUB
IADD
ISETP.LE.U32.AND
ISETP.GE.U32.AND
ISUB
ISETP.GE.AND
IADD
ISETP.NE.AND
I2I.S32.S32
I2I.S32.S32
SEL
SEL
IMAD
IMAD
IMAD.HI.X
IMAD
LD.E
IMAD.HI.X
IADD
ST.E
ISETP.LT.AND
BRA
MOV
BRA
MOV
S2R
S2R
IMAD
ISETP.GE.AND
I2I.S32.S32
LOP.PASS_B
I2I.S32.S32
LOP.PASS_B
I2I.S32.S32
I2F.F32.U32.RP
I2F.F32.U32.RP
I2F.F32.U32.RP
MUFU.RCP
MUFU.RCP
MUFU.RCP
IADD32I
IADD32I
IADD32I
F2I.FTZ.U32.F32.TRUNC
MOV
F2I.FTZ.U32.F32.TRUNC
F2I.FTZ.U32.F32.TRUNC
IMUL.U32.U32
IMUL.U32.U32
IMUL.U32.U32
I2I.S32.S32
I2I.S32.S32
I2I.S32.S32
LOP.PASS_B
IMAD.U32.U32.HI
MOV32I
IMUL
IMAD.U32.U32.HI
IMAD.U32.U32.HI
I2I.S32.S32
LOP.XOR
IMUL.U32.U32.HI
ISETP.GE.AND
IMAD.U32.U32
ISETP.LE.U32.AND
I2I.S32.S32
ISUB
IADD
ISETP.GE.U32.AND
IADD
ISETP.NE.AND
I2I.S32.S32
SEL
IMUL.U32.U32.HI
I2I.S32.S32
ISETP.GE.AND
IMAD.U32.U32
IMUL.U32.U32.HI
ISETP.LE.U32.AND
IMAD.U32.U32
ISUB
ISETP.LE.U32.AND
ISETP.LE.U32.AND
IADD
ISUB
LOP.XOR
ISETP.GE.U32.AND
ISUB
ISETP.GE.AND
IADD
ISETP.NE.AND
I2I.S32.S32
I2I.S32.S32
SEL
SEL
IMAD
IMAD
IMAD.HI.X
IMAD
LD.E.64
IMAD.HI.X
IADD
ISETP.LT.AND
ST.E.64
BRA
MOV
BRA
MOV
S2R
S2R
XMAD.MRG
XMAD
XMAD.PSL.CBCC
ISETP.GE.AND
ISETP.LT.AND
BRA
MOV
SHL
XMAD
XMAD.MRG
SHR
XMAD.PSL.CBCC
IADD
ISETP.LT.AND
IADD.X
STG.E
BRA
MOV
XMAD
XMAD.MRG
XMAD
XMAD.MRG
XMAD.PSL.CBCC
XMAD.PSL.CBCC
SHL
I2I.S32.S32
I2F.F32.U32.RP
MUFU.RCP
IADD32I
I2I.S32.S32
ISETP.NE.AND
F2I.FTZ.U32.F32.TRUNC
XMAD
XMAD.MRG
XMAD.PSL.CBCC
IADD
XMAD
XMAD
XMAD
XMAD.CHI
IADD3.RS
XMAD
XMAD
XMAD
XMAD.CHI
I2I.S32.S32
IADD3.RS
I2F.F32.U32.RP
IADD
MUFU.RCP
XMAD
XMAD.MRG
XMAD.PSL.CBCC
I2I.S32.S32
ISETP.LE.U32.AND
IADD32I
F2I.FTZ.U32.F32.TRUNC
IADD
ISETP.GE.U32.AND
LOP.XOR
IADD32I
XMAD
XMAD.MRG
ISETP.GE.AND
PSETP.AND.AND
XMAD.PSL.CBCC
IADD32I
IADD
MOV
LOP.PASS_B
XMAD
IADD
XMAD
XMAD.CHI
SEL
XMAD
I2I.S32.S32
IADD3.RS
I2I.S32.S32
XMAD
I2I.S32.S32
XMAD
XMAD
XMAD
XMAD.CHI
XMAD
XMAD.CHI
XMAD
XMAD
IADD3.RS
XMAD
IADD3.RS
XMAD.CHI
XMAD
IADD
IADD
IADD3.RS
XMAD
XMAD.MRG
XMAD
XMAD.MRG
IADD
XMAD.PSL.CBCC
XMAD.PSL.CBCC
XMAD
I2I.S32.S32
XMAD.MRG
ISETP.LE.U32.AND
ISETP.LE.U32.AND
XMAD.PSL.CBCC
ISETP.LE.U32.AND
IADD
IADD
ISETP.LE.U32.AND
ISETP.GE.U32.AND
IADD
ISETP.NE.AND
LOP.XOR
IADD32I
ISETP.GE.AND
ISETP.LE.U32.AND
IADD
ISETP.GE.AND
IADD32I
PSETP.AND.AND
LOP.PASS_B
IADD
IADD
ISETP.GE.AND
IADD
MOV
SEL
SEL
IADD
XMAD
XMAD.MRG
SEL
XMAD.PSL.CBCC
SHL
XMAD
XMAD.MRG
XMAD.PSL.CBCC
SHR
IADD
SHL
SHR
IADD.X
MOV
STG.E
MOV32I
IADD
MOV
IADD.X
VABSDIFF.ACC
MOV
BRA
SHR
IADD
LDG.E
IADD.X
FADD
MOV
STG.E
IADD
LDG.E
MOV
IADD.X
FADD
STG.E
LDG.E
IADD
IADD.X
IADD32I
MOV
FADD
STG.E
LDG.E
IADD
IADD.X
VABSDIFF.ACC
FADD
STG.E
MOV
BRA
MOV32I
MOV
VABSDIFF.ACC
BRA
IADD
LDG.E
SHR
MOV
IADD.X
FADD
STG.E
LDG.E
IADD
IADD32I
IADD.X
FADD
STG.E
MOV
ISETP.LT.AND
BRA
SHR
IADD32I
LDG.E
ISETP.LT.AND
IADD
IADD.X
FADD
STG.E
MOV
BRA
MOV
XMAD
XMAD.MRG
XMAD.PSL.CBCC
ISETP.LT.AND
BRA
BRA
MOV
S2R
S2R
XMAD.MRG
XMAD
XMAD.PSL.CBCC
ISETP.GE.AND
ISETP.LT.AND
BRA
MOV
SHL
XMAD
XMAD.MRG
SHR
XMAD.PSL.CBCC
IADD
ISETP.LT.AND
IADD.X
STG.E.64
BRA
MOV
XMAD
XMAD.MRG
XMAD
XMAD.MRG
XMAD.PSL.CBCC
XMAD.PSL.CBCC
SHL
I2I.S32.S32
I2F.F32.U32.RP
MUFU.RCP
IADD32I
I2I.S32.S32
ISETP.NE.AND
F2I.FTZ.U32.F32.TRUNC
XMAD
XMAD.MRG
XMAD.PSL.CBCC
IADD
XMAD
XMAD
XMAD
XMAD.CHI
IADD3.RS
XMAD
XMAD
XMAD
XMAD.CHI
I2I.S32.S32
IADD3.RS
I2F.F32.U32.RP
IADD
MUFU.RCP
XMAD
XMAD.MRG
XMAD.PSL.CBCC
I2I.S32.S32
ISETP.LE.U32.AND
IADD32I
F2I.FTZ.U32.F32.TRUNC
IADD
ISETP.GE.U32.AND
LOP.XOR
IADD32I
XMAD
XMAD.MRG
ISETP.GE.AND
PSETP.AND.AND
XMAD.PSL.CBCC
IADD32I
IADD
MOV
LOP.PASS_B
XMAD
IADD
XMAD
XMAD.CHI
SEL
XMAD
I2I.S32.S32
IADD3.RS
I2I.S32.S32
XMAD
I2I.S32.S32
XMAD
XMAD
XMAD
XMAD.CHI
XMAD
XMAD.CHI
XMAD
XMAD
IADD3.RS
XMAD
IADD3.RS
XMAD.CHI
XMAD
IADD
IADD
IADD3.RS
XMAD
XMAD.MRG
XMAD
XMAD.MRG
IADD
XMAD.PSL.CBCC
XMAD.PSL.CBCC
XMAD
I2I.S32.S32
XMAD.MRG
ISETP.LE.U32.AND
ISETP.LE.U32.AND
XMAD.PSL.CBCC
ISETP.LE.U32.AND
IADD
IADD
ISETP.LE.U32.AND
ISETP.GE.U32.AND
IADD
ISETP.NE.AND
LOP.XOR
IADD32I
ISETP.GE.AND
ISETP.LE.U32.AND
IADD
ISETP.GE.AND
IADD32I
PSETP.AND.AND
LOP.PASS_B
IADD
IADD
ISETP.GE.AND
IADD
MOV
SEL
SEL
IADD
XMAD
XMAD.MRG
SEL
XMAD.PSL.CBCC
SHL
XMAD
XMAD.MRG
XMAD.PSL.CBCC
SHR
IADD
SHL
SHR
IADD.X
MOV
STG.E.64
MOV32I
IADD
MOV
IADD.X
VABSDIFF.ACC
MOV
MOV
BRA
SHR
IADD
LDG.E.64
IADD.X
DADD
MOV
STG.E.64
MOV
LDG.E.64
IADD
IADD.X
DADD
STG.E.64
LDG.E.64
IADD
IADD.X
IADD
DADD
STG.E.64
LDG.E.64
IADD32I
MOV
IADD.X
VABSDIFF.ACC
DADD
MOV
STG.E.64
MOV
BRA
MOV32I
MOV
VABSDIFF.ACC
BRA
MOV
LDG.E.64
SHR
IADD
IADD.X
DADD
MOV
STG.E.64
MOV
LDG.E.64
IADD
IADD32I
IADD.X
DADD
STG.E.64
ISETP.LT.AND
BRA
SHR
IADD32I
LDG.E.64
MOV
IADD
ISETP.LT.AND
IADD.X
MOV
DADD
STG.E.64
BRA
MOV
XMAD
XMAD.MRG
XMAD.PSL.CBCC
ISETP.LT.AND
BRA
BRA
MOV
S2R
S2R
XMAD.MRG
XMAD
XMAD.PSL.CBCC
ISETP.GE.AND
I2I.S32.S32
I2F.F32.U32.RP
MUFU.RCP
IADD32I
F2I.FTZ.U32.F32.TRUNC
XMAD
XMAD.MRG
XMAD.PSL.CBCC
IADD
XMAD
XMAD
XMAD
XMAD.CHI
IADD3.RS
ISETP.NE.AND
I2I.S32.S32
XMAD
I2I.S32.S32
XMAD
XMAD.CHI
I2I.S32.S32
XMAD
I2F.F32.U32.RP
IADD3.RS
I2F.F32.U32.RP
IADD
MUFU.RCP
XMAD
XMAD.MRG
XMAD.PSL.CBCC
MUFU.RCP
ISETP.LE.U32.AND
I2I.S32.S32
IADD32I
F2I.FTZ.U32.F32.TRUNC
IADD32I
F2I.FTZ.U32.F32.TRUNC
IADD
XMAD.MRG
XMAD
ISETP.GE.U32.AND
LOP.XOR
XMAD
XMAD.MRG
XMAD.PSL.CBCC
ISETP.GE.AND
IADD32I
PSETP.AND.AND
XMAD.PSL.CBCC
I2I.S32.S32
IADD
IADD32I
IADD
XMAD
LOP.PASS_B
IADD
XMAD
XMAD
XMAD
XMAD.CHI
SEL
XMAD
I2I.S32.S32
XMAD
XMAD.CHI
IADD3.RS
IADD3.RS
XMAD
XMAD
XMAD
XMAD
XMAD.CHI
XMAD
XMAD.CHI
XMAD
IADD3.RS
IADD3.RS
IADD
IADD
XMAD
XMAD.MRG
XMAD
XMAD.MRG
XMAD.PSL.CBCC
XMAD.PSL.CBCC
I2I.S32.S32
ISETP.LE.U32.AND
ISETP.LE.U32.AND
IADD
IADD
ISETP.LE.U32.AND
ISETP.NE.AND
LOP.XOR
ISETP.GE.U32.AND
IADD32I
ISETP.GE.AND
IADD
ISETP.GE.AND
PSETP.AND.AND
IADD32I
MOV
LOP.PASS_B
IADD
IADD
SEL
SEL
XMAD.MRG
XMAD
XMAD.PSL.CBCC
SHL
SHR
IADD
IADD.X
LDG.E
MOV
XMAD
XMAD.MRG
SHL
XMAD.PSL.CBCC
SHR
ISETP.LT.AND
IADD
IADD.X
MOV
STG.E
BRA
BRA
MOV
S2R
S2R
XMAD.MRG
XMAD
XMAD.PSL.CBCC
ISETP.GE.AND
I2I.S32.S32
I2F.F32.U32.RP
MUFU.RCP
IADD32I
F2I.FTZ.U32.F32.TRUNC
XMAD
XMAD.MRG
XMAD.PSL.CBCC
IADD
XMAD
XMAD
XMAD
XMAD.CHI
IADD3.RS
ISETP.NE.AND
I2I.S32.S32
XMAD
I2I.S32.S32
XMAD
XMAD.CHI
I2I.S32.S32
XMAD
I2F.F32.U32.RP
IADD3.RS
I2F.F32.U32.RP
IADD
MUFU.RCP
XMAD
XMAD.MRG
XMAD.PSL.CBCC
MUFU.RCP
ISETP.LE.U32.AND
I2I.S32.S32
IADD32I
F2I.FTZ.U32.F32.TRUNC
IADD32I
F2I.FTZ.U32.F32.TRUNC
IADD
XMAD.MRG
XMAD
ISETP.GE.U32.AND
LOP.XOR
XMAD
XMAD.MRG
XMAD.PSL.CBCC
ISETP.GE.AND
IADD32I
PSETP.AND.AND
XMAD.PSL.CBCC
I2I.S32.S32
IADD
IADD32I
IADD
XMAD
LOP.PASS_B
IADD
XMAD
XMAD
XMAD
XMAD.CHI
SEL
XMAD
I2I.S32.S32
XMAD
XMAD.CHI
IADD3.RS
IADD3.RS
XMAD
XMAD
XMAD
XMAD
XMAD.CHI
XMAD
XMAD.CHI
XMAD
IADD3.RS
IADD3.RS
IADD
IADD
XMAD
XMAD.MRG
XMAD
XMAD.MRG
XMAD.PSL.CBCC
XMAD.PSL.CBCC
I2I.S32.S32
ISETP.LE.U32.AND
ISETP.LE.U32.AND
IADD
IADD
ISETP.LE.U32.AND
ISETP.NE.AND
LOP.XOR
ISETP.GE.U32.AND
IADD32I
ISETP.GE.AND
IADD
ISETP.GE.AND
PSETP.AND.AND
IADD32I
MOV
LOP.PASS_B
IADD
IADD
SEL
SEL
XMAD.MRG
XMAD
XMAD.PSL.CBCC
SHL
SHR
IADD
IADD.X
LDG.E.64
MOV
XMAD
XMAD.MRG
SHL
XMAD.PSL.CBCC
SHR
ISETP.LT.AND
IADD
IADD.X
MOV
STG.E.64
BRA
BRA
MOV
S2R
S2R
XMAD.MRG
XMAD
XMAD.PSL.CBCC
ISETP.GE.AND
ISETP.LT.AND
BRA
MOV
SHL
XMAD
XMAD.MRG
SHR
XMAD.PSL.CBCC
IADD
ISETP.LT.AND
IADD.X
STG.E
BRA
MOV
XMAD
XMAD.MRG
XMAD
XMAD.MRG
XMAD.PSL.CBCC
XMAD.PSL.CBCC
SHL
I2I.S32.S32
I2F.F32.U32.RP
MUFU.RCP
IADD32I
I2I.S32.S32
ISETP.NE.AND
F2I.FTZ.U32.F32.TRUNC
XMAD
XMAD.MRG
XMAD.PSL.CBCC
IADD
XMAD
XMAD
XMAD
XMAD.CHI
IADD3.RS
XMAD
XMAD
XMAD
XMAD.CHI
I2I.S32.S32
IADD3.RS
I2F.F32.U32.RP
IADD
MUFU.RCP
XMAD
XMAD.MRG
XMAD.PSL.CBCC
I2I.S32.S32
ISETP.LE.U32.AND
IADD32I
F2I.FTZ.U32.F32.TRUNC
IADD
ISETP.GE.U32.AND
LOP.XOR
IADD32I
XMAD
XMAD.MRG
ISETP.GE.AND
PSETP.AND.AND
XMAD.PSL.CBCC
IADD32I
IADD
MOV
LOP.PASS_B
XMAD
IADD
XMAD
XMAD.CHI
SEL
XMAD
I2I.S32.S32
IADD3.RS
I2I.S32.S32
XMAD
I2I.S32.S32
XMAD
XMAD
XMAD
XMAD.CHI
XMAD
XMAD.CHI
XMAD
XMAD
IADD3.RS
XMAD
IADD3.RS
XMAD.CHI
XMAD
IADD
IADD
IADD3.RS
XMAD
XMAD.MRG
XMAD
XMAD.MRG
IADD
XMAD.PSL.CBCC
XMAD.PSL.CBCC
XMAD
I2I.S32.S32
XMAD.MRG
ISETP.LE.U32.AND
ISETP.LE.U32.AND
XMAD.PSL.CBCC
ISETP.LE.U32.AND
IADD
IADD
ISETP.LE.U32.AND
ISETP.GE.U32.AND
IADD
ISETP.NE.AND
LOP.XOR
IADD32I
ISETP.GE.AND
ISETP.LE.U32.AND
IADD
ISETP.GE.AND
IADD32I
PSETP.AND.AND
LOP.PASS_B
IADD
IADD
ISETP.GE.AND
IADD
MOV
SEL
SEL
IADD
XMAD
XMAD.MRG
SEL
XMAD.PSL.CBCC
SHL
XMAD
XMAD.MRG
XMAD.PSL.CBCC
SHR
IADD
SHL
SHR
IADD.X
MOV
STG.E
MOV32I
IADD
MOV
IADD.X
VABSDIFF.ACC
MOV
BRA
SHR
IADD
LDG.E
IADD.X
FADD
MOV
STG.E
IADD
LDG.E
MOV
IADD.X
FADD
STG.E
LDG.E
IADD
IADD.X
IADD32I
MOV
FADD
STG.E
LDG.E
IADD
IADD.X
VABSDIFF.ACC
FADD
STG.E
MOV
BRA
MOV32I
MOV
VABSDIFF.ACC
BRA
IADD
LDG.E
SHR
MOV
IADD.X
FADD
STG.E
LDG.E
IADD
IADD32I
IADD.X
FADD
STG.E
MOV
ISETP.LT.AND
BRA
SHR
IADD32I
LDG.E
ISETP.LT.AND
IADD
IADD.X
FADD
STG.E
MOV
BRA
MOV
XMAD
XMAD.MRG
XMAD.PSL.CBCC
ISETP.LT.AND
BRA
BRA
MOV
S2R
S2R
XMAD.MRG
XMAD
XMAD.PSL.CBCC
ISETP.GE.AND
ISETP.LT.AND
BRA
MOV
SHL
XMAD
XMAD.MRG
SHR
XMAD.PSL.CBCC
IADD
ISETP.LT.AND
IADD.X
STG.E.64
BRA
MOV
XMAD
XMAD.MRG
XMAD
XMAD.MRG
XMAD.PSL.CBCC
XMAD.PSL.CBCC
SHL
I2I.S32.S32
I2F.F32.U32.RP
MUFU.RCP
IADD32I
I2I.S32.S32
ISETP.NE.AND
F2I.FTZ.U32.F32.TRUNC
XMAD
XMAD.MRG
XMAD.PSL.CBCC
IADD
XMAD
XMAD
XMAD
XMAD.CHI
IADD3.RS
XMAD
XMAD
XMAD
XMAD.CHI
I2I.S32.S32
IADD3.RS
I2F.F32.U32.RP
IADD
MUFU.RCP
XMAD
XMAD.MRG
XMAD.PSL.CBCC
I2I.S32.S32
ISETP.LE.U32.AND
IADD32I
F2I.FTZ.U32.F32.TRUNC
IADD
ISETP.GE.U32.AND
LOP.XOR
IADD32I
XMAD
XMAD.MRG
ISETP.GE.AND
PSETP.AND.AND
XMAD.PSL.CBCC
IADD32I
IADD
MOV
LOP.PASS_B
XMAD
IADD
XMAD
XMAD.CHI
SEL
XMAD
I2I.S32.S32
IADD3.RS
I2I.S32.S32
XMAD
I2I.S32.S32
XMAD
XMAD
XMAD
XMAD.CHI
XMAD
XMAD.CHI
XMAD
XMAD
IADD3.RS
XMAD
IADD3.RS
XMAD.CHI
XMAD
IADD
IADD
IADD3.RS
XMAD
XMAD.MRG
XMAD
XMAD.MRG
IADD
XMAD.PSL.CBCC
XMAD.PSL.CBCC
XMAD
I2I.S32.S32
XMAD.MRG
ISETP.LE.U32.AND
ISETP.LE.U32.AND
XMAD.PSL.CBCC
ISETP.LE.U32.AND
IADD
IADD
ISETP.LE.U32.AND
ISETP.GE.U32.AND
IADD
ISETP.NE.AND
LOP.XOR
IADD32I
ISETP.GE.AND
ISETP.LE.U32.AND
IADD
ISETP.GE.AND
IADD32I
PSETP.AND.AND
LOP.PASS_B
IADD
IADD
ISETP.GE.AND
IADD
MOV
SEL
SEL
IADD
XMAD
XMAD.MRG
SEL
XMAD.PSL.CBCC
SHL
XMAD
XMAD.MRG
XMAD.PSL.CBCC
SHR
IADD
SHL
SHR
IADD.X
MOV
STG.E.64
MOV32I
IADD
MOV
IADD.X
VABSDIFF.ACC
MOV
MOV
BRA
SHR
IADD
LDG.E.64
IADD.X
DADD
MOV
STG.E.64
MOV
LDG.E.64
IADD
IADD.X
DADD
STG.E.64
LDG.E.64
IADD
IADD.X
IADD
DADD
STG.E.64
LDG.E.64
IADD32I
MOV
IADD.X
VABSDIFF.ACC
DADD
MOV
STG.E.64
MOV
BRA
MOV32I
MOV
VABSDIFF.ACC
BRA
MOV
LDG.E.64
SHR
IADD
IADD.X
DADD
MOV
STG.E.64
MOV
LDG.E.64
IADD
IADD32I
IADD.X
DADD
STG.E.64
ISETP.LT.AND
BRA
SHR
IADD32I
LDG.E.64
MOV
IADD
ISETP.LT.AND
IADD.X
MOV
DADD
STG.E.64
BRA
MOV
XMAD
XMAD.MRG
XMAD.PSL.CBCC
ISETP.LT.AND
BRA
BRA
MOV
S2R
S2R
XMAD.MRG
XMAD
XMAD.PSL.CBCC
ISETP.GE.AND
I2I.S32.S32
I2F.F32.U32.RP
MUFU.RCP
IADD32I
F2I.FTZ.U32.F32.TRUNC
XMAD
XMAD.MRG
XMAD.PSL.CBCC
IADD
XMAD
XMAD
XMAD
XMAD.CHI
IADD3.RS
ISETP.NE.AND
I2I.S32.S32
XMAD
I2I.S32.S32
XMAD
XMAD.CHI
I2I.S32.S32
XMAD
I2F.F32.U32.RP
IADD3.RS
I2F.F32.U32.RP
IADD
MUFU.RCP
XMAD
XMAD.MRG
XMAD.PSL.CBCC
MUFU.RCP
ISETP.LE.U32.AND
I2I.S32.S32
IADD32I
F2I.FTZ.U32.F32.TRUNC
IADD32I
F2I.FTZ.U32.F32.TRUNC
IADD
XMAD.MRG
XMAD
ISETP.GE.U32.AND
LOP.XOR
XMAD
XMAD.MRG
XMAD.PSL.CBCC
ISETP.GE.AND
IADD32I
PSETP.AND.AND
XMAD.PSL.CBCC
I2I.S32.S32
IADD
IADD32I
IADD
XMAD
LOP.PASS_B
IADD
XMAD
XMAD
XMAD
XMAD.CHI
SEL
XMAD
I2I.S32.S32
XMAD
XMAD.CHI
IADD3.RS
IADD3.RS
XMAD
XMAD
XMAD
XMAD
XMAD.CHI
XMAD
XMAD.CHI
XMAD
IADD3.RS
IADD3.RS
IADD
IADD
XMAD
XMAD.MRG
XMAD
XMAD.MRG
XMAD.PSL.CBCC
XMAD.PSL.CBCC
I2I.S32.S32
ISETP.LE.U32.AND
ISETP.LE.U32.AND
IADD
IADD
ISETP.LE.U32.AND
ISETP.NE.AND
LOP.XOR
ISETP.GE.U32.AND
IADD32I
ISETP.GE.AND
IADD
ISETP.GE.AND
PSETP.AND.AND
IADD32I
MOV
LOP.PASS_B
IADD
IADD
SEL
SEL
XMAD.MRG
XMAD
XMAD.PSL.CBCC
SHL
SHR
IADD
IADD.X
LDG.E
MOV
XMAD
XMAD.MRG
SHL
XMAD.PSL.CBCC
SHR
ISETP.LT.AND
IADD
IADD.X
MOV
STG.E
BRA
BRA
MOV
S2R
S2R
XMAD.MRG
XMAD
XMAD.PSL.CBCC
ISETP.GE.AND
I2I.S32.S32
I2F.F32.U32.RP
MUFU.RCP
IADD32I
F2I.FTZ.U32.F32.TRUNC
XMAD
XMAD.MRG
XMAD.PSL.CBCC
IADD
XMAD
XMAD
XMAD
XMAD.CHI
IADD3.RS
ISETP.NE.AND
I2I.S32.S32
XMAD
I2I.S32.S32
XMAD
XMAD.CHI
I2I.S32.S32
XMAD
I2F.F32.U32.RP
IADD3.RS
I2F.F32.U32.RP
IADD
MUFU.RCP
XMAD
XMAD.MRG
XMAD.PSL.CBCC
MUFU.RCP
ISETP.LE.U32.AND
I2I.S32.S32
IADD32I
F2I.FTZ.U32.F32.TRUNC
IADD32I
F2I.FTZ.U32.F32.TRUNC
IADD
XMAD.MRG
XMAD
ISETP.GE.U32.AND
LOP.XOR
XMAD
XMAD.MRG
XMAD.PSL.CBCC
ISETP.GE.AND
IADD32I
PSETP.AND.AND
XMAD.PSL.CBCC
I2I.S32.S32
IADD
IADD32I
IADD
XMAD
LOP.PASS_B
IADD
XMAD
XMAD
XMAD
XMAD.CHI
SEL
XMAD
I2I.S32.S32
XMAD
XMAD.CHI
IADD3.RS
IADD3.RS
XMAD
XMAD
XMAD
XMAD
XMAD.CHI
XMAD
XMAD.CHI
XMAD
IADD3.RS
IADD3.RS
IADD
IADD
XMAD
XMAD.MRG
XMAD
XMAD.MRG
XMAD.PSL.CBCC
XMAD.PSL.CBCC
I2I.S32.S32
ISETP.LE.U32.AND
ISETP.LE.U32.AND
IADD
IADD
ISETP.LE.U32.AND
ISETP.NE.AND
LOP.XOR
ISETP.GE.U32.AND
IADD32I
ISETP.GE.AND
IADD
ISETP.GE.AND
PSETP.AND.AND
IADD32I
MOV
LOP.PASS_B
IADD
IADD
SEL
SEL
XMAD.MRG
XMAD
XMAD.PSL.CBCC
SHL
SHR
IADD
IADD.X
LDG.E.64
MOV
XMAD
XMAD.MRG
SHL
XMAD.PSL.CBCC
SHR
ISETP.LT.AND
IADD
IADD.X
MOV
STG.E.64
BRA
BRA
