MOV
S2R
S2R
IMAD
ISETP.GE.AND
I2I.S32.S32
I2I.S32.S32
I2F.F32.U32.RP
I2F.F32.U32.RP
MUFU.RCP
MUFU.RCP
IADD32I
IADD32I
F2I.FTZ.U32.F32.TRUNC
F2I.FTZ.U32.F32.TRUNC
IMUL.U32.U32
IMUL.U32.U32
MOV
I2I.S32.S32
I2I.S32.S32
LOP.PASS_B
LOP.PASS_B
MOV32I
IMUL
IMAD.U32.U32.HI
IMAD.U32.U32.HI
I2I.S32.S32
LOP.XOR
IMUL.U32.U32.HI
ISETP.GE.AND
IMAD.U32.U32
IMAD
ISETP.LE.U32.AND
IMAD.HI.X
ISUB
IADD
ISETP.GE.U32.AND
IADD
ISETP.NE.AND
I2I.S32.S32
SEL
I2I.S32.S32
ISETP.GE.AND
IMUL.U32.U32.HI
IMAD.U32.U32
ISETP.LE.U32.AND
ISUB
ISETP.LE.U32.AND
ISUB
ISETP.NE.AND
I2I.S32.S32
SEL
IMAD
LD.E.64
IMAD.HI.X
LD.E.64
DADD
IMAD
IMAD.HI.X
IADD
ST.E.64
ISETP.LT.AND
BRA
MOV
S2R
S2R
IMAD
ISETP.GE.AND
I2I.S32.S32
I2I.S32.S32
I2F.F32.U32.RP
I2F.F32.U32.RP
MUFU.RCP
MUFU.RCP
IADD32I
IADD32I
F2I.FTZ.U32.F32.TRUNC
F2I.FTZ.U32.F32.TRUNC
IMUL.U32.U32
IMUL.U32.U32
MOV
I2I.S32.S32
I2I.S32.S32
LOP.PASS_B
LOP.PASS_B
MOV32I
IMUL
IMAD.U32.U32.HI
IMAD.U32.U32.HI
I2I.S32.S32
LOP.XOR
IMUL.U32.U32.HI
ISETP.GE.AND
IMAD.U32.U32
ISETP.LE.U32.AND
ISUB
IADD
ISETP.GE.U32.AND
IADD
ISETP.NE.AND
I2I.S32.S32
SEL
I2I.S32.S32
ISETP.GE.AND
IMUL.U32.U32.HI
IMAD
IMAD.U32.U32
IMAD.HI.X
ISETP.LE.U32.AND
ISUB
LD.E
ISETP.LE.U32.AND
ISUB
ISETP.NE.AND
I2I.S32.S32
SEL
IMAD
IMAD.HI.X
IMAD
LD.E
IMAD.HI.X
IADD
ISETP.LT.AND
FADD
ST.E
BRA
MOV
S2R
S2R
IMAD
ISETP.GE.AND
I2I.S32.S32
I2I.S32.S32
LOP.PASS_B
I2F.F32.U32.RP
I2F.F32.U32.RP
LOP.PASS_B
MUFU.RCP
MOV
MUFU.RCP
IADD32I
MOV32I
IADD32I
F2I.FTZ.U32.F32.TRUNC
IMUL
F2I.FTZ.U32.F32.TRUNC
IMUL.U32.U32
IMUL.U32.U32
I2I.S32.S32
I2I.S32.S32
IMAD.U32.U32.HI
IMAD.U32.U32.HI
I2I.S32.S32
LOP.XOR
IMAD
IMUL.U32.U32.HI
ISETP.GE.AND
IMAD.HI.X
IMAD.U32.U32
ISETP.LE.U32.AND
ISUB
IADD
ISETP.GE.U32.AND
IADD
ISETP.NE.AND
I2I.S32.S32
SEL
I2I.S32.S32
ISETP.GE.AND
IMUL.U32.U32.HI
IMAD.U32.U32
ISETP.LE.U32.AND
ISUB
ISETP.LE.U32.AND
ISUB
ISETP.NE.AND
I2I.S32.S32
SEL
IMAD
IMAD.HI.X
LD.E.64
IMAD
LD.E.64
IMAD.HI.X
IADD
ISETP.LT.AND
DADD
ST.E.64
BRA
MOV
S2R
S2R
IMAD
ISETP.GE.AND
I2I.S32.S32
I2I.S32.S32
LOP.PASS_B
I2F.F32.U32.RP
I2F.F32.U32.RP
LOP.PASS_B
MUFU.RCP
MOV
MUFU.RCP
IADD32I
MOV32I
IADD32I
F2I.FTZ.U32.F32.TRUNC
IMUL
F2I.FTZ.U32.F32.TRUNC
IMUL.U32.U32
IMUL.U32.U32
I2I.S32.S32
I2I.S32.S32
IMAD.U32.U32.HI
IMAD.U32.U32.HI
I2I.S32.S32
LOP.XOR
IMUL.U32.U32.HI
ISETP.GE.AND
IMAD.U32.U32
ISETP.LE.U32.AND
ISUB
IADD
ISETP.GE.U32.AND
IADD
ISETP.NE.AND
I2I.S32.S32
SEL
I2I.S32.S32
ISETP.GE.AND
IMAD
IMUL.U32.U32.HI
IMAD.HI.X
IMAD.U32.U32
LD.E
ISETP.LE.U32.AND
ISUB
ISETP.LE.U32.AND
ISUB
ISETP.NE.AND
I2I.S32.S32
SEL
IMAD
IMAD.HI.X
IMAD
LD.E
IMAD.HI.X
IADD
ISETP.LT.AND
FADD
ST.E
BRA
MOV
S2R
S2R
IMAD
ISETP.GE.AND
I2I.S32.S32
LOP.PASS_B
I2I.S32.S32
MOV32I
I2F.F32.U32.RP
I2F.F32.U32.RP
MUFU.RCP
MUFU.RCP
IADD32I
IADD32I
F2I.FTZ.U32.F32.TRUNC
MOV
F2I.FTZ.U32.F32.TRUNC
IMUL.U32.U32
IMUL.U32.U32
I2I.S32.S32
I2I.S32.S32
LOP.PASS_B
IMUL
IMAD.U32.U32.HI
IMAD.U32.U32.HI
I2I.S32.S32
LOP.XOR
IMUL.U32.U32.HI
IMAD.U32.U32
ISETP.LE.U32.AND
ISUB
IADD
ISETP.GE.U32.AND
ISETP.GE.AND
IADD
ISETP.NE.AND
I2I.S32.S32
SEL
I2I.S32.S32
ISETP.GE.AND
IMUL.U32.U32.HI
IMAD.U32.U32
ISETP.LE.U32.AND
ISUB
ISETP.LE.U32.AND
ISUB
ISETP.NE.AND
I2I.S32.S32
IMAD
SEL
IMAD.HI.X
IMAD
IMAD.HI.X
LD.E.64
LD.E.64
DADD
IMAD
IMAD.HI.X
IADD
ST.E.64
ISETP.LT.AND
BRA
BRA
MOV
S2R
S2R
IMAD
ISETP.GE.AND
I2I.S32.S32
LOP.PASS_B
I2I.S32.S32
LOP.PASS_B
I2F.F32.U32.RP
MOV32I
I2F.F32.U32.RP
MUFU.RCP
MUFU.RCP
IADD32I
IADD32I
F2I.FTZ.U32.F32.TRUNC
F2I.FTZ.U32.F32.TRUNC
MOV
IMUL.U32.U32
IMUL.U32.U32
I2I.S32.S32
I2I.S32.S32
IMUL
IMAD.U32.U32.HI
IMAD.U32.U32.HI
I2I.S32.S32
LOP.XOR
IMUL.U32.U32.HI
ISETP.GE.AND
IMAD.U32.U32
ISETP.LE.U32.AND
ISUB
IADD
ISETP.GE.U32.AND
IADD
ISETP.NE.AND
I2I.S32.S32
SEL
I2I.S32.S32
ISETP.GE.AND
IMUL.U32.U32.HI
IMAD.U32.U32
ISETP.LE.U32.AND
ISUB
ISETP.LE.U32.AND
ISUB
ISETP.NE.AND
I2I.S32.S32
IMAD
SEL
IMAD.HI.X
IMAD
LD.E
IMAD.HI.X
IMAD
LD.E
IMAD.HI.X
IADD
ISETP.LT.AND
FADD
ST.E
BRA
BRA
MOV
S2R
S2R
IMAD
ISETP.GE.AND
I2I.S32.S32
LOP.PASS_B
I2I.S32.S32
MOV32I
I2F.F32.U32.RP
I2F.F32.U32.RP
MUFU.RCP
MUFU.RCP
IADD32I
IADD32I
F2I.FTZ.U32.F32.TRUNC
MOV
F2I.FTZ.U32.F32.TRUNC
IMUL.U32.U32
IMUL.U32.U32
I2I.S32.S32
I2I.S32.S32
LOP.PASS_B
IMUL
IMAD.U32.U32.HI
IMAD.U32.U32.HI
I2I.S32.S32
LOP.XOR
IMUL.U32.U32.HI
IMAD.U32.U32
ISETP.LE.U32.AND
ISUB
IADD
ISETP.GE.U32.AND
ISETP.GE.AND
IADD
ISETP.NE.AND
I2I.S32.S32
SEL
I2I.S32.S32
ISETP.GE.AND
IMUL.U32.U32.HI
IMAD.U32.U32
ISETP.LE.U32.AND
ISUB
ISETP.LE.U32.AND
ISUB
ISETP.NE.AND
I2I.S32.S32
IMAD
SEL
IMAD.HI.X
IMAD
IMAD.HI.X
LD.E.64
LD.E.64
IMAD
IMAD.HI.X
IADD
ISETP.LT.AND
DADD
ST.E.64
BRA
MOV
BRA
MOV
S2R
S2R
IMAD
ISETP.GE.AND
I2I.S32.S32
LOP.PASS_B
I2I.S32.S32
LOP.PASS_B
I2F.F32.U32.RP
MOV32I
I2F.F32.U32.RP
MUFU.RCP
MUFU.RCP
IADD32I
IADD32I
F2I.FTZ.U32.F32.TRUNC
F2I.FTZ.U32.F32.TRUNC
MOV
IMUL.U32.U32
IMUL.U32.U32
I2I.S32.S32
I2I.S32.S32
IMUL
IMAD.U32.U32.HI
IMAD.U32.U32.HI
I2I.S32.S32
LOP.XOR
IMUL.U32.U32.HI
ISETP.GE.AND
IMAD.U32.U32
ISETP.LE.U32.AND
ISUB
IADD
ISETP.GE.U32.AND
IADD
ISETP.NE.AND
I2I.S32.S32
SEL
I2I.S32.S32
ISETP.GE.AND
IMUL.U32.U32.HI
IMAD.U32.U32
ISETP.LE.U32.AND
ISUB
ISETP.LE.U32.AND
ISUB
ISETP.NE.AND
I2I.S32.S32
IMAD
SEL
IMAD.HI.X
IMAD
LD.E
IMAD.HI.X
IMAD
LD.E
IMAD.HI.X
IADD
ISETP.LT.AND
FADD
ST.E
BRA
MOV
BRA
MOV
S2R
S2R
XMAD.MRG
XMAD
XMAD.PSL.CBCC
ISETP.GE.AND
I2I.S32.S32
I2F.F32.U32.RP
MUFU.RCP
IADD32I
F2I.FTZ.U32.F32.TRUNC
ISETP.NE.AND
XMAD
XMAD.MRG
XMAD.PSL.CBCC
IADD
XMAD
XMAD
XMAD
PSETP.AND.AND
XMAD.CHI
IADD3.RS
LOP.PASS_B
ISETP.NE.AND
I2I.S32.S32
SHL
I2I.S32.S32
XMAD
XMAD
XMAD
XMAD.CHI
I2I.S32.S32
IADD3.RS
I2F.F32.U32.RP
IADD
MUFU.RCP
XMAD
XMAD.MRG
XMAD.PSL.CBCC
I2I.S32.S32
ISETP.LE.U32.AND
IADD32I
IADD
F2I.FTZ.U32.F32.TRUNC
ISETP.GE.U32.AND
LOP.XOR
IADD32I
XMAD
XMAD.MRG
ISETP.GE.AND
IADD32I
XMAD.PSL.CBCC
PSETP.AND.AND
IADD
LOP.PASS_B
IADD
XMAD
SEL
XMAD
I2I.S32.S32
XMAD
XMAD.CHI
IADD3.RS
XMAD
XMAD
XMAD
XMAD.CHI
IADD3.RS
IADD
XMAD
XMAD.MRG
XMAD.PSL.CBCC
I2I.S32.S32
ISETP.LE.U32.AND
ISETP.GE.AND
IADD
ISETP.LE.U32.AND
IADD
IADD
SHR
SEL
IADD
SHL
IADD.X
SHR
LDG.E.64
IADD
IADD.X
LDG.E.64
MOV
XMAD
XMAD.MRG
XMAD.PSL.CBCC
IADD
ISETP.LT.AND
IADD.X
DADD
STG.E.64
BRA
BRA
MOV
S2R
S2R
XMAD.MRG
XMAD
XMAD.PSL.CBCC
ISETP.GE.AND
I2I.S32.S32
I2F.F32.U32.RP
MUFU.RCP
IADD32I
F2I.FTZ.U32.F32.TRUNC
ISETP.NE.AND
XMAD
XMAD.MRG
XMAD.PSL.CBCC
IADD
XMAD
XMAD
XMAD
PSETP.AND.AND
XMAD.CHI
IADD3.RS
LOP.PASS_B
ISETP.NE.AND
I2I.S32.S32
SHR
I2I.S32.S32
XMAD
XMAD
XMAD
XMAD.CHI
I2I.S32.S32
IADD3.RS
I2F.F32.U32.RP
IADD
MUFU.RCP
XMAD
XMAD.MRG
XMAD.PSL.CBCC
I2I.S32.S32
ISETP.LE.U32.AND
IADD32I
IADD
F2I.FTZ.U32.F32.TRUNC
ISETP.GE.U32.AND
LOP.XOR
IADD32I
XMAD
XMAD.MRG
ISETP.GE.AND
IADD32I
XMAD.PSL.CBCC
PSETP.AND.AND
IADD
LOP.PASS_B
IADD
XMAD
SEL
XMAD
I2I.S32.S32
XMAD
XMAD.CHI
IADD3.RS
XMAD
XMAD
XMAD
XMAD.CHI
IADD3.RS
IADD
XMAD
XMAD.MRG
XMAD.PSL.CBCC
I2I.S32.S32
ISETP.LE.U32.AND
ISETP.GE.AND
IADD
ISETP.LE.U32.AND
SHL
IADD
IADD
IADD
SEL
IADD.X
SHL
LDG.E
SHR
IADD
IADD.X
LDG.E
MOV
XMAD
XMAD.MRG
XMAD.PSL.CBCC
IADD
ISETP.LT.AND
IADD.X
FADD
STG.E
BRA
BRA
MOV
S2R
S2R
XMAD.MRG
XMAD
XMAD.PSL.CBCC
ISETP.GE.AND
I2I.S32.S32
I2F.F32.U32.RP
MUFU.RCP
IADD32I
F2I.FTZ.U32.F32.TRUNC
ISETP.NE.AND
XMAD
XMAD.MRG
XMAD.PSL.CBCC
IADD
XMAD
XMAD
XMAD
PSETP.AND.AND
XMAD.CHI
IADD3.RS
LOP.PASS_B
ISETP.NE.AND
I2I.S32.S32
SHL
I2I.S32.S32
XMAD
XMAD
XMAD
XMAD.CHI
I2I.S32.S32
IADD3.RS
I2F.F32.U32.RP
IADD
MUFU.RCP
XMAD
XMAD.MRG
XMAD.PSL.CBCC
I2I.S32.S32
ISETP.LE.U32.AND
IADD32I
IADD
F2I.FTZ.U32.F32.TRUNC
ISETP.GE.U32.AND
LOP.XOR
IADD32I
XMAD
XMAD.MRG
ISETP.GE.AND
IADD32I
XMAD.PSL.CBCC
PSETP.AND.AND
IADD
LOP.PASS_B
IADD
XMAD
SEL
XMAD
I2I.S32.S32
XMAD
XMAD.CHI
IADD3.RS
XMAD
XMAD
XMAD
XMAD.CHI
IADD3.RS
IADD
XMAD
XMAD.MRG
XMAD.PSL.CBCC
I2I.S32.S32
ISETP.LE.U32.AND
ISETP.GE.AND
IADD
ISETP.LE.U32.AND
IADD
IADD
SHR
SEL
IADD
SHL
IADD.X
SHR
LDG.E.64
IADD
IADD.X
LDG.E.64
MOV
XMAD
XMAD.MRG
XMAD.PSL.CBCC
IADD
ISETP.LT.AND
IADD.X
DADD
STG.E.64
BRA
BRA
MOV
S2R
S2R
XMAD.MRG
XMAD
XMAD.PSL.CBCC
ISETP.GE.AND
I2I.S32.S32
I2F.F32.U32.RP
MUFU.RCP
IADD32I
F2I.FTZ.U32.F32.TRUNC
ISETP.NE.AND
XMAD
XMAD.MRG
XMAD.PSL.CBCC
IADD
XMAD
XMAD
XMAD
PSETP.AND.AND
XMAD.CHI
IADD3.RS
LOP.PASS_B
ISETP.NE.AND
I2I.S32.S32
SHR
I2I.S32.S32
XMAD
XMAD
XMAD
XMAD.CHI
I2I.S32.S32
IADD3.RS
I2F.F32.U32.RP
IADD
MUFU.RCP
XMAD
XMAD.MRG
XMAD.PSL.CBCC
I2I.S32.S32
ISETP.LE.U32.AND
IADD32I
IADD
F2I.FTZ.U32.F32.TRUNC
ISETP.GE.U32.AND
LOP.XOR
IADD32I
XMAD
XMAD.MRG
ISETP.GE.AND
IADD32I
XMAD.PSL.CBCC
PSETP.AND.AND
IADD
LOP.PASS_B
IADD
XMAD
SEL
XMAD
I2I.S32.S32
XMAD
XMAD.CHI
IADD3.RS
XMAD
XMAD
XMAD
XMAD.CHI
IADD3.RS
IADD
XMAD
XMAD.MRG
XMAD.PSL.CBCC
I2I.S32.S32
ISETP.LE.U32.AND
ISETP.GE.AND
IADD
ISETP.LE.U32.AND
SHL
IADD
IADD
IADD
SEL
IADD.X
SHL
LDG.E
SHR
IADD
IADD.X
LDG.E
MOV
XMAD
XMAD.MRG
XMAD.PSL.CBCC
IADD
ISETP.LT.AND
IADD.X
FADD
STG.E
BRA
BRA
