MOV
S2R
S2R
IMAD
ISETP.GE.AND
MOV
IMUL
SHL.W
SHR
IADD
IADD.X
IADD
LD.E
IADD.X
LD.E
FMNMX
FMUL32I
F2F.F32.F32.TRUNC
FADD
FFMA
FSETP.LT.AND
FFMA
FMUL
FMUL32I
RRO.EX2
RRO.EX2
MUFU.EX2
MUFU.EX2
FMUL
FSETP.LT.AND
FMUL
SEL
FSETP.GT.AND
SEL
F2F.F64.F32
FMUL
DADD
F2F.F64.F32
CAL
IADD
IADD
F2F.F32.F64
IADD.X
ISETP.LT.AND
ST.E
BRA
LOP32I.AND
LOP32I.AND
ISETP.LE.U32.AND
SSY
ISETP.EQ.U32.OR
BRA
MOV
MOV
MOV.S
ISUB
LOP32I.AND
LOP32I.AND
IADD32I
ISETP.GT.U32.X.AND
MOV
IADD32I
MUFU.RCP64H
MOV
DFMA
LOP.OR
DFMA
SSY
DFMA
DMUL
DFMA
DFMA
DFMA
DFMA
ISUB
LOP32I.AND
ISETP.GE.U32.X.AND
CAL
MOV
MOV.S
MOV
MOV
RET;
SHL
SHL
SHR.U32
SHR.U32
IADD
ISETP.GT.U32.AND
IADD
ISETP.GT.U32.OR
MOV
MOV
BRA
DSETP.LE.AND
BRA
LOP32I.OR
BRA
DSETP.LE.AND
BRA
LOP32I.OR
MOV
BRA
DSETP.EQ.AND
DSETP.EQ.AND
PSETP.AND.AND
BRA
DSETP.EQ.AND
DSETP.EQ.AND
BRA
BRA
MOV
MOV32I
BRA
PSETP.OR.AND
BRA
LOP.XOR
MOV
LOP32I.AND
BRA
PSETP.OR.AND
BRA
LOP.XOR
MOV
LOP32I.AND
LOP32I.OR
BRA
ISETP.GE.AND
DMUL
MOV32I
MOV
ISETP.GE.AND
BRA
DMUL
IADD
BRA
MOV
IADD
MOV32I
ISCADD
IADD
MUFU.RCP64H
ISCADD
DFMA
DMUL
DFMA
DFMA
DMUL
ISUB
DFMA
DFMA
DFMA
DFMA
DFMA
DFMA
SHL
SHR.U32
IADD
IADD
IADD
ISETP.GT.U32.AND
BRA
ISUB
ISCADD
BRA
IADD
ISETP.LE.AND
BRA
LOP32I.AND
MOV
LOP32I.OR
BRA
ISETP.GE.AND
LOP32I.AND
BRA
MOV
BRA
DFMA.RZ
DFMA.RP
DFMA.RM
I2I.S32.S32
ISETP.LE.AND
LOP32I.AND
DSETP.NE.AND
LOP32I.OR
BRA.U
I2I.S32.S32
ISETP.NE.OR
IADD
MOV
MOV
ISETP.EQ.AND
BRA.U
ISUB
SHR.U32
SHL
SHL
SHR.U32
LOP.OR
ISETP.NE.OR
SHL
SHR.U32
LOP.OR
SSY
LOP.AND
LOP.AND
ISETP.NE.OR
SHR.U32
ISETP.NE.AND
IADD
ISETP.EQ.AND
IADD
LOP.OR
RET;
MOV
S2R
S2R
IMAD
ISETP.GE.AND
MOV
MOV32I
MOV32I
MOV32I
MOV32I
MOV32I
MOV32I
IMUL
IMAD
MOV32I
IMAD.HI.X
MOV32I
MOV32I
LD.E.64
DMNMX
SSY
DMUL
FSETP.LT.AND
DADD
DADD
DFMA
DFMA
MOV32I
MOV32I
DFMA
MOV32I
MOV32I
DFMA
MOV32I
MOV32I
DFMA
MOV32I
MOV32I
DFMA
MOV32I
MOV32I
DFMA
MOV32I
MOV32I
DFMA
MOV32I
MOV32I
DFMA
MOV32I
MOV32I
DFMA
MOV32I
MOV32I
DFMA
DFMA
DFMA
ISET.LT.AND
ISCADD
MOV
BRA
DSETP.LT.AND
DADD
FSETP.GEU.AND
SEL
SEL
BRA.U
IMAD.U32.U32.HI
SHR
ISUB
ISCADD
MOV
ISCADD32I
DMUL
SHL.S
SHL
IMAD.U32.U32.HI
IADD
IADD.X
LD.E.64
DADD
DMUL
CAL
IADD
IADD
IADD.X
ISETP.LT.AND
ST.E.64
BRA
LOP32I.AND
LOP32I.AND
ISETP.LE.U32.AND
SSY
ISETP.EQ.U32.OR
BRA
MOV
MOV
MOV.S
ISUB
LOP32I.AND
LOP32I.AND
IADD32I
ISETP.GT.U32.X.AND
MOV
IADD32I
MUFU.RCP64H
MOV
DFMA
LOP.OR
DFMA
DFMA
DMUL
DFMA
SSY
DFMA
DFMA
DFMA
ISUB
LOP32I.AND
ISETP.GE.U32.X.AND
CAL
MOV
MOV.S
MOV
MOV
RET;
SHL
SHL
SHR.U32
SHR.U32
IADD
IADD
ISETP.GT.U32.AND
ISETP.GT.U32.OR
MOV
MOV
BRA
DSETP.LE.AND
BRA
LOP32I.OR
BRA
DSETP.LE.AND
BRA
LOP32I.OR
MOV
BRA
DSETP.EQ.AND
DSETP.EQ.AND
PSETP.AND.AND
BRA
DSETP.EQ.AND
DSETP.EQ.AND
BRA
BRA
MOV
MOV32I
BRA
PSETP.OR.AND
BRA
LOP.XOR
MOV
LOP32I.AND
BRA
PSETP.OR.AND
BRA
LOP.XOR
MOV
LOP32I.AND
LOP32I.OR
BRA
ISETP.GE.AND
DMUL
MOV32I
MOV
ISETP.GE.AND
BRA
DMUL
IADD
BRA
MOV
IADD
ISCADD
MOV32I
MUFU.RCP64H
IADD
DFMA
ISCADD
DMUL
ISUB
DFMA
DFMA
DMUL
DFMA
DFMA
DFMA
DFMA
DFMA
DFMA
SHL
SHR.U32
IADD
IADD
IADD
ISETP.GT.U32.AND
BRA
ISUB
ISCADD
BRA
IADD
ISETP.LE.AND
BRA
LOP32I.AND
MOV
LOP32I.OR
BRA
ISETP.GE.AND
LOP32I.AND
BRA
MOV
BRA
DFMA.RZ
DFMA.RP
I2I.S32.S32
DFMA.RM
ISETP.LE.AND
LOP32I.AND
DSETP.NE.AND
LOP32I.OR
BRA.U
I2I.S32.S32
ISETP.NE.OR
MOV
IADD
MOV
ISETP.EQ.AND
BRA.U
ISUB
SHR.U32
SHL
SHL
SHR.U32
LOP.OR
ISETP.NE.OR
SHL
SHR.U32
SSY
LOP.OR
SHR.U32
LOP.AND
LOP.AND
ISETP.NE.OR
ISETP.NE.AND
IADD
ISETP.EQ.AND
IADD
LOP.OR
RET;
MOV
S2R
S2R
IMAD
ISETP.GE.AND
MOV
MOV32I
IMUL
BRA
DSETP.EQ.AND
MOV
MOV32I
DSETP.EQ.AND
SEL
SEL.S
IMAD
SSY
IMAD.HI.X
ISET.LT.AND
LD.E
FSETP.GT.AND
BRA
FMUL32I
FSETP.LT.AND
F2F.F32.F32.TRUNC
SSY
FADD
FFMA
FSETP.LT.AND
FFMA
FMUL
FMUL32I
RRO.EX2
RRO.EX2
MUFU.EX2
MUFU.EX2
FMUL
FMUL
F2F.F64.F32
FSETP.GT.AND
DADD
SEL
SEL
SEL
SEL
ISETP.LT.AND
DSETP.GT.AND
MOV
BRA
ISETP.GT.AND
MOV
MOV32I
BRA.U
DMUL
MOV32I
MOV
MOV
LOP32I.AND
MOV
LOP32I.OR
IMAD.U32.U32.HI
ISETP.LT.AND
MOV32I
IADD32I
IADD
DADD
MOV32I
MUFU.RCP64H
DADD
DFMA
DFMA
DFMA
DMUL
DFMA
DADD
DADD
DMUL
DFMA
MOV32I
MOV32I
MOV32I
MOV32I
DFMA
DMUL
MOV32I
MOV32I
MOV32I
DFMA
MOV32I
MOV32I
MOV32I
DFMA
MOV32I
MOV32I
DFMA
MOV32I
MOV32I
DFMA
MOV32I
MOV32I
DFMA
MOV32I
LOP32I.XOR
DADD
DFMA
MOV32I
MOV32I
DFMA
DMUL
DFMA
DFMA
DADD
DADD
MOV32I
MOV32I
DFMA
DADD
BRA
FMUL32I
FSETP.LT.AND
F2F.F32.F32.TRUNC
FADD
FFMA
FSETP.LT.AND
FFMA
FMUL
FMUL32I
RRO.EX2
RRO.EX2
MUFU.EX2
MUFU.EX2
FMUL
FMUL
F2F.F64.F32
FSETP.GT.AND
DADD
SEL
SEL
SEL
SEL
ISETP.LT.AND
DSETP.GT.AND
MOV
BRA
ISETP.GT.AND
MOV
MOV32I
BRA.U
DMUL
MOV32I
MOV
MOV
LOP32I.AND
MOV32I
LOP32I.OR
MOV32I
ISETP.LT.AND
MOV
IADD32I
IMAD.U32.U32.HI
DADD
DADD
MUFU.RCP64H
MOV32I
DFMA
MOV32I
DFMA
IADD
DFMA
DMUL
DFMA
MOV32I
MOV32I
DMUL
DFMA
MOV32I
MOV32I
DFMA
MOV32I
MOV32I
DFMA
MOV32I
MOV32I
DFMA
DADD
DFMA
DADD
MOV32I
MOV32I
DFMA
MOV32I
MOV32I
DFMA
DMUL
MOV32I
LOP32I.XOR
DADD
MOV32I
MOV32I
MOV32I
MOV32I
DFMA
DFMA
DMUL
DFMA
DFMA
DADD
DADD
MOV32I
MOV32I
DFMA
DADD.S
DSETP.GTU.AND
BRA
DADD
BRA
DSETP.GTU.AND
BRA
DADD.S
DSETP.EQ.AND
MOV
MOV32I
BRA.U
DSETP.EQ.AND
SEL
SEL
F2F.F64.F32.S
DADD.S
SHL
MOV
IMAD.U32.U32
IMAD.U32.U32.HI
IADD
F2F.F32.F64
IADD.X
ISETP.LT.AND
ST.E
BRA
MOV
S2R
S2R
IMAD
ISETP.GE.AND
MOV
IMUL
BRA
DSETP.EQ.AND
MOV
MOV32I
DSETP.EQ.AND
SEL
SEL.S
MOV32I
SSY
IMAD
ISET.LT.AND
IMAD.HI.X
LD.E.64
DSETP.GT.AND
BRA
MOV32I
MOV32I
DMUL
MOV32I
DADD
MOV32I
DADD
MOV32I
MOV32I
DFMA
DFMA
SSY
MOV32I
MOV32I
MOV32I
MOV32I
DFMA
MOV32I
MOV32I
DFMA
MOV32I
MOV32I
DFMA
MOV32I
MOV32I
DFMA
MOV32I
MOV32I
DFMA
MOV32I
MOV32I
DFMA
MOV32I
MOV32I
DFMA
MOV32I
MOV32I
DFMA
MOV32I
MOV32I
DFMA
DFMA
DFMA
F2F.F64.F64
ISCADD
FSETP.LT.AND
MOV
BRA
DSETP.GT.AND
DADD
FSETP.GEU.AND
SEL
SEL
BRA.U
IMAD.U32.U32.HI
SHR
ISUB
ISCADD
ISCADD32I
MOV
DMUL
DADD.S
ISETP.LT.AND
SSY
DSETP.GT.AND
MOV
BRA
ISETP.GT.AND
MOV
MOV32I
BRA.U
DMUL
MOV32I
MOV
MOV
LOP32I.AND
MOV
LOP32I.OR
IMAD.U32.U32.HI
ISETP.LT.AND
MOV32I
IADD32I
IADD
DADD
MOV32I
MUFU.RCP64H
DADD
DFMA
DFMA
DFMA
DMUL
DFMA
DADD
DMUL
DADD
DFMA
MOV32I
MOV32I
MOV32I
MOV32I
DFMA
DMUL
MOV32I
MOV32I
MOV32I
DFMA
MOV32I
MOV32I
MOV32I
DFMA
MOV32I
MOV32I
DFMA
MOV32I
MOV32I
DFMA
MOV32I
MOV32I
DFMA
MOV32I
LOP32I.XOR
DADD
DFMA
MOV32I
MOV32I
DFMA
DMUL
DFMA
DFMA
DADD
DADD
MOV32I
MOV32I
DFMA
DADD
BRA
MOV32I
MOV32I
DMUL
MOV32I
DADD
MOV32I
DADD
MOV32I
MOV32I
DFMA
FSETP.LT.AND
DFMA
SSY
MOV32I
MOV32I
MOV32I
MOV32I
DFMA
MOV32I
MOV32I
DFMA
MOV32I
MOV32I
DFMA
MOV32I
MOV32I
DFMA
MOV32I
MOV32I
DFMA
MOV32I
MOV32I
DFMA
MOV32I
MOV32I
DFMA
MOV32I
MOV32I
DFMA
MOV32I
MOV32I
DFMA
DFMA
DFMA
ISCADD
MOV
BRA
DSETP.LT.AND
DADD
FSETP.GEU.AND
SEL
SEL
BRA.U
IMAD.U32.U32.HI
SHR
ISUB
ISCADD
MOV
ISCADD32I
DMUL
DADD.S
ISETP.LT.AND
MOV
DSETP.GT.AND
BRA
ISETP.GT.AND
MOV
MOV32I
BRA.U
DMUL
MOV32I
MOV
MOV
LOP32I.AND
IMAD.U32.U32.HI
LOP32I.OR
MOV32I
ISETP.LT.AND
MOV
IADD32I
IADD
DADD
DADD
MUFU.RCP64H
MOV32I
DFMA
DFMA
DFMA
DMUL
MOV32I
DFMA
MOV32I
MOV32I
MOV32I
DMUL
DFMA
DADD
MOV32I
MOV32I
DFMA
DADD
MOV32I
MOV32I
DFMA
DFMA
MOV32I
MOV32I
DFMA
MOV32I
MOV32I
MOV32I
DFMA
MOV32I
MOV32I
MOV32I
DFMA
DMUL
MOV32I
LOP32I.XOR
DADD
DFMA
MOV32I
MOV32I
DFMA
DMUL
DFMA
DFMA
DADD
DADD
MOV32I
MOV32I
DFMA
DADD.S
DSETP.GTU.AND
BRA
DADD
BRA
DSETP.GTU.AND
BRA
DADD.S
DSETP.EQ.AND
MOV
MOV32I
BRA.U
DSETP.EQ.AND
SEL
SEL
DADD.S
SHL
MOV
IMAD.U32.U32
IMAD.U32.U32.HI
IADD
IADD.X
ISETP.LT.AND
ST.E.64
BRA
MOV
S2R
S2R
IMAD
ISETP.GE.AND
MOV
IMUL
SHL.W
SHR
IADD
IADD.X
IADD
LD.E
IADD.X
LD.E
FMNMX
FMUL32I
FSETP.LT.AND
F2F.F32.F32.TRUNC
FADD
FFMA
FSETP.LT.AND
FFMA
FMUL
FMUL32I
RRO.EX2
RRO.EX2
MUFU.EX2
MUFU.EX2
FMUL
FSETP.GT.AND
FMUL
SEL
SEL
F2F.F64.F32
FMUL
DADD
F2F.F64.F32
CAL
IADD
IADD
F2F.F32.F64
IADD.X
ISETP.LT.AND
ST.E
BRA
LOP32I.AND
LOP32I.AND
SSY
ISETP.LE.U32.AND
ISETP.EQ.U32.OR
BRA
MOV
MOV
MOV.S
ISUB
LOP32I.AND
LOP32I.AND
IADD32I
MOV
ISETP.GT.U32.X.AND
IADD32I
MOV
MUFU.RCP64H
LOP.OR
SSY
DFMA
DFMA
DFMA
DMUL
DFMA
DFMA
DFMA
DFMA
ISUB
LOP32I.AND
ISETP.GE.U32.X.AND
CAL
MOV
MOV.S
MOV
MOV
RET;
SHL
SHL
SHR.U32
SHR.U32
MOV
IADD
IADD
MOV
ISETP.GT.U32.AND
ISETP.GT.U32.OR
BRA
DSETP.LE.AND
BRA
LOP32I.OR
BRA
DSETP.LE.AND
BRA
LOP32I.OR
MOV
BRA
DSETP.EQ.AND
DSETP.EQ.AND
PSETP.AND.AND
BRA
DSETP.EQ.AND
DSETP.EQ.AND
BRA
BRA
MOV
MOV32I
BRA
PSETP.OR.AND
BRA
LOP.XOR
MOV
LOP32I.AND
BRA
PSETP.OR.AND
BRA
LOP.XOR
MOV
LOP32I.AND
LOP32I.OR
BRA
ISETP.GE.AND
DMUL
MOV32I
MOV
ISETP.GE.AND
BRA
DMUL
IADD
BRA
MOV
IADD
MOV32I
IADD
ISCADD
ISUB
ISCADD
MUFU.RCP64H
DFMA
DFMA
DMUL
DMUL
DFMA
DFMA
DFMA
DFMA
DFMA
DFMA
DFMA
SHL
SHR.U32
IADD
IADD
IADD
ISETP.GT.U32.AND
BRA
ISUB
ISCADD
BRA
IADD
ISETP.LE.AND
BRA
LOP32I.AND
MOV
LOP32I.OR
BRA
ISETP.GE.AND
LOP32I.AND
BRA
MOV
BRA
DFMA.RZ
I2I.S32.S32
DFMA.RP
DFMA.RM
ISETP.LE.AND
LOP32I.AND
DSETP.NE.AND
LOP32I.OR
BRA.U
I2I.S32.S32
ISETP.NE.OR
MOV
MOV
IADD
ISETP.EQ.AND
BRA.U
ISUB
SHR.U32
SHL
SHL
SHR.U32
ISETP.NE.OR
LOP.OR
SHL
SHR.U32
SHR.U32
SSY
LOP.OR
LOP.AND
LOP.AND
ISETP.NE.OR
ISETP.NE.AND
IADD
ISETP.EQ.AND
IADD
LOP.OR
RET;
MOV
S2R
S2R
IMAD
ISETP.GE.AND
MOV
MOV32I
MOV32I
MOV32I
MOV32I
MOV32I
MOV32I
IMUL
IMAD
MOV32I
MOV32I
IMAD.HI.X
MOV32I
SSY
LD.E.64
DMNMX
DMUL
FSETP.LT.AND
DADD
DADD
DFMA
DFMA
MOV32I
MOV32I
DFMA
MOV32I
MOV32I
DFMA
MOV32I
MOV32I
DFMA
MOV32I
MOV32I
DFMA
MOV32I
MOV32I
DFMA
MOV32I
MOV32I
DFMA
MOV32I
MOV32I
DFMA
MOV32I
MOV32I
DFMA
MOV32I
MOV32I
DFMA
ISET.LT.AND
DFMA
DFMA
ISCADD
MOV
BRA
DSETP.LT.AND
DADD
FSETP.GEU.AND
SEL
SEL
BRA.U
IMAD.U32.U32.HI
SHR
MOV
ISUB
ISCADD
ISCADD32I
DMUL
SHL.S
SHL
IMAD.U32.U32.HI
DADD
IADD
IADD.X
LD.E.64
DMUL
CAL
IADD
IADD
IADD.X
ISETP.LT.AND
ST.E.64
BRA
LOP32I.AND
LOP32I.AND
SSY
ISETP.LE.U32.AND
ISETP.EQ.U32.OR
BRA
MOV
MOV
MOV.S
ISUB
LOP32I.AND
LOP32I.AND
IADD32I
MOV
ISETP.GT.U32.X.AND
IADD32I
MOV
MUFU.RCP64H
LOP.OR
SSY
DFMA
DFMA
DFMA
DMUL
DFMA
DFMA
DFMA
DFMA
ISUB
LOP32I.AND
ISETP.GE.U32.X.AND
CAL
MOV
MOV.S
MOV
MOV
RET;
SHL
SHL
SHR.U32
SHR.U32
MOV
IADD
IADD
MOV
ISETP.GT.U32.AND
ISETP.GT.U32.OR
BRA
DSETP.LE.AND
BRA
LOP32I.OR
BRA
DSETP.LE.AND
BRA
LOP32I.OR
MOV
BRA
DSETP.EQ.AND
DSETP.EQ.AND
PSETP.AND.AND
BRA
DSETP.EQ.AND
DSETP.EQ.AND
BRA
BRA
MOV
MOV32I
BRA
PSETP.OR.AND
BRA
LOP.XOR
MOV
LOP32I.AND
BRA
PSETP.OR.AND
BRA
LOP.XOR
MOV
LOP32I.AND
LOP32I.OR
BRA
ISETP.GE.AND
DMUL
MOV32I
MOV
ISETP.GE.AND
BRA
DMUL
IADD
BRA
MOV
IADD
MOV32I
IADD
ISCADD
ISUB
ISCADD
MUFU.RCP64H
DFMA
DFMA
DMUL
DMUL
DFMA
DFMA
DFMA
DFMA
DFMA
DFMA
DFMA
SHL
SHR.U32
IADD
IADD
IADD
ISETP.GT.U32.AND
BRA
ISUB
ISCADD
BRA
IADD
ISETP.LE.AND
BRA
LOP32I.AND
MOV
LOP32I.OR
BRA
ISETP.GE.AND
LOP32I.AND
BRA
MOV
BRA
DFMA.RZ
I2I.S32.S32
DFMA.RP
DFMA.RM
ISETP.LE.AND
LOP32I.AND
DSETP.NE.AND
LOP32I.OR
BRA.U
I2I.S32.S32
ISETP.NE.OR
MOV
MOV
IADD
ISETP.EQ.AND
BRA.U
ISUB
SHR.U32
SHL
SHL
SHR.U32
ISETP.NE.OR
LOP.OR
SHL
SHR.U32
SHR.U32
SSY
LOP.OR
LOP.AND
LOP.AND
ISETP.NE.OR
ISETP.NE.AND
IADD
ISETP.EQ.AND
IADD
LOP.OR
RET;
MOV
S2R
S2R
IMAD
ISETP.GE.AND
MOV
MOV32I
IMUL
BRA
DSETP.EQ.AND
MOV
MOV32I
DSETP.EQ.AND
SEL
SEL.S
IMAD
ISET.LT.AND
SSY
IMAD.HI.X
LD.E
FSETP.GT.AND
BRA
FMUL32I
FSETP.LT.AND
SSY
F2F.F32.F32.TRUNC
FADD
FFMA
FSETP.LT.AND
FFMA
FMUL
FMUL32I
RRO.EX2
RRO.EX2
MUFU.EX2
MUFU.EX2
FMUL
FSETP.GT.AND
FMUL
F2F.F64.F32
DADD
SEL
SEL
SEL
SEL
ISETP.LT.AND
MOV
DSETP.GT.AND
BRA
ISETP.GT.AND
MOV
MOV32I
BRA.U
DMUL
MOV32I
MOV
MOV
LOP32I.AND
IMAD.U32.U32.HI
MOV32I
LOP32I.OR
MOV
MOV32I
ISETP.LT.AND
IADD32I
IADD
DADD
DADD
MUFU.RCP64H
DFMA
DFMA
DFMA
DMUL
DFMA
DADD
DADD
MOV32I
MOV32I
DFMA
DMUL
MOV32I
MOV32I
DMUL
DFMA
MOV32I
MOV32I
DFMA
MOV32I
MOV32I
DFMA
MOV32I
MOV32I
DFMA
MOV32I
MOV32I
DFMA
MOV32I
MOV32I
DFMA
MOV32I
MOV32I
DFMA
MOV32I
LOP32I.XOR
DMUL
DADD
MOV32I
MOV32I
DFMA
DFMA
DFMA
DADD
MOV32I
MOV32I
DADD
DFMA
DADD
BRA
FMUL32I
FSETP.LT.AND
F2F.F32.F32.TRUNC
FADD
FFMA
FSETP.LT.AND
FFMA
FMUL
FMUL32I
RRO.EX2
RRO.EX2
MUFU.EX2
MUFU.EX2
FMUL
FSETP.GT.AND
FMUL
F2F.F64.F32
DADD
SEL
SEL
SEL
SEL
ISETP.LT.AND
MOV
DSETP.GT.AND
BRA
ISETP.GT.AND
MOV
MOV32I
BRA.U
DMUL
MOV32I
MOV
MOV
LOP32I.AND
IMAD.U32.U32.HI
MOV32I
LOP32I.OR
MOV
MOV32I
ISETP.LT.AND
IADD32I
IADD
DADD
DADD
MUFU.RCP64H
DFMA
DFMA
DFMA
DMUL
DFMA
DADD
DADD
MOV32I
MOV32I
DFMA
DMUL
MOV32I
MOV32I
DMUL
DFMA
MOV32I
MOV32I
DFMA
MOV32I
MOV32I
DFMA
MOV32I
MOV32I
DFMA
MOV32I
MOV32I
DFMA
MOV32I
MOV32I
DFMA
MOV32I
MOV32I
DFMA
MOV32I
LOP32I.XOR
DMUL
DADD
MOV32I
MOV32I
DFMA
DFMA
DFMA
DADD
MOV32I
MOV32I
DADD
DFMA
DADD.S
DSETP.GTU.AND
BRA
DADD
BRA
DSETP.GTU.AND
BRA
DADD.S
DSETP.EQ.AND
MOV
MOV32I
BRA.U
DSETP.EQ.AND
SEL
SEL
F2F.F64.F32.S
DADD.S
SHL
MOV
F2F.F32.F64
IMAD.U32.U32.HI
IMAD.U32.U32
IADD
IADD.X
ISETP.LT.AND
ST.E
BRA
MOV
S2R
S2R
IMAD
ISETP.GE.AND
MOV
IMUL
BRA
DSETP.EQ.AND
MOV
MOV32I
DSETP.EQ.AND
SEL
SEL.S
MOV32I
ISET.LT.AND
SSY
IMAD
IMAD.HI.X
LD.E.64
DSETP.GT.AND
BRA
MOV32I
MOV32I
MOV32I
MOV32I
DMUL
MOV32I
MOV32I
MOV32I
DADD
MOV32I
MOV32I
MOV32I
DADD
SSY
DFMA
DFMA
MOV32I
MOV32I
MOV32I
DFMA
MOV32I
DFMA
MOV32I
MOV32I
DFMA
MOV32I
MOV32I
DFMA
MOV32I
MOV32I
DFMA
MOV32I
MOV32I
DFMA
MOV32I
MOV32I
DFMA
MOV32I
MOV32I
DFMA
DFMA
DFMA
F2F.F64.F64
DFMA
FSETP.LT.AND
ISCADD
MOV
BRA
DSETP.GT.AND
DADD
FSETP.GEU.AND
SEL
SEL
BRA.U
IMAD.U32.U32.HI
MOV
SHR
ISUB
ISCADD
ISCADD32I
DMUL
DADD.S
ISETP.LT.AND
MOV
SSY
DSETP.GT.AND
BRA
ISETP.GT.AND
MOV
MOV32I
BRA.U
DMUL
MOV32I
MOV
MOV
LOP32I.AND
IMAD.U32.U32.HI
MOV32I
LOP32I.OR
MOV
MOV32I
ISETP.LT.AND
IADD32I
IADD
DADD
DADD
MUFU.RCP64H
DFMA
DFMA
DFMA
DMUL
DFMA
DADD
DADD
MOV32I
MOV32I
DFMA
DMUL
MOV32I
MOV32I
DMUL
DFMA
MOV32I
MOV32I
DFMA
MOV32I
MOV32I
DFMA
MOV32I
MOV32I
DFMA
MOV32I
MOV32I
DFMA
MOV32I
MOV32I
DFMA
MOV32I
MOV32I
DFMA
MOV32I
LOP32I.XOR
DMUL
DADD
MOV32I
MOV32I
DFMA
DFMA
DFMA
DADD
MOV32I
MOV32I
DADD
DFMA
DADD
BRA
MOV32I
MOV32I
MOV32I
MOV32I
DMUL
MOV32I
MOV32I
MOV32I
DADD
MOV32I
MOV32I
MOV32I
DADD
FSETP.LT.AND
SSY
DFMA
DFMA
MOV32I
MOV32I
MOV32I
DFMA
MOV32I
DFMA
MOV32I
MOV32I
DFMA
MOV32I
MOV32I
DFMA
MOV32I
MOV32I
DFMA
MOV32I
MOV32I
DFMA
MOV32I
MOV32I
DFMA
MOV32I
MOV32I
DFMA
DFMA
DFMA
DFMA
ISCADD
MOV
BRA
DSETP.LT.AND
DADD
FSETP.GEU.AND
SEL
SEL
BRA.U
IMAD.U32.U32.HI
MOV
SHR
ISUB
ISCADD
ISCADD32I
DMUL
DADD.S
ISETP.LT.AND
MOV
DSETP.GT.AND
BRA
ISETP.GT.AND
MOV
MOV32I
BRA.U
DMUL
MOV32I
MOV
MOV
LOP32I.AND
LOP32I.OR
MOV
ISETP.LT.AND
IADD32I
DADD
DADD
MUFU.RCP64H
DFMA
DFMA
DFMA
MOV32I
MOV32I
DMUL
DFMA
MOV32I
MOV32I
DMUL
DADD
DFMA
MOV32I
MOV32I
DADD
DFMA
MOV32I
MOV32I
DFMA
IMAD.U32.U32.HI
DFMA
MOV32I
MOV32I
IADD
MOV32I
DFMA
MOV32I
MOV32I
MOV32I
MOV32I
DFMA
LOP32I.XOR
MOV32I
MOV32I
DMUL
DFMA
DADD
MOV32I
MOV32I
MOV32I
MOV32I
DFMA
DFMA
DMUL
DFMA
DFMA
MOV32I
DADD
MOV32I
DADD
DFMA
DADD.S
DSETP.GTU.AND
BRA
DADD
BRA
DSETP.GTU.AND
BRA
DADD.S
DSETP.EQ.AND
MOV
MOV32I
BRA.U
DSETP.EQ.AND
SEL
SEL
DADD.S
SHL
MOV
IMAD.U32.U32.HI
IMAD.U32.U32
IADD
IADD.X
ISETP.LT.AND
ST.E.64
BRA
MOV
S2R
S2R
IMAD
ISETP.GE.AND
MOV
IMUL
SHL.W
SHR
IADD
IADD.X
LD.E
FMNMX
FMUL32I
FSETP.LT.AND
F2F.F32.F32.TRUNC
FADD
FFMA
FSETP.LT.AND
FFMA
FMUL
FMUL32I
RRO.EX2
RRO.EX2
IADD
MUFU.EX2
MUFU.EX2
FMUL
FMUL
FSETP.GT.AND
IADD.X
SEL
SEL
LD.E
F2F.F64.F32
FMUL
DADD
F2F.F64.F32
CAL
F2F.F32.F64
IADD
IADD
IADD.X
ISETP.LT.AND
ST.E
BRA
LOP32I.AND
SSY
LOP32I.AND
ISETP.LE.U32.AND
ISETP.EQ.U32.OR
BRA
MOV
MOV
MOV.S
ISUB
LOP32I.AND
LOP32I.AND
IADD32I
ISETP.GT.U32.X.AND
MOV
IADD32I
MOV
MUFU.RCP64H
DFMA
DFMA
DFMA
DMUL
DFMA
DFMA
DFMA
DFMA
LOP.OR
SSY
ISUB
LOP32I.AND
ISETP.GE.U32.X.AND
CAL
MOV
MOV.S
MOV
MOV
RET;
SHL
SHL
SHR.U32
MOV
SHR.U32
IADD
IADD
ISETP.GT.U32.AND
ISETP.GT.U32.OR
MOV
BRA
DSETP.LE.AND
BRA
LOP32I.OR
BRA
DSETP.LE.AND
BRA
LOP32I.OR
MOV
BRA
DSETP.EQ.AND
DSETP.EQ.AND
PSETP.AND.AND
BRA
DSETP.EQ.AND
DSETP.EQ.AND
BRA
BRA
MOV
MOV32I
BRA
PSETP.OR.AND
BRA
LOP.XOR
MOV
LOP32I.AND
BRA
PSETP.OR.AND
BRA
LOP.XOR
MOV
LOP32I.AND
LOP32I.OR
BRA
ISETP.GE.AND
MOV32I
DMUL
MOV
ISETP.GE.AND
BRA
DMUL
IADD
BRA
MOV
IADD
IADD
ISCADD
MOV32I
MUFU.RCP64H
DFMA
ISCADD
DFMA
DMUL
DMUL
DFMA
DFMA
DFMA
DFMA
DFMA
DFMA
DFMA
ISUB
SHL
SHR.U32
IADD
IADD
IADD
ISETP.GT.U32.AND
BRA
ISUB
ISCADD
BRA
IADD
ISETP.LE.AND
BRA
LOP32I.AND
MOV
LOP32I.OR
BRA
ISETP.GE.AND
LOP32I.AND
BRA
MOV
BRA
DFMA.RZ
DFMA.RP
DFMA.RM
I2I.S32.S32
LOP32I.AND
ISETP.LE.AND
LOP32I.OR
DSETP.NE.AND
BRA.U
I2I.S32.S32
ISETP.NE.OR
MOV
MOV
IADD
ISETP.EQ.AND
BRA.U
ISUB
SHR.U32
SHL
SHL
ISETP.NE.OR
SHR.U32
LOP.OR
SHL
SSY
SHR.U32
LOP.OR
LOP.AND
LOP.AND
ISETP.NE.OR
ISETP.NE.AND
SHR.U32
IADD
ISETP.EQ.AND
IADD
LOP.OR
RET;
BRA
MOV
S2R
S2R
IMAD
ISETP.GE.AND
MOV
MOV32I
MOV32I
MOV32I
IMUL
IMAD
SSY
IMAD.HI.X
LD.E.64
DMNMX
DMUL
DADD
DADD
DFMA
DFMA
DFMA
DFMA
DFMA
DFMA
DFMA
DFMA
DFMA
DFMA
DFMA
DFMA
FSETP.LT.AND
DFMA
ISET.LT.AND
ISCADD
MOV
BRA
DSETP.LT.AND
DADD
FSETP.GEU.AND
SEL
SEL
BRA.U
IMAD.U32.U32.HI
SHR
ISUB
ISCADD
MOV
ISCADD32I
DMUL
SHL.S
SHL
IMAD.U32.U32.HI
IADD
IADD.X
LD.E.64
DADD
DMUL
CAL
IADD
IADD
IADD.X
ISETP.LT.AND
ST.E.64
BRA
LOP32I.AND
SSY
LOP32I.AND
ISETP.LE.U32.AND
ISETP.EQ.U32.OR
BRA
MOV
MOV
MOV.S
ISUB
LOP32I.AND
LOP32I.AND
IADD32I
ISETP.GT.U32.X.AND
MOV
IADD32I
MOV
MUFU.RCP64H
DFMA
DFMA
DFMA
DMUL
DFMA
DFMA
DFMA
DFMA
LOP.OR
SSY
ISUB
LOP32I.AND
ISETP.GE.U32.X.AND
CAL
MOV
MOV.S
MOV
MOV
RET;
SHL
SHL
SHR.U32
MOV
SHR.U32
IADD
IADD
ISETP.GT.U32.AND
MOV
ISETP.GT.U32.OR
BRA
DSETP.LE.AND
BRA
LOP32I.OR
BRA
DSETP.LE.AND
BRA
LOP32I.OR
MOV
BRA
DSETP.EQ.AND
DSETP.EQ.AND
PSETP.AND.AND
BRA
DSETP.EQ.AND
DSETP.EQ.AND
BRA
BRA
MOV
MOV32I
BRA
PSETP.OR.AND
BRA
LOP.XOR
MOV
LOP32I.AND
BRA
PSETP.OR.AND
BRA
LOP.XOR
MOV
LOP32I.AND
LOP32I.OR
BRA
ISETP.GE.AND
MOV32I
DMUL
MOV
ISETP.GE.AND
BRA
DMUL
IADD
BRA
MOV
IADD
ISCADD
MOV32I
MUFU.RCP64H
IADD
DFMA
ISCADD
DFMA
DMUL
DMUL
DFMA
DFMA
DFMA
DFMA
DFMA
DFMA
DFMA
ISUB
SHL
SHR.U32
IADD
IADD
IADD
ISETP.GT.U32.AND
BRA
ISUB
ISCADD
BRA
IADD
ISETP.LE.AND
BRA
LOP32I.AND
MOV
LOP32I.OR
BRA
ISETP.GE.AND
LOP32I.AND
BRA
MOV
BRA
DFMA.RP
DFMA.RM
DFMA.RZ
I2I.S32.S32
ISETP.LE.AND
DSETP.NE.AND
LOP32I.AND
LOP32I.OR
BRA.U
I2I.S32.S32
ISETP.NE.OR
MOV
MOV
IADD
ISETP.EQ.AND
BRA.U
ISUB
SHR.U32
SHL
SHL
SHR.U32
LOP.OR
ISETP.NE.OR
SHL
SSY
SHR.U32
LOP.OR
LOP.AND
LOP.AND
ISETP.NE.OR
ISETP.NE.AND
SHR.U32
IADD
ISETP.EQ.AND
IADD
LOP.OR
RET;
BRA
MOV
S2R
S2R
IMAD
ISETP.GE.AND
MOV
MOV32I
MOV
IMUL
BRA
MOV32I
DSETP.EQ.AND
MOV
DSETP.EQ.AND
SEL
SEL.S
IMAD
ISET.LT.AND
IMAD.HI.X
SSY
LD.E
FSETP.GT.AND
BRA
FMUL32I
FSETP.LT.AND
F2F.F32.F32.TRUNC
SSY
FADD
FFMA
FSETP.LT.AND
FFMA
FMUL
FMUL32I
RRO.EX2
RRO.EX2
MUFU.EX2
MUFU.EX2
FMUL
FMUL
F2F.F64.F32
FSETP.GT.AND
DADD
SEL
SEL
SEL
SEL
ISETP.LT.AND
MOV
DSETP.GT.AND
BRA
ISETP.GT.AND
MOV32I
BRA.U
DMUL
MOV32I
MOV
LOP32I.AND
IMAD.U32.U32.HI
LOP32I.OR
MOV
ISETP.LT.AND
MOV32I
IADD32I
IADD
DADD
MUFU.RCP64H
LOP32I.XOR
DFMA
DFMA
DADD
DFMA
MOV32I
DMUL
MOV32I
DFMA
DMUL
DFMA
DFMA
DFMA
DADD
DFMA
DADD
DFMA
DADD
DFMA
DFMA
DFMA
DFMA
DFMA
DMUL
DMUL
DADD
DFMA
DADD
DFMA
DADD
BRA
FMUL32I
FSETP.LT.AND
F2F.F32.F32.TRUNC
FADD
FFMA
FSETP.LT.AND
FFMA
FMUL
FMUL32I
RRO.EX2
RRO.EX2
MUFU.EX2
MUFU.EX2
FMUL
FSETP.GT.AND
FMUL
F2F.F64.F32
DADD
SEL
SEL
SEL
SEL
MOV
ISETP.LT.AND
DSETP.GT.AND
BRA
ISETP.GT.AND
MOV32I
BRA.U
MOV32I
DMUL
MOV
LOP32I.AND
IMAD.U32.U32.HI
LOP32I.OR
MOV
ISETP.LT.AND
IADD32I
IADD
MOV32I
DADD
MUFU.RCP64H
LOP32I.XOR
DFMA
DFMA
DADD
DFMA
DMUL
DFMA
MOV32I
MOV32I
DMUL
DFMA
DFMA
DFMA
DADD
DFMA
DADD
DFMA
DADD
DFMA
DFMA
DFMA
DFMA
DMUL
DFMA
DMUL
DADD
DFMA
DADD
DFMA
DADD.S
DSETP.GTU.AND
BRA
DADD
BRA
DSETP.GTU.AND
BRA
DADD.S
MOV32I
DSETP.EQ.AND
MOV
BRA.U
DSETP.EQ.AND
SEL
SEL
F2F.F64.F32.S
DADD.S
SHL
F2F.F32.F64
IMAD.U32.U32
IMAD.U32.U32.HI
IADD
IADD.X
ISETP.LT.AND
ST.E
BRA
BRA
MOV
S2R
S2R
IMAD
ISETP.GE.AND
MOV
MOV32I
MOV
IMUL
BRA
MOV32I
DSETP.EQ.AND
MOV
DSETP.EQ.AND
SEL
SEL.S
IMAD
ISET.LT.AND
IMAD.HI.X
SSY
LD.E.64
DSETP.GT.AND
BRA
DMUL
DADD
DADD
DFMA
DFMA
MOV32I
MOV32I
DFMA
DFMA
DFMA
DFMA
DFMA
DFMA
DFMA
DFMA
DFMA
DFMA
F2F.F64.F64
DFMA
FSETP.LT.AND
SSY
ISCADD
MOV
BRA
DSETP.GT.AND
DADD
FSETP.GEU.AND
SEL
SEL
BRA.U
IMAD.U32.U32.HI
SHR
MOV
ISUB
ISCADD
ISCADD32I
DMUL
DADD.S
ISETP.LT.AND
DSETP.GT.AND
MOV
SSY
BRA
ISETP.GT.AND
MOV32I
BRA.U
DMUL
MOV32I
MOV
LOP32I.AND
LOP32I.OR
MOV
ISETP.LT.AND
IADD32I
DADD
MUFU.RCP64H
DFMA
DADD
DFMA
DFMA
MOV32I
DMUL
DFMA
MOV32I
DMUL
MOV32I
DFMA
DFMA
DFMA
IMAD.U32.U32.HI
DFMA
DADD
IADD
DFMA
LOP32I.XOR
DADD
DADD
DFMA
DFMA
DFMA
DFMA
DMUL
DFMA
DMUL
DADD
DFMA
DADD
DFMA
DADD
BRA
DMUL
DADD
DADD
DFMA
DFMA
MOV32I
MOV32I
DFMA
DFMA
DFMA
DFMA
DFMA
DFMA
DFMA
DFMA
DFMA
DFMA
FSETP.LT.AND
SSY
DFMA
ISCADD
MOV
BRA
DSETP.LT.AND
DADD
FSETP.GEU.AND
SEL
SEL
BRA.U
IMAD.U32.U32.HI
MOV
SHR
ISUB
ISCADD
ISCADD32I
DMUL
DADD.S
ISETP.LT.AND
MOV
DSETP.GT.AND
BRA
ISETP.GT.AND
MOV32I
BRA.U
DMUL
MOV32I
MOV
LOP32I.AND
IMAD.U32.U32.HI
LOP32I.OR
MOV
ISETP.LT.AND
MOV32I
IADD32I
IADD
DADD
MUFU.RCP64H
LOP32I.XOR
DFMA
DFMA
DADD
DFMA
DMUL
DFMA
MOV32I
MOV32I
DMUL
DFMA
DFMA
DFMA
DADD
DFMA
DADD
DFMA
DADD
DFMA
DFMA
DFMA
DFMA
DMUL
DFMA
DMUL
DADD
DFMA
DADD
DFMA
DADD.S
DSETP.GTU.AND
BRA
DADD
BRA
DSETP.GTU.AND
BRA
DADD.S
MOV32I
DSETP.EQ.AND
MOV
BRA.U
DSETP.EQ.AND
SEL
SEL
DADD.S
SHL
IMAD.U32.U32
IMAD.U32.U32.HI
IADD
IADD.X
ISETP.LT.AND
ST.E.64
BRA
BRA
MOV
S2R
S2R
IMAD
ISETP.GE.AND
MOV
IMUL
SHF.L.W
SHR
IADD
IADD.X
LD.E
IADD
FMNMX
FMUL32I
F2F.F32.F32.TRUNC
FSETP.LT.AND
FADD
FFMA
FSETP.LT.AND
FFMA
FMUL
FMUL32I
RRO.EX2
IADD.X
RRO.EX2
MUFU.EX2
MUFU.EX2
FMUL
FMUL
FSETP.GT.AND
SEL
LD.E
SEL
F2F.F64.F32
FMUL
DADD
F2F.F64.F32
CAL
IADD
IADD
F2F.F32.F64
IADD.X
ISETP.LT.AND
ST.E
BRA
MOV
LOP32I.AND
SSY
LOP32I.AND
ISETP.LE.U32.AND
ISETP.EQ.U32.OR
BRA
MOV
MOV
MOV.S
ISUB
LOP32I.AND
LOP32I.AND
IADD32I
ISETP.GT.U32.X.AND
MOV
IADD32I
MOV
MUFU.RCP64H
DFMA
DFMA
DFMA
DMUL
DFMA
DFMA
DFMA
DFMA
LOP.OR
SSY
ISUB
LOP32I.AND
ISETP.GE.U32.X.AND
CAL
MOV
MOV.S
MOV
MOV
RET;
SHF.L
SHF.L
SHF.R
MOV
SHF.R
IADD
IADD
MOV
ISETP.GT.U32.AND
ISETP.GT.U32.OR
BRA
DSETP.LE.AND
BRA
LOP32I.OR
BRA
DSETP.LE.AND
BRA
LOP32I.OR
MOV
BRA
DSETP.EQ.AND
DSETP.EQ.AND
PSETP.AND.AND
BRA
DSETP.EQ.AND
DSETP.EQ.AND
BRA
BRA
MOV
MOV32I
BRA
PSETP.OR.AND
BRA
LOP.XOR
MOV
LOP32I.AND
BRA
PSETP.OR.AND
BRA
LOP.XOR
MOV
LOP32I.AND
LOP32I.OR
BRA
ISETP.GE.AND
MOV32I
DMUL
MOV
ISETP.GE.AND
BRA
DMUL
IADD
MOV
MOV
BRA
MOV
IADD
ISCADD
MOV32I
IADD
MUFU.RCP64H
DFMA
ISCADD
DFMA
DMUL
DMUL
DFMA
DFMA
DFMA
DFMA
DFMA
DFMA
DFMA
ISUB
SHF.L
SHF.R
IADD
IADD
IADD
ISETP.GT.U32.AND
BRA
ISUB
ISCADD
BRA
IADD
ISETP.LE.AND
BRA
LOP32I.AND
MOV
LOP32I.OR
BRA
ISETP.GE.AND
LOP32I.AND
BRA
MOV
BRA
DFMA.RZ
I2I.S32.S32
DFMA.RP
DFMA.RM
ISETP.LE.AND
LOP32I.AND
DSETP.NE.AND
LOP32I.OR
BRA.U
I2I.S32.S32
ISETP.NE.OR
MOV
MOV
IADD
ISETP.EQ.AND
BRA.U
ISUB
SHF.R
SHF.L
SHF.L
ISETP.NE.OR
SHF.R
LOP.OR
SHF.L
SSY
SHF.R
LOP.OR
LOP.AND
LOP.AND
ISETP.NE.OR
ISETP.NE.AND
SHF.R
IADD
ISETP.EQ.AND
IADD
LOP.OR
RET;
BRA
MOV
S2R
S2R
IMAD
ISETP.GE.AND
MOV
MOV32I
MOV32I
MOV32I
IMUL
IMAD
SSY
IMAD.HI.X
LD.E.64
DMNMX
DMUL
DADD
DADD
DFMA
DFMA
DFMA
DFMA
DFMA
DFMA
DFMA
DFMA
DFMA
DFMA
DFMA
DFMA
FSETP.LT.AND
DFMA
ISET.LT.AND
ISCADD
MOV
BRA
DSETP.LT.AND
DADD
FSETP.GEU.AND
SEL
SEL
BRA.U
IMAD.U32.U32.HI
SHR
ISUB
ISCADD
MOV
ISCADD32I
DMUL
SHF.L.S
SHF.L.U64
IADD
IADD.X
LD.E.64
DADD
DMUL
CAL
IADD
IADD
IADD.X
ISETP.LT.AND
ST.E.64
BRA
MOV
LOP32I.AND
SSY
LOP32I.AND
ISETP.LE.U32.AND
ISETP.EQ.U32.OR
BRA
MOV
MOV
MOV.S
ISUB
LOP32I.AND
LOP32I.AND
IADD32I
ISETP.GT.U32.X.AND
MOV
IADD32I
MOV
MUFU.RCP64H
DFMA
DFMA
DFMA
DMUL
DFMA
DFMA
DFMA
DFMA
LOP.OR
SSY
ISUB
LOP32I.AND
ISETP.GE.U32.X.AND
CAL
MOV
MOV.S
MOV
MOV
RET;
SHF.L
MOV
SHF.L
SHF.R
SHF.R
IADD
IADD
MOV
ISETP.GT.U32.AND
ISETP.GT.U32.OR
BRA
DSETP.LE.AND
BRA
LOP32I.OR
BRA
DSETP.LE.AND
BRA
LOP32I.OR
MOV
BRA
DSETP.EQ.AND
DSETP.EQ.AND
PSETP.AND.AND
BRA
DSETP.EQ.AND
DSETP.EQ.AND
BRA
BRA
MOV
MOV32I
BRA
PSETP.OR.AND
BRA
LOP.XOR
MOV
LOP32I.AND
BRA
PSETP.OR.AND
BRA
LOP.XOR
LOP32I.AND
MOV
LOP32I.OR
BRA
ISETP.GE.AND
MOV32I
DMUL
MOV
ISETP.GE.AND
BRA
DMUL
IADD
MOV
BRA
MOV
IADD
ISCADD
MOV32I
IADD
MUFU.RCP64H
DFMA
ISCADD
DFMA
DMUL
DMUL
DFMA
DFMA
DFMA
DFMA
DFMA
DFMA
DFMA
ISUB
SHF.L
SHF.R
IADD
IADD
IADD
ISETP.GT.U32.AND
BRA
ISUB
ISCADD
BRA
IADD
ISETP.LE.AND
BRA
LOP32I.AND
MOV
LOP32I.OR
BRA
ISETP.GE.AND
LOP32I.AND
BRA
MOV
BRA
DFMA.RZ
I2I.S32.S32
LOP32I.AND
DFMA.RP
DFMA.RM
ISETP.LE.AND
LOP32I.OR
DSETP.NE.AND
BRA.U
I2I.S32.S32
ISETP.NE.OR
MOV
MOV
IADD
ISETP.EQ.AND
BRA.U
ISUB
SHF.R
SHF.L
SHF.L
SHF.R
LOP.OR
ISETP.NE.OR
SHF.L
SSY
SHF.R
LOP.OR
LOP.AND
LOP.AND
ISETP.NE.OR
ISETP.NE.AND
SHF.R
IADD
ISETP.EQ.AND
IADD
LOP.OR
RET;
BRA
MOV
S2R
S2R
IMAD
ISETP.GE.AND
MOV
MOV32I
MOV
IMUL
BRA
MOV32I
DSETP.EQ.AND
MOV
DSETP.EQ.AND
SEL
SEL.S
IMAD
ISET.LT.AND
IMAD.HI.X
SSY
LD.E
FSETP.GT.AND
BRA
FMUL32I
FSETP.LT.AND
F2F.F32.F32.TRUNC
SSY
FADD
FFMA
FSETP.LT.AND
FFMA
FMUL
FMUL32I
RRO.EX2
RRO.EX2
MUFU.EX2
MUFU.EX2
FMUL
FMUL
F2F.F64.F32
FSETP.GT.AND
DADD
SEL
SEL
SEL
SEL
ISETP.LT.AND
MOV
DSETP.GT.AND
BRA
ISETP.GT.AND
MOV
MOV32I
BRA.U
MOV32I
DMUL
MOV
MOV
LOP32I.AND
IMAD.U32.U32.HI
LOP32I.OR
MOV
ISETP.LT.AND
MOV32I
IADD32I
IADD
DADD
MUFU.RCP64H
LOP32I.XOR
DFMA
DFMA
DADD
DFMA
MOV32I
DMUL
MOV32I
DFMA
DMUL
DFMA
DFMA
DFMA
DADD
DFMA
DADD
DFMA
DADD
DFMA
DFMA
DFMA
DFMA
DFMA
DMUL
DMUL
DADD
DFMA
DADD
DFMA
DADD
BRA
FMUL32I
FSETP.LT.AND
F2F.F32.F32.TRUNC
FADD
FFMA
FSETP.LT.AND
FFMA
FMUL
FMUL32I
RRO.EX2
RRO.EX2
MUFU.EX2
MUFU.EX2
FMUL
FMUL
F2F.F64.F32
DADD
FSETP.GT.AND
SEL
SEL
SEL
SEL
MOV
ISETP.LT.AND
DSETP.GT.AND
BRA
ISETP.GT.AND
MOV
MOV32I
BRA.U
MOV32I
DMUL
MOV
MOV
LOP32I.AND
LOP32I.OR
MOV
ISETP.LT.AND
IADD32I
DADD
MUFU.RCP64H
DFMA
DFMA
DADD
DFMA
DMUL
DFMA
MOV32I
MOV32I
DMUL
DFMA
DFMA
IMAD.U32.U32.HI
MOV32I
DFMA
IADD
DFMA
DADD
LOP32I.XOR
DFMA
DADD
DADD
DFMA
DFMA
DFMA
DFMA
DMUL
DFMA
DMUL
DADD
DFMA
DADD
DFMA
DADD.S
DSETP.GTU.AND
BRA
DADD
BRA
DSETP.GTU.AND
BRA
DADD.S
MOV32I
DSETP.EQ.AND
MOV
BRA.U
DSETP.EQ.AND
SEL
SEL
F2F.F64.F32.S
DADD.S
SHF.L.U64
IMAD.U32.U32
IADD
F2F.F32.F64
IADD.X
ISETP.LT.AND
ST.E
BRA
MOV
BRA
MOV
S2R
S2R
IMAD
ISETP.GE.AND
MOV
MOV32I
MOV
IMUL
BRA
MOV32I
DSETP.EQ.AND
MOV
DSETP.EQ.AND
SEL
SEL.S
IMAD
ISET.LT.AND
IMAD.HI.X
SSY
LD.E.64
DSETP.GT.AND
BRA
DMUL
DADD
DADD
DFMA
DFMA
MOV32I
MOV32I
DFMA
DFMA
DFMA
DFMA
DFMA
DFMA
DFMA
DFMA
DFMA
DFMA
F2F.F64.F64
DFMA
FSETP.LT.AND
SSY
ISCADD
MOV
BRA
DSETP.GT.AND
DADD
FSETP.GEU.AND
SEL
SEL
BRA.U
IMAD.U32.U32.HI
SHR
MOV
ISUB
ISCADD
ISCADD32I
DMUL
DADD.S
ISETP.LT.AND
DSETP.GT.AND
MOV
SSY
BRA
ISETP.GT.AND
MOV
MOV32I
BRA.U
MOV32I
DMUL
MOV
MOV
LOP32I.AND
LOP32I.OR
MOV
ISETP.LT.AND
IADD32I
DADD
MUFU.RCP64H
DFMA
DADD
DFMA
DFMA
DMUL
MOV32I
DFMA
MOV32I
DMUL
DFMA
DFMA
IMAD.U32.U32.HI
MOV32I
DFMA
IADD
DFMA
LOP32I.XOR
DADD
DFMA
DADD
DADD
DFMA
DFMA
DFMA
DFMA
DFMA
DMUL
DMUL
DADD
DFMA
DADD
DFMA
DADD
BRA
DMUL
DADD
DADD
DFMA
DFMA
MOV32I
MOV32I
DFMA
DFMA
DFMA
DFMA
DFMA
DFMA
DFMA
DFMA
DFMA
DFMA
FSETP.LT.AND
SSY
DFMA
ISCADD
MOV
BRA
DSETP.LT.AND
DADD
FSETP.GEU.AND
SEL
SEL
BRA.U
IMAD.U32.U32.HI
MOV
SHR
ISUB
ISCADD
ISCADD32I
DMUL
DADD.S
ISETP.LT.AND
MOV
DSETP.GT.AND
BRA
ISETP.GT.AND
MOV
MOV32I
BRA.U
MOV32I
DMUL
MOV
MOV
LOP32I.AND
IMAD.U32.U32.HI
LOP32I.OR
MOV
ISETP.LT.AND
MOV32I
IADD32I
IADD
DADD
MUFU.RCP64H
DFMA
DFMA
DADD
DFMA
DMUL
DFMA
MOV32I
MOV32I
DMUL
DFMA
DFMA
DFMA
DADD
DFMA
LOP32I.XOR
DFMA
DADD
DADD
DFMA
DFMA
DFMA
DFMA
DMUL
DFMA
DMUL
DADD
DFMA
DADD
DFMA
DADD.S
DSETP.GTU.AND
BRA
DADD
BRA
DSETP.GTU.AND
BRA
DADD.S
MOV32I
DSETP.EQ.AND
MOV
BRA.U
DSETP.EQ.AND
SEL
SEL
DADD.S
SHF.L.U64
IMAD.U32.U32
IADD
IADD.X
ISETP.LT.AND
ST.E.64
BRA
MOV
BRA
MOV
S2R
S2R
XMAD.MRG
XMAD
XMAD.PSL.CBCC
ISETP.GE.AND
SHL
SHR
IADD
IADD.X
LDG.E
IADD
IADD.X
LDG.E
FMNMX
FMUL32I
F2F.F32.F32.TRUNC
FADD
FSETP.LT.AND
FFMA
FFMA
FMUL
FMUL32I
RRO.EX2
MUFU.EX2
RRO.EX2
MUFU.EX2
FSETP.LT.AND
FMUL
FSETP.GT.AND
FMUL
SEL
SEL
F2F.F64.F32
FMUL
DADD
F2F.F64.F32
CAL
IADD
F2F.F32.F64
MOV
XMAD
XMAD.MRG
XMAD.PSL.CBCC
ISETP.LT.AND
MOV
IADD.X
STG.E
BRA
LOP32I.AND
SSY
ISETP.LE.U32.AND
LOP32I.AND
ISETP.EQ.U32.OR
MOV
MOV
MOV
SYNC;
IADD
LOP32I.AND
LOP32I.AND
ISETP.GT.U32.X.AND
IADD32I
MOV
IADD32I
SYNC;
MOV
MUFU.RCP64H
DFMA
DFMA
DMUL
DFMA
DFMA
DFMA
DFMA
DFMA
LOP.OR
IADD
LOP32I.AND
ISETP.GE.U32.X.AND
BRA
MOV
MOV
MOV
CAL
MOV
MOV
MOV
MOV
RET;
SHL
SHR.U32
SHL
IADD32I
SHR.U32
ISETP.GT.U32.AND
IADD32I
ISETP.GT.U32.OR
MOV
MOV
MOV
MOV
MOV
BRA
MOV
DSETP.LE.AND
MOV
LOP32I.OR
MOV
RET;
DSETP.LE.AND
LOP32I.OR
MOV
RET;
DSETP.EQ.AND
DSET.EQ.AND
DSETP.EQ.AND
BRA
DSET.EQ.AND
DSET.EQ.AND
LOP.OR.NZ
BRA
MOV32I
MOV32I
RET;
DSETP.EQ.OR
LOP3.LUT
MOV
RET;
DSETP.EQ.OR
LOP3.LUT
LOP32I.OR
MOV
RET;
ISETP.GE.AND
ISETP.GE.AND
DMUL
MOV32I
MOV
MOV
MOV
BRA
DMUL
IADD32I
BRA
MOV
IADD32I
ISCADD
MUFU.RCP64H
MOV32I
IADD32I
MOV
ISCADD
DFMA
DMUL
DFMA
DMUL
DFMA
DFMA
DFMA
DFMA
DFMA
DFMA
DFMA
IADD
SHL
SHR.U32
IADD3
IADD32I
ISETP.GT.U32.AND
IADD
MOV
ISCADD
BRA
IADD32I
ISETP.LE.AND
MOV
MOV
MOV
MOV
LOP32I.AND
LOP32I.OR
MOV
BRA
MOV
ISETP.GE.AND
LOP32I.AND
MOV
BRA
IADD
SSY
DFMA.RZ
ISETP.LE.AND
MOV
IADD
DFMA.RM
DFMA.RP
ISETP.NE.AND
DSET.NE.AND
IADD32I
LOP32I.AND
ISETP.EQ.AND
IADD
LOP32I.OR
SEL
MOV
MOV
LOP.OR
SYNC;
IADD32I
SHL
ISETP.NE.AND
SHL
SHR.U32
SHR.U32
SEL
LOP.OR
LOP.OR
SYNC;
SHR.U32
SHL
LOP.OR
LOP32I.AND
LOP3.LUT
LOP.AND
ISETP.EQ.AND
SHR.U32
MOV
BRA
IADD32I
ISETP.EQ.AND
IADD32I
LOP.OR
MOV
MOV
RET;
BRA
MOV
S2R
S2R
XMAD.MRG
XMAD
XMAD.PSL.CBCC
ISETP.GE.AND
SHL
SSY
SHR
IADD
IADD.X
LDG.E.64
DMNMX
DMUL
DADD
DADD
DFMA
DFMA
MOV32I
MOV32I
DFMA
DFMA
DFMA
DFMA
DFMA
DFMA
DFMA
DFMA
DFMA
FSETP.LT.AND
DFMA
DFMA
SHR
ISCADD
MOV
SYNC;
MOV
MOV
FSETP.GEU.AND
DSETP.LT.AND
DADD
SEL
SEL
SYNC;
SHR.U32
IADD
SHR
IADD
ISCADD
MOV
ISCADD32I
MOV
DMUL
SYNC;
SHF.L.U64
SHF.L.U64
IADD
IADD.X
LDG.E.64
DADD
DMUL
CAL
MOV
XMAD
XMAD.MRG
XMAD.PSL.CBCC
IADD
ISETP.LT.AND
MOV
MOV
IADD.X
STG.E.64
BRA
LOP32I.AND
SSY
ISETP.LE.U32.AND
LOP32I.AND
ISETP.EQ.U32.OR
MOV
MOV
MOV
MOV
MOV
SYNC;
IADD
LOP32I.AND
LOP32I.AND
MOV
ISETP.GT.U32.X.AND
IADD32I
MOV
IADD32I
SYNC;
MOV
MUFU.RCP64H
DFMA
DFMA
DMUL
DFMA
DFMA
DFMA
DFMA
DFMA
LOP.OR
IADD
LOP32I.AND
ISETP.GE.U32.X.AND
BRA
MOV
MOV
MOV
CAL
MOV
MOV
MOV
MOV
RET;
SHL
SHR.U32
SHL
IADD32I
SHR.U32
ISETP.GT.U32.AND
IADD32I
ISETP.GT.U32.OR
MOV
MOV
MOV
MOV
MOV
BRA
MOV
DSETP.LE.AND
MOV
LOP32I.OR
MOV
RET;
DSETP.LE.AND
LOP32I.OR
MOV
RET;
DSETP.EQ.AND
DSET.EQ.AND
DSETP.EQ.AND
BRA
DSET.EQ.AND
DSET.EQ.AND
LOP.OR.NZ
BRA
MOV32I
MOV32I
RET;
DSETP.EQ.OR
LOP3.LUT
MOV
RET;
DSETP.EQ.OR
LOP3.LUT
LOP32I.OR
MOV
RET;
ISETP.GE.AND
ISETP.GE.AND
DMUL
MOV32I
MOV
MOV
MOV
BRA
DMUL
IADD32I
BRA
MOV
IADD32I
ISCADD
MUFU.RCP64H
MOV32I
IADD32I
MOV
ISCADD
DFMA
DMUL
DFMA
DMUL
DFMA
DFMA
DFMA
DFMA
DFMA
DFMA
DFMA
IADD
SHL
SHR.U32
IADD3
IADD32I
ISETP.GT.U32.AND
IADD
MOV
ISCADD
BRA
IADD32I
ISETP.LE.AND
MOV
MOV
MOV
MOV
LOP32I.AND
LOP32I.OR
MOV
BRA
MOV
ISETP.GE.AND
LOP32I.AND
MOV
BRA
IADD
SSY
DFMA.RZ
ISETP.LE.AND
MOV
IADD
DFMA.RM
DFMA.RP
ISETP.NE.AND
DSET.NE.AND
IADD32I
LOP32I.AND
ISETP.EQ.AND
IADD
LOP32I.OR
SEL
MOV
MOV
LOP.OR
SYNC;
IADD32I
SHL
ISETP.NE.AND
SHL
SHR.U32
SHR.U32
SEL
LOP.OR
LOP.OR
SYNC;
SHR.U32
SHL
LOP.OR
LOP32I.AND
LOP3.LUT
LOP.AND
ISETP.EQ.AND
SHR.U32
MOV
BRA
IADD32I
ISETP.EQ.AND
IADD32I
LOP.OR
MOV
MOV
RET;
BRA
MOV
S2R
S2R
XMAD.MRG
XMAD
XMAD.PSL.CBCC
ISETP.GE.AND
SHL
SSY
SHR
IADD
IADD.X
LDG.E
SHR
FSETP.GT.AND
BRA
FMUL32I
F2F.F32.F32.TRUNC
FADD
FSETP.LT.AND
FFMA
FFMA
FMUL
FMUL32I
RRO.EX2
MUFU.EX2
RRO.EX2
MUFU.EX2
FMUL
FMUL
F2F.F64.F32
FSETP.LT.AND
FSETP.GT.AND
DADD
SEL
SEL
SEL
SEL
MOV
ISETP.LT.AND
DSET.GT.AND
MOV
BRA
DSETP.GTU.AND
BRA
MOV32I
DSETP.EQ.AND
MOV32I
SYNC;
DSETP.EQ.AND
SEL
SEL
SYNC;
DADD
SYNC;
ISETP.GT.AND
DMUL
MOV
LOP32I.AND
LOP32I.OR
ISETP.LT.AND
MOV
MOV
MOV
MOV
IADD32I
MOV
MOV
DADD
MUFU.RCP64H
MOV
DFMA
DADD
DFMA
DFMA
DMUL
DFMA
MOV32I
MOV32I
DMUL
DFMA
MOV32I
SHR.U32
DFMA
MOV32I
DFMA
IADD
DFMA
IADD32I
DADD
MOV32I
LOP32I.XOR
DFMA
DADD
DADD
DFMA
DFMA
DFMA
DFMA
DFMA
DMUL
DMUL
DADD
DFMA
DADD
DFMA
DADD
SYNC;
FMUL32I
SSY
FSETP.GT.AND
F2F.F32.F32.TRUNC
FADD
FSETP.LT.AND
FFMA
FFMA
FMUL
FMUL32I
RRO.EX2
MUFU.EX2
RRO.EX2
MUFU.EX2
FMUL
FMUL
F2F.F64.F32
FSETP.LT.AND
DADD
SEL
SEL
SEL
SEL
DSET.GT.AND
ISETP.LT.AND
MOV
BRA
DSETP.GTU.AND
BRA
MOV32I
DSETP.EQ.AND
MOV32I
SYNC;
DSETP.EQ.AND
SEL
SEL
SYNC;
DADD
SYNC;
ISETP.GT.AND
DMUL
MOV
LOP32I.AND
LOP32I.OR
ISETP.LT.AND
MOV
MOV
MOV
IADD32I
MOV
MOV
DADD
MUFU.RCP64H
MOV
DFMA
DADD
DFMA
DFMA
DMUL
DFMA
MOV32I
MOV32I
DMUL
DFMA
MOV32I
SHR.U32
DFMA
MOV32I
DFMA
IADD
DFMA
IADD32I
DADD
MOV32I
LOP32I.XOR
DFMA
DADD
DADD
DFMA
DFMA
DFMA
DFMA
DFMA
DMUL
DMUL
DADD
DFMA
DADD
DFMA
DADD
SYNC;
F2F.F64.F32
DADD
SYNC;
MOV
F2F.F32.F64
XMAD
XMAD.MRG
XMAD.PSL.CBCC
LEA
ISETP.LT.AND
MOV
LEA.HI.X
MOV
STG.E
BRA
BRA
MOV
S2R
S2R
XMAD.MRG
XMAD
XMAD.PSL.CBCC
ISETP.GE.AND
SHL
SSY
SHR
IADD
IADD.X
LDG.E.64
SHR
DSETP.GT.AND
BRA
DMUL
SSY
DADD
DADD
DFMA
DFMA
MOV32I
MOV32I
DFMA
DFMA
DFMA
DFMA
DFMA
DFMA
DFMA
DFMA
DFMA
FSETP.LT.AND
DFMA
DFMA
ISCADD
MOV
SYNC;
MOV
DSETP.LT.AND
DADD
FSETP.GEU.AND
SEL
SEL
MOV
SYNC;
SHR.U32
IADD
SHR
IADD
ISCADD
ISCADD32I
MOV
DMUL
SYNC;
DADD
DSET.GT.AND
ISETP.LT.AND
MOV
BRA
DSETP.GTU.AND
BRA
MOV32I
DSETP.EQ.AND
MOV32I
SYNC;
DSETP.EQ.AND
SEL
SEL
SYNC;
DADD
SYNC;
ISETP.GT.AND
DMUL
MOV
LOP32I.AND
LOP32I.OR
ISETP.LT.AND
MOV
MOV
MOV
MOV
IADD32I
MOV
MOV
DADD
MUFU.RCP64H
MOV
DFMA
DADD
DFMA
DFMA
DMUL
DFMA
MOV32I
MOV32I
DMUL
DFMA
MOV32I
SHR.U32
DFMA
MOV32I
DFMA
IADD
DFMA
IADD32I
DADD
MOV32I
LOP32I.XOR
DFMA
DADD
DADD
DFMA
DFMA
DFMA
DFMA
DFMA
DMUL
DMUL
DADD
DFMA
DADD
DFMA
DADD
SYNC;
DMUL
F2F.F64.F64
DADD
SSY
DADD
DFMA
DFMA
MOV32I
MOV32I
DFMA
DFMA
DFMA
DFMA
DFMA
DFMA
DFMA
DFMA
DFMA
FSETP.LT.AND
DFMA
DFMA
ISCADD
MOV
SYNC;
FSETP.GEU.AND
DSETP.GT.AND
DADD
SEL
SEL
SYNC;
SHR.U32
IADD
SHR
IADD
ISCADD
ISCADD32I
MOV
MOV
DMUL
SYNC;
DADD
SSY
ISETP.LT.AND
DSET.GT.AND
MOV
BRA
DSETP.GTU.AND
BRA
MOV32I
DSETP.EQ.AND
MOV32I
SYNC;
DSETP.EQ.AND
SEL
SEL
SYNC;
DADD
SYNC;
ISETP.GT.AND
DMUL
MOV
LOP32I.AND
LOP32I.OR
ISETP.LT.AND
MOV
MOV
MOV
IADD32I
MOV
MOV
DADD
MUFU.RCP64H
MOV
DFMA
DADD
DFMA
DFMA
DMUL
DFMA
MOV32I
MOV32I
DMUL
DFMA
MOV32I
SHR.U32
DFMA
MOV32I
DFMA
IADD
DFMA
IADD32I
DADD
MOV32I
LOP32I.XOR
DFMA
DADD
DADD
DFMA
DFMA
DFMA
DFMA
DFMA
DMUL
DMUL
DADD
DFMA
DADD
DFMA
DADD
SYNC;
DADD
SYNC;
MOV
XMAD
XMAD.MRG
XMAD.PSL.CBCC
LEA
ISETP.LT.AND
MOV
LEA.HI.X
MOV
STG.E.64
BRA
BRA
MOV
S2R
S2R
XMAD.MRG
XMAD
XMAD.PSL.CBCC
ISETP.GE.AND
SHL
SHR
IADD
IADD.X
LDG.E
IADD
IADD.X
LDG.E
FMNMX
FMUL32I
F2F.F32.F32.TRUNC
FADD
FSETP.LT.AND
FFMA
FFMA
FMUL
FMUL32I
RRO.EX2
MUFU.EX2
RRO.EX2
MUFU.EX2
FSETP.LT.AND
FMUL
FSETP.GT.AND
FMUL
SEL
SEL
F2F.F64.F32
FMUL
DADD
F2F.F64.F32
CAL
IADD
F2F.F32.F64
MOV
XMAD
XMAD.MRG
XMAD.PSL.CBCC
ISETP.LT.AND
MOV
IADD.X
STG.E
BRA
LOP32I.AND
SSY
ISETP.LE.U32.AND
LOP32I.AND
ISETP.EQ.U32.OR
MOV
MOV
MOV
SYNC;
IADD
LOP32I.AND
LOP32I.AND
ISETP.GT.U32.X.AND
IADD32I
MOV
IADD32I
SYNC;
MOV
MUFU.RCP64H
DFMA
DFMA
DMUL
DFMA
DFMA
DFMA
DFMA
DFMA
LOP.OR
IADD
LOP32I.AND
ISETP.GE.U32.X.AND
BRA
MOV
MOV
MOV
CAL
MOV
MOV
MOV
MOV
RET;
SHL
SHR.U32
SHL
IADD32I
SHR.U32
ISETP.GT.U32.AND
IADD32I
ISETP.GT.U32.OR
MOV
MOV
MOV
MOV
MOV
BRA
MOV
DSETP.LE.AND
MOV
LOP32I.OR
MOV
RET;
DSETP.LE.AND
LOP32I.OR
MOV
RET;
DSETP.EQ.AND
DSET.EQ.AND
DSETP.EQ.AND
BRA
DSET.EQ.AND
DSET.EQ.AND
LOP.OR.NZ
BRA
MOV32I
MOV32I
RET;
DSETP.EQ.OR
LOP3.LUT
MOV
RET;
DSETP.EQ.OR
LOP3.LUT
LOP32I.OR
MOV
RET;
ISETP.GE.AND
ISETP.GE.AND
DMUL
MOV32I
MOV
MOV
MOV
BRA
DMUL
IADD32I
BRA
MOV
IADD32I
ISCADD
MUFU.RCP64H
MOV32I
IADD32I
MOV
ISCADD
DFMA
DMUL
DFMA
DMUL
DFMA
DFMA
DFMA
DFMA
DFMA
DFMA
DFMA
IADD
SHL
SHR.U32
IADD3
IADD32I
ISETP.GT.U32.AND
IADD
MOV
ISCADD
BRA
IADD32I
ISETP.LE.AND
MOV
MOV
MOV
MOV
LOP32I.AND
LOP32I.OR
MOV
BRA
MOV
ISETP.GE.AND
LOP32I.AND
MOV
BRA
IADD
SSY
DFMA.RZ
ISETP.LE.AND
MOV
IADD
DFMA.RM
DFMA.RP
ISETP.NE.AND
DSET.NE.AND
IADD32I
LOP32I.AND
ISETP.EQ.AND
IADD
LOP32I.OR
SEL
MOV
MOV
LOP.OR
SYNC;
IADD32I
SHL
ISETP.NE.AND
SHL
SHR.U32
SHR.U32
SEL
LOP.OR
LOP.OR
SYNC;
SHR.U32
SHL
LOP.OR
LOP32I.AND
LOP3.LUT
LOP.AND
ISETP.EQ.AND
SHR.U32
MOV
BRA
IADD32I
ISETP.EQ.AND
IADD32I
LOP.OR
MOV
MOV
RET;
BRA
MOV
S2R
S2R
XMAD.MRG
XMAD
XMAD.PSL.CBCC
ISETP.GE.AND
SHL
SSY
SHR
IADD
IADD.X
LDG.E.64
DMNMX
DMUL
DADD
DADD
DFMA
DFMA
MOV32I
MOV32I
DFMA
DFMA
DFMA
DFMA
DFMA
DFMA
DFMA
DFMA
DFMA
FSETP.LT.AND
DFMA
DFMA
SHR
ISCADD
MOV
SYNC;
MOV
MOV
FSETP.GEU.AND
DSETP.LT.AND
DADD
SEL
SEL
SYNC;
SHR.U32
IADD
SHR
IADD
ISCADD
MOV
ISCADD32I
MOV
DMUL
SYNC;
SHF.L.U64
SHF.L.U64
IADD
IADD.X
LDG.E.64
DADD
DMUL
CAL
MOV
XMAD
XMAD.MRG
XMAD.PSL.CBCC
IADD
ISETP.LT.AND
MOV
MOV
IADD.X
STG.E.64
BRA
LOP32I.AND
SSY
ISETP.LE.U32.AND
LOP32I.AND
ISETP.EQ.U32.OR
MOV
MOV
MOV
MOV
MOV
SYNC;
IADD
LOP32I.AND
LOP32I.AND
MOV
ISETP.GT.U32.X.AND
IADD32I
MOV
IADD32I
SYNC;
MOV
MUFU.RCP64H
DFMA
DFMA
DMUL
DFMA
DFMA
DFMA
DFMA
DFMA
LOP.OR
IADD
LOP32I.AND
ISETP.GE.U32.X.AND
BRA
MOV
MOV
MOV
CAL
MOV
MOV
MOV
MOV
RET;
SHL
SHR.U32
SHL
IADD32I
SHR.U32
ISETP.GT.U32.AND
IADD32I
ISETP.GT.U32.OR
MOV
MOV
MOV
MOV
MOV
BRA
MOV
DSETP.LE.AND
MOV
LOP32I.OR
MOV
RET;
DSETP.LE.AND
LOP32I.OR
MOV
RET;
DSETP.EQ.AND
DSET.EQ.AND
DSETP.EQ.AND
BRA
DSET.EQ.AND
DSET.EQ.AND
LOP.OR.NZ
BRA
MOV32I
MOV32I
RET;
DSETP.EQ.OR
LOP3.LUT
MOV
RET;
DSETP.EQ.OR
LOP3.LUT
LOP32I.OR
MOV
RET;
ISETP.GE.AND
ISETP.GE.AND
DMUL
MOV32I
MOV
MOV
MOV
BRA
DMUL
IADD32I
BRA
MOV
IADD32I
ISCADD
MUFU.RCP64H
MOV32I
IADD32I
MOV
ISCADD
DFMA
DMUL
DFMA
DMUL
DFMA
DFMA
DFMA
DFMA
DFMA
DFMA
DFMA
IADD
SHL
SHR.U32
IADD3
IADD32I
ISETP.GT.U32.AND
IADD
MOV
ISCADD
BRA
IADD32I
ISETP.LE.AND
MOV
MOV
MOV
MOV
LOP32I.AND
LOP32I.OR
MOV
BRA
MOV
ISETP.GE.AND
LOP32I.AND
MOV
BRA
IADD
SSY
DFMA.RZ
ISETP.LE.AND
MOV
IADD
DFMA.RM
DFMA.RP
ISETP.NE.AND
DSET.NE.AND
IADD32I
LOP32I.AND
ISETP.EQ.AND
IADD
LOP32I.OR
SEL
MOV
MOV
LOP.OR
SYNC;
IADD32I
SHL
ISETP.NE.AND
SHL
SHR.U32
SHR.U32
SEL
LOP.OR
LOP.OR
SYNC;
SHR.U32
SHL
LOP.OR
LOP32I.AND
LOP3.LUT
LOP.AND
ISETP.EQ.AND
SHR.U32
MOV
BRA
IADD32I
ISETP.EQ.AND
IADD32I
LOP.OR
MOV
MOV
RET;
BRA
MOV
S2R
S2R
XMAD.MRG
XMAD
XMAD.PSL.CBCC
ISETP.GE.AND
SHL
SSY
SHR
IADD
IADD.X
LDG.E
SHR
FSETP.GT.AND
BRA
FMUL32I
F2F.F32.F32.TRUNC
FADD
FSETP.LT.AND
FFMA
FFMA
FMUL
FMUL32I
RRO.EX2
MUFU.EX2
RRO.EX2
MUFU.EX2
FMUL
FMUL
F2F.F64.F32
FSETP.LT.AND
FSETP.GT.AND
DADD
SEL
SEL
SEL
SEL
MOV
ISETP.LT.AND
DSET.GT.AND
MOV
BRA
DSETP.GTU.AND
BRA
MOV32I
DSETP.EQ.AND
MOV32I
SYNC;
DSETP.EQ.AND
SEL
SEL
SYNC;
DADD
SYNC;
ISETP.GT.AND
DMUL
MOV
LOP32I.AND
LOP32I.OR
ISETP.LT.AND
MOV
MOV
MOV
MOV
IADD32I
MOV
MOV
DADD
MUFU.RCP64H
MOV
DFMA
DADD
DFMA
DFMA
DMUL
DFMA
MOV32I
MOV32I
DMUL
DFMA
MOV32I
SHR.U32
DFMA
MOV32I
DFMA
IADD
DFMA
IADD32I
DADD
MOV32I
LOP32I.XOR
DFMA
DADD
DADD
DFMA
DFMA
DFMA
DFMA
DFMA
DMUL
DMUL
DADD
DFMA
DADD
DFMA
DADD
SYNC;
FMUL32I
SSY
FSETP.GT.AND
F2F.F32.F32.TRUNC
FADD
FSETP.LT.AND
FFMA
FFMA
FMUL
FMUL32I
RRO.EX2
MUFU.EX2
RRO.EX2
MUFU.EX2
FMUL
FMUL
F2F.F64.F32
FSETP.LT.AND
DADD
SEL
SEL
SEL
SEL
DSET.GT.AND
ISETP.LT.AND
MOV
BRA
DSETP.GTU.AND
BRA
MOV32I
DSETP.EQ.AND
MOV32I
SYNC;
DSETP.EQ.AND
SEL
SEL
SYNC;
DADD
SYNC;
ISETP.GT.AND
DMUL
MOV
LOP32I.AND
LOP32I.OR
ISETP.LT.AND
MOV
MOV
MOV
IADD32I
MOV
MOV
DADD
MUFU.RCP64H
MOV
DFMA
DADD
DFMA
DFMA
DMUL
DFMA
MOV32I
MOV32I
DMUL
DFMA
MOV32I
SHR.U32
DFMA
MOV32I
DFMA
IADD
DFMA
IADD32I
DADD
MOV32I
LOP32I.XOR
DFMA
DADD
DADD
DFMA
DFMA
DFMA
DFMA
DFMA
DMUL
DMUL
DADD
DFMA
DADD
DFMA
DADD
SYNC;
F2F.F64.F32
DADD
SYNC;
MOV
F2F.F32.F64
XMAD
XMAD.MRG
XMAD.PSL.CBCC
LEA
ISETP.LT.AND
MOV
LEA.HI.X
MOV
STG.E
BRA
BRA
MOV
S2R
S2R
XMAD.MRG
XMAD
XMAD.PSL.CBCC
ISETP.GE.AND
SHL
SSY
SHR
IADD
IADD.X
LDG.E.64
SHR
DSETP.GT.AND
BRA
DMUL
SSY
DADD
DADD
DFMA
DFMA
MOV32I
MOV32I
DFMA
DFMA
DFMA
DFMA
DFMA
DFMA
DFMA
DFMA
DFMA
FSETP.LT.AND
DFMA
DFMA
ISCADD
MOV
SYNC;
MOV
DSETP.LT.AND
DADD
FSETP.GEU.AND
SEL
SEL
MOV
SYNC;
SHR.U32
IADD
SHR
IADD
ISCADD
ISCADD32I
MOV
DMUL
SYNC;
DADD
DSET.GT.AND
ISETP.LT.AND
MOV
BRA
DSETP.GTU.AND
BRA
MOV32I
DSETP.EQ.AND
MOV32I
SYNC;
DSETP.EQ.AND
SEL
SEL
SYNC;
DADD
SYNC;
ISETP.GT.AND
DMUL
MOV
LOP32I.AND
LOP32I.OR
ISETP.LT.AND
MOV
MOV
MOV
MOV
IADD32I
MOV
MOV
DADD
MUFU.RCP64H
MOV
DFMA
DADD
DFMA
DFMA
DMUL
DFMA
MOV32I
MOV32I
DMUL
DFMA
MOV32I
SHR.U32
DFMA
MOV32I
DFMA
IADD
DFMA
IADD32I
DADD
MOV32I
LOP32I.XOR
DFMA
DADD
DADD
DFMA
DFMA
DFMA
DFMA
DFMA
DMUL
DMUL
DADD
DFMA
DADD
DFMA
DADD
SYNC;
DMUL
F2F.F64.F64
DADD
SSY
DADD
DFMA
DFMA
MOV32I
MOV32I
DFMA
DFMA
DFMA
DFMA
DFMA
DFMA
DFMA
DFMA
DFMA
FSETP.LT.AND
DFMA
DFMA
ISCADD
MOV
SYNC;
FSETP.GEU.AND
DSETP.GT.AND
DADD
SEL
SEL
SYNC;
SHR.U32
IADD
SHR
IADD
ISCADD
ISCADD32I
MOV
MOV
DMUL
SYNC;
DADD
SSY
ISETP.LT.AND
DSET.GT.AND
MOV
BRA
DSETP.GTU.AND
BRA
MOV32I
DSETP.EQ.AND
MOV32I
SYNC;
DSETP.EQ.AND
SEL
SEL
SYNC;
DADD
SYNC;
ISETP.GT.AND
DMUL
MOV
LOP32I.AND
LOP32I.OR
ISETP.LT.AND
MOV
MOV
MOV
IADD32I
MOV
MOV
DADD
MUFU.RCP64H
MOV
DFMA
DADD
DFMA
DFMA
DMUL
DFMA
MOV32I
MOV32I
DMUL
DFMA
MOV32I
SHR.U32
DFMA
MOV32I
DFMA
IADD
DFMA
IADD32I
DADD
MOV32I
LOP32I.XOR
DFMA
DADD
DADD
DFMA
DFMA
DFMA
DFMA
DFMA
DMUL
DMUL
DADD
DFMA
DADD
DFMA
DADD
SYNC;
DADD
SYNC;
MOV
XMAD
XMAD.MRG
XMAD.PSL.CBCC
LEA
ISETP.LT.AND
MOV
LEA.HI.X
MOV
STG.E.64
BRA
BRA
