MOV
S2R
S2R
IMAD
ISETP.GE.AND
MOV
IMUL
SHL.W
SHR
IADD
IADD
IADD.X
LD.E
ISETP.NE.AND
IADD
IADD.X
MOV
IADD
LD.E
IADD.X
FADD
ISETP.LT.AND
ST.E
BRA
MOV
S2R
S2R
IMAD
ISETP.GE.AND
MOV
MOV32I
MOV32I
IMUL
IMAD
IMAD.HI.X
LD.E
ISETP.NE.AND
MOV
MOV32I
IMAD
MOV
IMAD.HI.X
LD.E.64
DADD
IMAD
IMAD.HI.X
IADD
ISETP.LT.AND
ST.E.64
BRA
MOV
S2R
S2R
IMAD
ISETP.GE.AND
ISETP.EQ.AND
MOV
IMUL
BRA
SHL.W
SHR
IADD
IADD
IADD.X
IADD
IADD.X
LD.E
LD.E
FSETP.GT.AND
IADD
MOV
IADD.X
IADD
IADD
IADD.X
ST.E
ST.E
ISETP.LT.AND
BRA
BRA
MOV32I
IMAD
IMAD.HI.X
IMAD
LD.E
IMAD.HI.X
IMAD
LD.E
IMAD.HI.X
IMAD
IMAD.HI.X
IADD
FSETP.GT.AND
MOV
IADD
ST.E
ST.E
ST.E
ST.E
ISETP.LT.AND
BRA
MOV
S2R
S2R
IMAD
ISETP.GE.AND
ISETP.EQ.AND
MOV
IMUL
BRA
SHL.W
SHR
IADD
IADD.X
IADD
LD.E.64
IADD.X
LD.E.64
DSETP.GT.AND
IADD
MOV32I
IADD.X
MOV
IMAD
IMAD.HI.X
IADD
ST.E.64
IADD
ST.E
ISETP.LT.AND
BRA
BRA
MOV32I
MOV32I
IMAD
IMAD.HI.X
IMAD
LD.E.64
IMAD.HI.X
LD.E.64
IMAD
IMAD.HI.X
IMAD
IMAD.HI.X
IADD
DSETP.GT.AND
MOV
ST.E.64
IADD
ST.E
ST.E.64
ST.E
ISETP.LT.AND
BRA
MOV
S2R
S2R
IMAD
ISETP.GE.AND
MOV
IMUL
SHL.W
SHR
IADD
IADD
IADD.X
LD.E
ISETP.NE.AND
MOV
IADD
IADD.X
IADD
LD.E
IADD.X
FADD
ISETP.LT.AND
ST.E
BRA
MOV
S2R
S2R
IMAD
ISETP.GE.AND
MOV
MOV32I
MOV32I
IMUL
IMAD
MOV
MOV
IMAD.HI.X
LD.E
ISETP.NE.AND
MOV32I
IMAD
IMAD.HI.X
IMAD
LD.E.64
IMAD.HI.X
IADD
DADD
ISETP.LT.AND
ST.E.64
BRA
MOV
S2R
S2R
IMAD
ISETP.GE.AND
MOV
ISETP.EQ.AND
IMUL
BRA
SHL.W
SHR
IADD
IADD
ISETP.LT.AND
IADD.X
IADD
LD.E
IADD.X
LD.E
FSETP.GT.AND
IADD
MOV
IADD.X
IADD
IADD
ST.E
IADD.X
ST.E
BRA
BRA
MOV32I
IMAD
IMAD.HI.X
IMAD
LD.E
IMAD.HI.X
IMAD
LD.E
IMAD.HI.X
IMAD
IMAD.HI.X
IADD
ISETP.LT.AND
FSETP.GT.AND
MOV
ST.E
ST.E
IADD
ST.E
ST.E
BRA
MOV
S2R
S2R
IMAD
ISETP.GE.AND
MOV
ISETP.EQ.AND
IMUL
BRA
SHL.W
SHR
IADD
IADD.X
IADD
LD.E.64
IADD.X
LD.E.64
DSETP.GT.AND
MOV32I
IMAD
IMAD.HI.X
IADD
MOV
IADD
IADD.X
IADD
ISETP.LT.AND
ST.E.64
ST.E
BRA
BRA
MOV32I
MOV32I
IMAD
IMAD.HI.X
IMAD
LD.E.64
IMAD.HI.X
IMAD
LD.E.64
IMAD.HI.X
IMAD
IMAD.HI.X
IADD
ISETP.LT.AND
DSETP.GT.AND
MOV
ST.E.64
ST.E
IADD
ST.E.64
ST.E
BRA
MOV
S2R
S2R
IMAD
ISETP.GE.AND
MOV
IMUL
SHL.W
SHR
IADD
IADD.X
IADD
LD.E
ISETP.NE.AND
MOV
IADD
IADD.X
LD.E
IADD
IADD.X
FADD
ISETP.LT.AND
ST.E
BRA
BRA
MOV
S2R
S2R
IMAD
ISETP.GE.AND
MOV
MOV32I
MOV32I
IMUL
IMAD
IMAD.HI.X
LD.E
ISETP.NE.AND
MOV
MOV32I
IMAD
IMAD.HI.X
MOV
LD.E.64
DADD
IMAD
IMAD.HI.X
IADD
ISETP.LT.AND
ST.E.64
BRA
BRA
MOV
S2R
S2R
IMAD
ISETP.GE.AND
ISETP.EQ.AND
MOV
IMUL
BRA
SHL.W
SHR
IADD
IADD
IADD.X
IADD
IADD.X
LD.E
LD.E
FSETP.GT.AND
IADD
MOV
IADD.X
IADD
IADD
IADD.X
ST.E
ST.E
ISETP.LT.AND
BRA
BRA
MOV32I
IMAD
IMAD.HI.X
IMAD
LD.E
IMAD.HI.X
LD.E
IMAD
IMAD.HI.X
IMAD
FSETP.GT.AND
IMAD.HI.X
ST.E
MOV
IADD
IADD
ST.E
ST.E
ST.E
ISETP.LT.AND
BRA
BRA
MOV
S2R
S2R
IMAD
ISETP.GE.AND
ISETP.EQ.AND
MOV
IMUL
BRA
SHL.W
SHR
IADD
IADD.X
IADD
LD.E.64
IADD.X
LD.E.64
DSETP.GT.AND
IADD
MOV32I
MOV
IADD.X
IMAD
IADD
ST.E.64
IMAD.HI.X
IADD
ST.E
ISETP.LT.AND
BRA
BRA
MOV32I
MOV32I
IMAD
IMAD.HI.X
IMAD
LD.E.64
IMAD.HI.X
LD.E.64
IMAD
DSETP.GT.AND
IMAD.HI.X
IMAD
ST.E.64
MOV
IMAD.HI.X
IADD
IADD
ST.E
ST.E.64
ST.E
ISETP.LT.AND
BRA
BRA
MOV
S2R
S2R
IMAD
ISETP.GE.AND
MOV
IMUL
SHF.L.W
SHR
IADD
IADD.X
IADD
LD.E
ISETP.NE.AND
MOV
IADD
IADD.X
LD.E
IADD
IADD.X
FADD
ISETP.LT.AND
ST.E
BRA
MOV
BRA
MOV
S2R
S2R
IMAD
ISETP.GE.AND
MOV
MOV32I
MOV32I
IMUL
IMAD
IMAD.HI.X
LD.E
ISETP.NE.AND
MOV
MOV32I
IMAD
IMAD.HI.X
MOV
LD.E.64
IMAD
IMAD.HI.X
IADD
DADD
ISETP.LT.AND
ST.E.64
BRA
MOV
BRA
MOV
S2R
S2R
IMAD
ISETP.GE.AND
ISETP.EQ.AND
MOV
IMUL
BRA
SHF.L.W
SHR
IADD
IADD
IADD.X
IADD
IADD.X
LD.E
LD.E
FSETP.GT.AND
IADD
MOV
IADD.X
IADD
IADD
IADD.X
ST.E
ST.E
ISETP.LT.AND
BRA
BRA
MOV32I
IMAD
IMAD.HI.X
IMAD
LD.E
IMAD.HI.X
LD.E
IMAD
IMAD.HI.X
IMAD
FSETP.GT.AND
IMAD.HI.X
ST.E
MOV
IADD
IADD
ST.E
ST.E
ST.E
ISETP.LT.AND
BRA
MOV
BRA
MOV
S2R
S2R
IMAD
ISETP.GE.AND
ISETP.EQ.AND
MOV
IMUL
BRA
SHF.L.W
SHR
IADD
IADD.X
IADD
LD.E.64
IADD.X
LD.E.64
DSETP.GT.AND
IADD
MOV32I
MOV
IADD.X
IMAD
IADD
ST.E.64
IMAD.HI.X
IADD
ST.E
ISETP.LT.AND
BRA
BRA
MOV32I
MOV32I
IMAD
IMAD.HI.X
IMAD
LD.E.64
IMAD.HI.X
LD.E.64
IMAD
IMAD.HI.X
IMAD
DSETP.GT.AND
MOV
ST.E.64
IMAD.HI.X
IADD
IADD
ST.E
ST.E.64
ST.E
ISETP.LT.AND
BRA
MOV
BRA
MOV
S2R
S2R
XMAD.MRG
XMAD
XMAD.PSL.CBCC
ISETP.GE.AND
SHL
SHR
IADD
IADD.X
LDG.E
MOV
ISETP.NE.AND
IADD
IADD.X
LDG.E
XMAD
XMAD.MRG
XMAD.PSL.CBCC
IADD
ISETP.LT.AND
MOV
IADD.X
FADD
STG.E
BRA
BRA
MOV
S2R
S2R
XMAD.MRG
XMAD
XMAD.PSL.CBCC
ISETP.GE.AND
SHL
SHR
IADD
IADD.X
LDG.E
ISETP.NE.AND
SHL
SHR
IADD
IADD.X
LDG.E.64
MOV
SHL
XMAD
XMAD.MRG
XMAD.PSL.CBCC
SHR
IADD
MOV
MOV
ISETP.LT.AND
IADD.X
DADD
MOV
MOV
MOV
STG.E.64
BRA
BRA
MOV
S2R
S2R
XMAD.MRG
XMAD
XMAD.PSL.CBCC
ISETP.GE.AND
ISETP.EQ.AND
BRA
SHL
SSY
SHR
IADD
IADD.X
IADD
LDG.E
IADD.X
LDG.E
FSETP.GT.AND
SYNC;
IADD
IADD.X
IADD
MOV
IADD.X
MOV
IADD32I
STG.E
STG.E
SYNC;
MOV
XMAD
XMAD.MRG
XMAD.PSL.CBCC
ISETP.LT.AND
BRA
SHL
SHR
IADD
IADD.X
IADD
LDG.E
IADD.X
LDG.E
MOV
XMAD
XMAD.MRG
IADD
XMAD.PSL.CBCC
IADD.X
IADD
ISETP.LT.AND
MOV
IADD.X
MOV
FSETP.GT.AND
MOV
STG.E
IADD32I
STG.E
STG.E
STG.E
BRA
BRA
MOV
S2R
S2R
XMAD.MRG
XMAD
XMAD.PSL.CBCC
ISETP.GE.AND
ISETP.EQ.AND
BRA
SHL
SSY
SHR
IADD
IADD.X
IADD
LDG.E.64
IADD.X
LDG.E.64
DSETP.GT.AND
SYNC;
IADD
SHL
SHR
IADD.X
IADD
MOV
MOV
MOV
IADD.X
MOV
MOV
IADD32I
STG.E.64
STG.E
SYNC;
MOV
XMAD
XMAD.MRG
XMAD.PSL.CBCC
ISETP.LT.AND
BRA
SHL
SHR
IADD
IADD.X
IADD
LDG.E.64
IADD.X
LDG.E.64
MOV
IADD
SHL
XMAD
XMAD.MRG
SHR
XMAD.PSL.CBCC
IADD.X
IADD
ISETP.LT.AND
IADD.X
DSETP.GT.AND
MOV
STG.E.64
IADD32I
STG.E
MOV
STG.E.64
STG.E
BRA
BRA
MOV
S2R
S2R
XMAD.MRG
XMAD
XMAD.PSL.CBCC
ISETP.GE.AND
SHL
SHR
IADD
IADD.X
LDG.E
MOV
ISETP.NE.AND
IADD
IADD.X
LDG.E
XMAD
XMAD.MRG
XMAD.PSL.CBCC
IADD
ISETP.LT.AND
MOV
IADD.X
FADD
STG.E
BRA
BRA
MOV
S2R
S2R
XMAD.MRG
XMAD
XMAD.PSL.CBCC
ISETP.GE.AND
SHL
SHR
IADD
IADD.X
LDG.E
ISETP.NE.AND
SHL
SHR
IADD
IADD.X
LDG.E.64
MOV
SHL
XMAD
XMAD.MRG
XMAD.PSL.CBCC
SHR
IADD
MOV
MOV
ISETP.LT.AND
IADD.X
DADD
MOV
MOV
MOV
STG.E.64
BRA
BRA
MOV
S2R
S2R
XMAD.MRG
XMAD
XMAD.PSL.CBCC
ISETP.GE.AND
ISETP.EQ.AND
BRA
SHL
SSY
SHR
IADD
IADD.X
IADD
LDG.E
IADD.X
LDG.E
FSETP.GT.AND
SYNC;
IADD
IADD.X
IADD
MOV
IADD.X
MOV
IADD32I
STG.E
STG.E
SYNC;
MOV
XMAD
XMAD.MRG
XMAD.PSL.CBCC
ISETP.LT.AND
BRA
SHL
SHR
IADD
IADD.X
IADD
LDG.E
IADD.X
LDG.E
MOV
XMAD
XMAD.MRG
IADD
XMAD.PSL.CBCC
IADD.X
IADD
ISETP.LT.AND
MOV
IADD.X
MOV
FSETP.GT.AND
MOV
STG.E
IADD32I
STG.E
STG.E
STG.E
BRA
BRA
MOV
S2R
S2R
XMAD.MRG
XMAD
XMAD.PSL.CBCC
ISETP.GE.AND
ISETP.EQ.AND
BRA
SHL
SSY
SHR
IADD
IADD.X
IADD
LDG.E.64
IADD.X
LDG.E.64
DSETP.GT.AND
SYNC;
IADD
SHL
SHR
IADD.X
IADD
MOV
MOV
MOV
IADD.X
MOV
MOV
IADD32I
STG.E.64
STG.E
SYNC;
MOV
XMAD
XMAD.MRG
XMAD.PSL.CBCC
ISETP.LT.AND
BRA
SHL
SHR
IADD
IADD.X
IADD
LDG.E.64
IADD.X
LDG.E.64
MOV
IADD
SHL
XMAD
XMAD.MRG
SHR
XMAD.PSL.CBCC
IADD.X
IADD
ISETP.LT.AND
IADD.X
DSETP.GT.AND
MOV
STG.E.64
IADD32I
STG.E
MOV
STG.E.64
STG.E
BRA
BRA
