MOV
S2R
S2R
IMAD
ISETP.GE.AND
I2I.S32.S32
I2I.S32.S32
I2F.F32.U32.RP
I2F.F32.U32.RP
MUFU.RCP
MUFU.RCP
IADD32I
IADD32I
F2I.FTZ.U32.F32.TRUNC
F2I.FTZ.U32.F32.TRUNC
IMUL.U32.U32
IMUL.U32.U32
MOV
I2I.S32.S32
I2I.S32.S32
LOP.PASS_B
MOV32I
LOP.PASS_B
MOV32I
IMUL
IMAD.U32.U32.HI
IMAD.U32.U32.HI
I2I.S32.S32
LOP.XOR
IMUL.U32.U32.HI
ISETP.GE.AND
IMAD.U32.U32
I2I.S32.S32
ISETP.LE.U32.AND
ISETP.GE.AND
ISUB
IADD
ISETP.GE.U32.AND
IADD
I2I.S32.S32
ISETP.NE.AND
SEL
IMAD
IMAD.HI.X
IMAD
LD.E
IMAD.HI.X
IMUL.U32.U32.HI
LD.E
IMAD.U32.U32
IADD
ISETP.LE.U32.AND
ISUB
ISETP.LE.U32.AND
ISUB
I2I.S32.S32
ISETP.LT.AND
SEL
F2I.S32.F32.TRUNC
IMAD
IMAD
IMAD.HI.X
RED.E.ADD.F32.FTZ.RN
BRA
MOV
S2R
S2R
IMAD
ISETP.GE.AND
I2I.S32.S32
I2I.S32.S32
I2F.F32.U32.RP
I2F.F32.U32.RP
MUFU.RCP
MUFU.RCP
IADD32I
IADD32I
F2I.FTZ.U32.F32.TRUNC
LOP.PASS_B
IMUL.U32.U32
MOV
I2I.S32.S32
MOV32I
IMUL
F2I.FTZ.U32.F32.TRUNC
IMAD.U32.U32.HI
I2I.S32.S32
IMUL.U32.U32.HI
LOP.XOR
IMAD.U32.U32
ISETP.GE.AND
ISETP.LE.U32.AND
IMUL.U32.U32
ISUB
IADD
ISETP.GE.U32.AND
I2I.S32.S32
IADD
I2I.S32.S32
I2I.S32.S32
IMAD.U32.U32.HI
ISETP.NE.AND
ISETP.GE.AND
SEL
SSY
IMAD
IMAD.HI.X
LD.E.64
IMUL.U32.U32.HI
MOV32I
IMAD.U32.U32
ISETP.LE.U32.AND
LOP.PASS_B
ISUB
IMAD
ISETP.LE.U32.AND
IMAD.HI.X
ISUB
I2I.S32.S32
SEL
F2I.S32.F64.TRUNC
IMAD
IMAD
IMAD.HI.X
LD.E.64
LD.E.64
DADD
MOV
ATOM.E.CAS.U64
MOV
MOV
ISUB
MOV
ISETP.NE.X.AND
BRA
IADD.S
ISETP.LT.AND
BRA
MOV
S2R
S2R
IMAD
ISETP.GE.AND
I2I.S32.S32
I2I.S32.S32
I2F.F32.U32.RP
I2F.F32.U32.RP
MUFU.RCP
MUFU.RCP
IADD32I
IADD32I
F2I.FTZ.U32.F32.TRUNC
F2I.FTZ.U32.F32.TRUNC
IMUL.U32.U32
IMUL.U32.U32
MOV
I2I.S32.S32
I2I.S32.S32
LOP.PASS_B
MOV32I
LOP.PASS_B
MOV32I
IMUL
IMAD.U32.U32.HI
IMAD.U32.U32.HI
I2I.S32.S32
LOP.XOR
IMUL.U32.U32.HI
ISETP.GE.AND
IMAD.U32.U32
I2I.S32.S32
ISETP.LE.U32.AND
IMUL.U32.U32.HI
ISUB
IADD
ISETP.GE.U32.AND
IMAD.U32.U32
IADD
ISETP.GE.AND
I2I.S32.S32
ISETP.LE.U32.AND
ISETP.NE.AND
ISUB
SEL
ISETP.LE.U32.AND
IMAD
ISUB
IMAD.HI.X
I2I.S32.S32
SEL
LD.E
F2I.S32.F32.TRUNC
IMAD
IMAD
IMAD.HI.X
IMAD
LD.E
IMAD.HI.X
IADD
ISETP.LT.AND
ST.E
BRA
MOV
S2R
S2R
IMAD
ISETP.GE.AND
I2I.S32.S32
I2I.S32.S32
I2F.F32.U32.RP
I2F.F32.U32.RP
MUFU.RCP
MUFU.RCP
IADD32I
IADD32I
F2I.FTZ.U32.F32.TRUNC
F2I.FTZ.U32.F32.TRUNC
IMUL.U32.U32
IMUL.U32.U32
MOV
I2I.S32.S32
I2I.S32.S32
LOP.PASS_B
MOV32I
LOP.PASS_B
MOV32I
IMUL
IMAD.U32.U32.HI
IMAD.U32.U32.HI
I2I.S32.S32
LOP.XOR
IMUL.U32.U32.HI
ISETP.GE.AND
IMAD.U32.U32
I2I.S32.S32
ISETP.LE.U32.AND
IMUL.U32.U32.HI
ISUB
IADD
ISETP.GE.U32.AND
IMAD.U32.U32
IADD
ISETP.GE.AND
I2I.S32.S32
ISETP.LE.U32.AND
ISETP.NE.AND
ISUB
SEL
ISETP.LE.U32.AND
IMAD
ISUB
IMAD.HI.X
I2I.S32.S32
SEL
LD.E.64
F2I.S32.F64.TRUNC
IMAD
IMAD
IMAD.HI.X
IMAD
LD.E.64
IMAD.HI.X
IADD
ISETP.LT.AND
ST.E.64
BRA
MOV
S2R
S2R
IMAD
ISETP.GE.AND
I2I.S32.S32
I2I.S32.S32
LOP.PASS_B
I2F.F32.U32.RP
I2F.F32.U32.RP
MOV32I
MUFU.RCP
MOV
MUFU.RCP
IADD32I
LOP.PASS_B
IADD32I
F2I.FTZ.U32.F32.TRUNC
MOV32I
F2I.FTZ.U32.F32.TRUNC
IMUL.U32.U32
IMUL.U32.U32
I2I.S32.S32
I2I.S32.S32
IMUL
IMAD.U32.U32.HI
IMAD.U32.U32.HI
I2I.S32.S32
LOP.XOR
ISETP.NE.AND
IMUL.U32.U32.HI
ISETP.GE.AND
I2I.S32.S32
IMAD.U32.U32
ISETP.LE.U32.AND
ISUB
IADD
ISETP.GE.U32.AND
IADD
I2I.S32.S32
ISETP.GE.AND
SEL
IMAD
IMAD.HI.X
IMAD
LD.E
IMAD.HI.X
IADD
LD.E
IMUL.U32.U32.HI
IMAD.U32.U32
ISETP.LE.U32.AND
ISUB
ISETP.LE.U32.AND
ISUB
ISETP.LT.AND
I2I.S32.S32
SEL
F2I.S32.F32.TRUNC
IMAD
IMAD
IMAD.HI.X
RED.E.ADD.F32.FTZ.RN
BRA
MOV
S2R
S2R
IMAD
ISETP.GE.AND
I2I.S32.S32
I2I.S32.S32
LOP.PASS_B
I2F.F32.U32.RP
I2F.F32.U32.RP
MOV32I
MUFU.RCP
MUFU.RCP
IADD32I
MOV
IADD32I
F2I.FTZ.U32.F32.TRUNC
IMUL
F2I.FTZ.U32.F32.TRUNC
IMUL.U32.U32
I2I.S32.S32
IMAD.U32.U32.HI
I2I.S32.S32
LOP.XOR
ISETP.NE.AND
IMUL.U32.U32.HI
ISETP.GE.AND
IMUL.U32.U32
IMAD.U32.U32
SSY
I2I.S32.S32
ISETP.LE.U32.AND
I2I.S32.S32
IMAD.U32.U32.HI
ISUB
IADD
ISETP.GE.U32.AND
IADD
I2I.S32.S32
ISETP.GE.AND
SEL
IMAD
IMAD.HI.X
LD.E.64
IMUL.U32.U32.HI
MOV32I
IMAD.U32.U32
LOP.PASS_B
IMAD
ISETP.LE.U32.AND
IMAD.HI.X
ISUB
ISETP.LE.U32.AND
ISUB
I2I.S32.S32
SEL
F2I.S32.F64.TRUNC
IMAD
IMAD
IMAD.HI.X
LD.E.64
LD.E.64
DADD
MOV
ATOM.E.CAS.U64
MOV
MOV
MOV
ISUB
ISETP.NE.X.AND
BRA
IADD.S
ISETP.LT.AND
BRA
MOV
S2R
S2R
IMAD
ISETP.GE.AND
I2I.S32.S32
I2I.S32.S32
LOP.PASS_B
I2F.F32.U32.RP
I2F.F32.U32.RP
MOV32I
MUFU.RCP
MOV
MUFU.RCP
IADD32I
LOP.PASS_B
IADD32I
F2I.FTZ.U32.F32.TRUNC
MOV32I
F2I.FTZ.U32.F32.TRUNC
IMUL.U32.U32
IMUL.U32.U32
I2I.S32.S32
I2I.S32.S32
IMUL
IMAD.U32.U32.HI
IMAD.U32.U32.HI
I2I.S32.S32
LOP.XOR
ISETP.NE.AND
IMUL.U32.U32.HI
ISETP.GE.AND
I2I.S32.S32
IMAD.U32.U32
IMUL.U32.U32.HI
ISETP.LE.U32.AND
IMAD.U32.U32
ISUB
IADD
ISETP.GE.U32.AND
IADD
ISETP.LE.U32.AND
I2I.S32.S32
ISUB
ISETP.GE.AND
SEL
ISETP.LE.U32.AND
IMAD
ISUB
IMAD.HI.X
I2I.S32.S32
LD.E
SEL
F2I.S32.F32.TRUNC
IMAD
IMAD
IMAD.HI.X
IMAD
LD.E
IMAD.HI.X
IADD
ISETP.LT.AND
ST.E
BRA
MOV
S2R
S2R
IMAD
ISETP.GE.AND
I2I.S32.S32
I2I.S32.S32
LOP.PASS_B
I2F.F32.U32.RP
I2F.F32.U32.RP
MOV32I
MUFU.RCP
MOV
MUFU.RCP
IADD32I
LOP.PASS_B
IADD32I
F2I.FTZ.U32.F32.TRUNC
MOV32I
F2I.FTZ.U32.F32.TRUNC
IMUL.U32.U32
IMUL
IMUL.U32.U32
I2I.S32.S32
I2I.S32.S32
IMAD.U32.U32.HI
IMAD.U32.U32.HI
I2I.S32.S32
LOP.XOR
ISETP.NE.AND
IMUL.U32.U32.HI
ISETP.GE.AND
I2I.S32.S32
IMAD.U32.U32
IMUL.U32.U32.HI
ISETP.LE.U32.AND
IMAD.U32.U32
ISUB
IADD
ISETP.GE.U32.AND
IADD
ISETP.LE.U32.AND
I2I.S32.S32
ISUB
ISETP.GE.AND
SEL
ISETP.LE.U32.AND
IMAD
ISUB
IMAD.HI.X
I2I.S32.S32
LD.E.64
SEL
F2I.S32.F64.TRUNC
IMAD
IMAD
IMAD.HI.X
IMAD
LD.E.64
IMAD.HI.X
IADD
ISETP.LT.AND
ST.E.64
BRA
MOV
S2R
S2R
IMAD
ISETP.GE.AND
I2I.S32.S32
LOP.PASS_B
I2I.S32.S32
MOV32I
I2F.F32.U32.RP
LOP.PASS_B
I2F.F32.U32.RP
MOV32I
MUFU.RCP
MUFU.RCP
IADD32I
IADD32I
F2I.FTZ.U32.F32.TRUNC
MOV
F2I.FTZ.U32.F32.TRUNC
IMUL.U32.U32
IMUL.U32.U32
I2I.S32.S32
I2I.S32.S32
IMUL
IMAD.U32.U32.HI
IMAD.U32.U32.HI
I2I.S32.S32
LOP.XOR
IMUL.U32.U32.HI
ISETP.GE.AND
IMAD.U32.U32
ISETP.NE.AND
ISETP.LE.U32.AND
ISUB
IADD
ISETP.GE.U32.AND
I2I.S32.S32
IADD
IMUL.U32.U32.HI
I2I.S32.S32
ISETP.GE.AND
IMAD.U32.U32
SEL
ISETP.LE.U32.AND
IMAD
ISUB
IMAD.HI.X
ISETP.LE.U32.AND
LD.E
ISUB
IMAD
I2I.S32.S32
IMAD.HI.X
SEL
F2I.S32.F32.TRUNC
IADD
IMAD
LD.E
IMAD
ISETP.LT.AND
IMAD.HI.X
RED.E.ADD.F32.FTZ.RN
BRA
BRA
MOV
S2R
S2R
IMAD
ISETP.GE.AND
I2I.S32.S32
LOP.PASS_B
I2I.S32.S32
MOV32I
I2F.F32.U32.RP
LOP.PASS_B
I2F.F32.U32.RP
MOV32I
MUFU.RCP
MUFU.RCP
IADD32I
IADD32I
F2I.FTZ.U32.F32.TRUNC
MOV
F2I.FTZ.U32.F32.TRUNC
IMUL.U32.U32
IMUL.U32.U32
I2I.S32.S32
I2I.S32.S32
IMUL
IMAD.U32.U32.HI
IMAD.U32.U32.HI
I2I.S32.S32
LOP.XOR
IMUL.U32.U32.HI
ISETP.GE.AND
IMAD.U32.U32
ISETP.NE.AND
ISETP.LE.U32.AND
SSY
ISUB
IADD
ISETP.GE.U32.AND
IADD
I2I.S32.S32
I2I.S32.S32
ISETP.GE.AND
IMUL.U32.U32.HI
SEL
IMAD.U32.U32
IMAD
ISETP.LE.U32.AND
IMAD.HI.X
ISUB
LD.E.64
ISETP.LE.U32.AND
ISUB
F2I.S32.F64.TRUNC
I2I.S32.S32
IMAD
SEL
IMAD.HI.X
IMAD
IMAD
IMAD.HI.X
LD.E.64
LD.E.64
DADD
ATOM.E.CAS.U64
MOV
MOV
MOV
MOV
ISUB
ISETP.NE.X.AND
CCTL.E.IV
BRA
IADD.S
ISETP.LT.AND
BRA
BRA
MOV
S2R
S2R
IMAD
ISETP.GE.AND
I2I.S32.S32
LOP.PASS_B
I2I.S32.S32
MOV32I
I2F.F32.U32.RP
LOP.PASS_B
I2F.F32.U32.RP
MOV32I
MUFU.RCP
MUFU.RCP
IADD32I
IADD32I
F2I.FTZ.U32.F32.TRUNC
MOV
F2I.FTZ.U32.F32.TRUNC
IMUL.U32.U32
IMUL.U32.U32
I2I.S32.S32
I2I.S32.S32
IMUL
IMAD.U32.U32.HI
IMAD.U32.U32.HI
I2I.S32.S32
LOP.XOR
IMUL.U32.U32.HI
ISETP.GE.AND
IMAD.U32.U32
ISETP.NE.AND
ISETP.LE.U32.AND
ISUB
IADD
ISETP.GE.U32.AND
I2I.S32.S32
IADD
IMUL.U32.U32.HI
I2I.S32.S32
ISETP.GE.AND
IMAD.U32.U32
SEL
ISETP.LE.U32.AND
IMAD
ISUB
IMAD.HI.X
ISETP.LE.U32.AND
LD.E
ISUB
F2I.S32.F32.TRUNC
I2I.S32.S32
SEL
IMAD
IMAD
IMAD.HI.X
IMAD
LD.E
IMAD.HI.X
IADD
ISETP.LT.AND
ST.E
BRA
BRA
MOV
S2R
S2R
IMAD
ISETP.GE.AND
I2I.S32.S32
LOP.PASS_B
I2I.S32.S32
I2F.F32.U32.RP
I2F.F32.U32.RP
MUFU.RCP
MUFU.RCP
IADD32I
IADD32I
F2I.FTZ.U32.F32.TRUNC
F2I.FTZ.U32.F32.TRUNC
MOV
IMUL.U32.U32
IMUL.U32.U32
I2I.S32.S32
I2I.S32.S32
MOV32I
IMUL
IMAD.U32.U32.HI
LOP.PASS_B
MOV32I
IMAD.U32.U32.HI
I2I.S32.S32
LOP.XOR
IMUL.U32.U32.HI
ISETP.GE.AND
IMAD.U32.U32
ISETP.NE.AND
ISETP.LE.U32.AND
ISUB
IADD
ISETP.GE.U32.AND
IADD
I2I.S32.S32
I2I.S32.S32
ISETP.GE.AND
IMUL.U32.U32.HI
SEL
IMAD.U32.U32
IMAD
ISETP.LE.U32.AND
IMAD.HI.X
ISUB
LD.E.64
ISETP.LE.U32.AND
ISUB
F2I.S32.F64.TRUNC
I2I.S32.S32
SEL
IMAD
IMAD
IMAD.HI.X
IMAD
LD.E.64
IMAD.HI.X
IADD
ISETP.LT.AND
ST.E.64
BRA
BRA
MOV
S2R
S2R
IMAD
ISETP.GE.AND
I2I.S32.S32
LOP.PASS_B
I2I.S32.S32
MOV32I
I2F.F32.U32.RP
LOP.PASS_B
I2F.F32.U32.RP
MOV32I
MUFU.RCP
MUFU.RCP
IADD32I
IADD32I
F2I.FTZ.U32.F32.TRUNC
MOV
F2I.FTZ.U32.F32.TRUNC
IMUL.U32.U32
IMUL.U32.U32
I2I.S32.S32
I2I.S32.S32
IMUL
IMAD.U32.U32.HI
IMAD.U32.U32.HI
I2I.S32.S32
LOP.XOR
IMUL.U32.U32.HI
ISETP.GE.AND
IMAD.U32.U32
ISETP.NE.AND
ISETP.LE.U32.AND
ISUB
IADD
ISETP.GE.U32.AND
I2I.S32.S32
IADD
IMUL.U32.U32.HI
I2I.S32.S32
ISETP.GE.AND
IMAD.U32.U32
SEL
ISETP.LE.U32.AND
IMAD
ISUB
IMAD.HI.X
ISETP.LE.U32.AND
LD.E
ISUB
IMAD
I2I.S32.S32
IMAD.HI.X
SEL
F2I.S32.F32.TRUNC
IADD
IMAD
LD.E
IMAD
ISETP.LT.AND
IMAD.HI.X
RED.E.ADD.F32.FTZ.RN
BRA
MOV
BRA
MOV
S2R
S2R
IMAD
ISETP.GE.AND
I2I.S32.S32
LOP.PASS_B
I2I.S32.S32
MOV32I
I2F.F32.U32.RP
LOP.PASS_B
I2F.F32.U32.RP
MOV32I
MUFU.RCP
MUFU.RCP
IADD32I
IADD32I
F2I.FTZ.U32.F32.TRUNC
MOV
F2I.FTZ.U32.F32.TRUNC
IMUL.U32.U32
IMUL.U32.U32
I2I.S32.S32
I2I.S32.S32
IMUL
IMAD.U32.U32.HI
IMAD.U32.U32.HI
I2I.S32.S32
LOP.XOR
IMUL.U32.U32.HI
ISETP.GE.AND
IMAD.U32.U32
SSY
ISETP.LE.U32.AND
ISUB
IADD
ISETP.GE.U32.AND
I2I.S32.S32
IADD
I2I.S32.S32
ISETP.NE.AND
IMUL.U32.U32.HI
SEL
IMAD.U32.U32
ISETP.LE.U32.AND
IMAD
ISUB
IMAD.HI.X
ISETP.LE.U32.AND
LD.E.64
ISETP.GE.AND
ISUB
I2I.S32.S32
F2I.S32.F64.TRUNC
SEL
IMAD
IMAD
IMAD.HI.X
IMAD
IMAD.HI.X
LD.E.64
LD.E.64
DADD
ATOM.E.CAS.64
MOV
MOV
MOV
MOV
ISUB
ISETP.NE.X.AND
CCTL.E.IV
BRA
IADD.S
ISETP.LT.AND
BRA
MOV
BRA
MOV
S2R
S2R
IMAD
ISETP.GE.AND
I2I.S32.S32
LOP.PASS_B
I2I.S32.S32
MOV32I
I2F.F32.U32.RP
LOP.PASS_B
I2F.F32.U32.RP
MOV32I
MUFU.RCP
MUFU.RCP
IADD32I
IADD32I
F2I.FTZ.U32.F32.TRUNC
MOV
F2I.FTZ.U32.F32.TRUNC
IMUL.U32.U32
IMUL.U32.U32
I2I.S32.S32
I2I.S32.S32
IMUL
IMAD.U32.U32.HI
IMAD.U32.U32.HI
I2I.S32.S32
LOP.XOR
IMUL.U32.U32.HI
ISETP.GE.AND
IMAD.U32.U32
ISETP.NE.AND
ISETP.LE.U32.AND
ISUB
IADD
ISETP.GE.U32.AND
I2I.S32.S32
IADD
IMUL.U32.U32.HI
I2I.S32.S32
ISETP.GE.AND
IMAD.U32.U32
SEL
ISETP.LE.U32.AND
IMAD
ISUB
IMAD.HI.X
ISETP.LE.U32.AND
LD.E
ISUB
F2I.S32.F32.TRUNC
I2I.S32.S32
SEL
IMAD
IMAD
IMAD.HI.X
IMAD
LD.E
IMAD.HI.X
IADD
ISETP.LT.AND
ST.E
BRA
MOV
BRA
MOV
S2R
S2R
IMAD
ISETP.GE.AND
I2I.S32.S32
LOP.PASS_B
I2I.S32.S32
I2F.F32.U32.RP
I2F.F32.U32.RP
MUFU.RCP
MUFU.RCP
IADD32I
IADD32I
F2I.FTZ.U32.F32.TRUNC
F2I.FTZ.U32.F32.TRUNC
MOV
IMUL.U32.U32
IMUL.U32.U32
I2I.S32.S32
I2I.S32.S32
MOV32I
IMUL
IMAD.U32.U32.HI
LOP.PASS_B
MOV32I
IMAD.U32.U32.HI
I2I.S32.S32
LOP.XOR
IMUL.U32.U32.HI
ISETP.GE.AND
IMAD.U32.U32
ISETP.NE.AND
ISETP.LE.U32.AND
ISUB
IADD
ISETP.GE.U32.AND
I2I.S32.S32
IADD
IMUL.U32.U32.HI
I2I.S32.S32
ISETP.GE.AND
IMAD.U32.U32
SEL
ISETP.LE.U32.AND
IMAD
ISUB
IMAD.HI.X
ISETP.LE.U32.AND
LD.E.64
ISUB
I2I.S32.S32
F2I.S32.F64.TRUNC
SEL
IMAD
IMAD
IMAD.HI.X
IMAD
LD.E.64
IMAD.HI.X
IADD
ISETP.LT.AND
ST.E.64
BRA
MOV
BRA
MOV
S2R
S2R
XMAD.MRG
XMAD
XMAD.PSL.CBCC
ISETP.GE.AND
I2I.S32.S32
I2F.F32.U32.RP
MUFU.RCP
IADD32I
F2I.FTZ.U32.F32.TRUNC
XMAD
XMAD.MRG
XMAD.PSL.CBCC
IADD
XMAD
XMAD
XMAD
XMAD.CHI
IADD3.RS
ISETP.NE.AND
I2I.S32.S32
I2I.S32.S32
XMAD
I2I.S32.S32
XMAD
XMAD
XMAD.CHI
IADD3.RS
IADD
XMAD
XMAD.MRG
XMAD.PSL.CBCC
I2I.S32.S32
ISETP.LE.U32.AND
IADD
ISETP.GE.U32.AND
LOP.XOR
IADD32I
ISETP.GE.AND
IADD32I
PSETP.AND.AND
LOP.PASS_B
IADD
SEL
SHL
SHR
IADD
IADD.X
LDG.E
SHL
SHR
IADD
IADD.X
I2F.F32.U32.RP
ISETP.GE.AND
LDG.E
MUFU.RCP
IADD32I
F2I.FTZ.U32.F32.TRUNC
XMAD
XMAD.MRG
XMAD.PSL.CBCC
IADD
XMAD
XMAD
XMAD
XMAD.CHI
IADD3.RS
XMAD
XMAD
XMAD
XMAD.CHI
IADD3.RS
IADD
XMAD
XMAD.MRG
XMAD.PSL.CBCC
ISETP.LE.U32.AND
IADD
ISETP.LE.U32.AND
IADD
MOV
IADD
SEL
MOV
XMAD
F2I.S32.F32.TRUNC
XMAD.MRG
XMAD
XMAD.PSL.CBCC
XMAD.MRG
SHL
XMAD.PSL.CBCC
SHR
IADD
IADD.X
RED.E.ADD.F32.FTZ.RN
ISETP.LT.AND
BRA
BRA
MOV
S2R
S2R
XMAD.MRG
XMAD
XMAD.PSL.CBCC
ISETP.GE.AND
I2I.S32.S32
I2F.F32.U32.RP
MUFU.RCP
IADD32I
I2I.S32.S32
ISETP.NE.AND
SSY
F2I.FTZ.U32.F32.TRUNC
XMAD
XMAD.MRG
XMAD.PSL.CBCC
IADD
XMAD
XMAD
XMAD
XMAD.CHI
IADD3.RS
XMAD
XMAD
XMAD
XMAD.CHI
IADD3.RS
IADD
XMAD
XMAD.MRG
XMAD.PSL.CBCC
I2I.S32.S32
ISETP.LE.U32.AND
IADD
ISETP.GE.U32.AND
LOP.XOR
IADD32I
ISETP.GE.AND
IADD32I
PSETP.AND.AND
LOP.PASS_B
IADD
SEL
SHL
SHR
IADD
IADD.X
I2I.S32.S32
ISETP.GE.AND
LDG.E.64
XMAD
XMAD
XMAD.CHI
XMAD
IADD3.RS
IADD
XMAD
XMAD.MRG
XMAD.PSL.CBCC
ISETP.LE.U32.AND
IADD
ISETP.LE.U32.AND
IADD
IADD
SEL
SHL
F2I.S32.F64.TRUNC
XMAD
XMAD.MRG
XMAD.PSL.CBCC
SHR
IADD
SHL
SHR
IADD.X
IADD
LDG.E.64
IADD.X
LDG.E.64
DADD
ATOM.E.CAS.64
IADD
ISETP.NE.X.AND
MOV
MOV
BRA
SYNC;
MOV
XMAD
XMAD.MRG
XMAD.PSL.CBCC
ISETP.LT.AND
BRA
BRA
MOV
S2R
S2R
XMAD.MRG
XMAD
XMAD.PSL.CBCC
ISETP.GE.AND
I2I.S32.S32
I2F.F32.U32.RP
MUFU.RCP
IADD32I
F2I.FTZ.U32.F32.TRUNC
XMAD
XMAD.MRG
XMAD.PSL.CBCC
IADD
XMAD
XMAD
XMAD
XMAD.CHI
IADD3.RS
ISETP.NE.AND
I2I.S32.S32
XMAD
I2I.S32.S32
XMAD
XMAD
XMAD.CHI
I2I.S32.S32
IADD3.RS
IADD
XMAD
XMAD.MRG
XMAD.PSL.CBCC
I2I.S32.S32
ISETP.LE.U32.AND
IADD
ISETP.GE.U32.AND
LOP.XOR
IADD32I
ISETP.GE.AND
IADD32I
PSETP.AND.AND
LOP.PASS_B
IADD
SEL
SHL
SHR
IADD
IADD.X
I2F.F32.U32.RP
ISETP.GE.AND
LDG.E
MUFU.RCP
IADD32I
F2I.FTZ.U32.F32.TRUNC
XMAD
XMAD.MRG
XMAD.PSL.CBCC
IADD
XMAD
XMAD
XMAD
XMAD.CHI
IADD3.RS
XMAD
XMAD
XMAD
XMAD.CHI
IADD3.RS
IADD
XMAD
XMAD.MRG
XMAD.PSL.CBCC
ISETP.LE.U32.AND
IADD
ISETP.LE.U32.AND
IADD
MOV
IADD
SEL
F2I.S32.F32.TRUNC
XMAD.MRG
XMAD
XMAD.PSL.CBCC
SHL
SHR
IADD
IADD.X
LDG.E
MOV
XMAD
XMAD.MRG
SHL
XMAD.PSL.CBCC
SHR
ISETP.LT.AND
IADD
IADD.X
MOV
STG.E
BRA
BRA
MOV
S2R
S2R
XMAD.MRG
XMAD
XMAD.PSL.CBCC
ISETP.GE.AND
I2I.S32.S32
I2F.F32.U32.RP
MUFU.RCP
IADD32I
F2I.FTZ.U32.F32.TRUNC
XMAD
XMAD.MRG
XMAD.PSL.CBCC
IADD
XMAD
XMAD
XMAD
XMAD.CHI
IADD3.RS
ISETP.NE.AND
I2I.S32.S32
XMAD
I2I.S32.S32
XMAD
XMAD
XMAD.CHI
I2I.S32.S32
IADD3.RS
IADD
XMAD
XMAD.MRG
XMAD.PSL.CBCC
I2I.S32.S32
ISETP.LE.U32.AND
IADD
ISETP.GE.U32.AND
LOP.XOR
IADD32I
ISETP.GE.AND
IADD32I
PSETP.AND.AND
LOP.PASS_B
IADD
SEL
SHL
SHR
IADD
IADD.X
I2F.F32.U32.RP
ISETP.GE.AND
LDG.E.64
MUFU.RCP
IADD32I
F2I.FTZ.U32.F32.TRUNC
XMAD
XMAD.MRG
XMAD.PSL.CBCC
IADD
XMAD
XMAD
XMAD
XMAD.CHI
IADD3.RS
XMAD
XMAD
XMAD
XMAD.CHI
IADD3.RS
IADD
XMAD
XMAD.MRG
XMAD.PSL.CBCC
ISETP.LE.U32.AND
IADD
ISETP.LE.U32.AND
IADD
MOV
IADD
SEL
F2I.S32.F64.TRUNC
XMAD.MRG
XMAD
XMAD.PSL.CBCC
SHL
SHR
IADD
IADD.X
LDG.E.64
MOV
XMAD
XMAD.MRG
SHL
XMAD.PSL.CBCC
SHR
ISETP.LT.AND
IADD
IADD.X
MOV
STG.E.64
BRA
BRA
MOV
S2R
S2R
XMAD.MRG
XMAD
XMAD.PSL.CBCC
ISETP.GE.AND
I2I.S32.S32
I2F.F32.U32.RP
MUFU.RCP
IADD32I
F2I.FTZ.U32.F32.TRUNC
XMAD
XMAD.MRG
XMAD.PSL.CBCC
IADD
XMAD
XMAD
XMAD
XMAD.CHI
IADD3.RS
ISETP.NE.AND
I2I.S32.S32
I2I.S32.S32
XMAD
I2I.S32.S32
XMAD
XMAD
XMAD.CHI
IADD3.RS
IADD
XMAD
XMAD.MRG
XMAD.PSL.CBCC
I2I.S32.S32
ISETP.LE.U32.AND
IADD
ISETP.GE.U32.AND
LOP.XOR
IADD32I
ISETP.GE.AND
IADD32I
PSETP.AND.AND
LOP.PASS_B
IADD
SEL
SHL
SHR
IADD
IADD.X
LDG.E
SHL
SHR
IADD
IADD.X
I2F.F32.U32.RP
ISETP.GE.AND
LDG.E
MUFU.RCP
IADD32I
F2I.FTZ.U32.F32.TRUNC
XMAD
XMAD.MRG
XMAD.PSL.CBCC
IADD
XMAD
XMAD
XMAD
XMAD.CHI
IADD3.RS
XMAD
XMAD
XMAD
XMAD.CHI
IADD3.RS
IADD
XMAD
XMAD.MRG
XMAD.PSL.CBCC
ISETP.LE.U32.AND
IADD
ISETP.LE.U32.AND
IADD
MOV
IADD
SEL
MOV
XMAD
F2I.S32.F32.TRUNC
XMAD.MRG
XMAD
XMAD.PSL.CBCC
XMAD.MRG
SHL
XMAD.PSL.CBCC
SHR
IADD
IADD.X
RED.E.ADD.F32.FTZ.RN
ISETP.LT.AND
BRA
BRA
MOV
S2R
S2R
XMAD.MRG
XMAD
XMAD.PSL.CBCC
ISETP.GE.AND
I2I.S32.S32
I2F.F32.U32.RP
MUFU.RCP
IADD32I
I2I.S32.S32
ISETP.NE.AND
SSY
F2I.FTZ.U32.F32.TRUNC
XMAD
XMAD.MRG
XMAD.PSL.CBCC
IADD
XMAD
XMAD
XMAD
XMAD.CHI
IADD3.RS
XMAD
XMAD
XMAD
XMAD.CHI
IADD3.RS
IADD
XMAD
XMAD.MRG
XMAD.PSL.CBCC
I2I.S32.S32
ISETP.LE.U32.AND
IADD
ISETP.GE.U32.AND
LOP.XOR
IADD32I
ISETP.GE.AND
IADD32I
PSETP.AND.AND
LOP.PASS_B
IADD
SEL
SHL
SHR
IADD
IADD.X
I2I.S32.S32
ISETP.GE.AND
LDG.E.64
XMAD
XMAD
XMAD.CHI
XMAD
IADD3.RS
IADD
XMAD
XMAD.MRG
XMAD.PSL.CBCC
ISETP.LE.U32.AND
IADD
ISETP.LE.U32.AND
IADD
IADD
SEL
SHL
F2I.S32.F64.TRUNC
XMAD
XMAD.MRG
XMAD.PSL.CBCC
SHR
IADD
SHL
SHR
IADD.X
IADD
LDG.E.64
IADD.X
LDG.E.64
DADD
ATOM.E.CAS.64
IADD
ISETP.NE.X.AND
MOV
MOV
BRA
SYNC;
MOV
XMAD
XMAD.MRG
XMAD.PSL.CBCC
ISETP.LT.AND
BRA
BRA
MOV
S2R
S2R
XMAD.MRG
XMAD
XMAD.PSL.CBCC
ISETP.GE.AND
I2I.S32.S32
I2F.F32.U32.RP
MUFU.RCP
IADD32I
F2I.FTZ.U32.F32.TRUNC
XMAD
XMAD.MRG
XMAD.PSL.CBCC
IADD
XMAD
XMAD
XMAD
XMAD.CHI
IADD3.RS
ISETP.NE.AND
I2I.S32.S32
XMAD
I2I.S32.S32
XMAD
XMAD
XMAD.CHI
I2I.S32.S32
IADD3.RS
IADD
XMAD
XMAD.MRG
XMAD.PSL.CBCC
I2I.S32.S32
ISETP.LE.U32.AND
IADD
ISETP.GE.U32.AND
LOP.XOR
IADD32I
ISETP.GE.AND
IADD32I
PSETP.AND.AND
LOP.PASS_B
IADD
SEL
SHL
SHR
IADD
IADD.X
I2F.F32.U32.RP
ISETP.GE.AND
LDG.E
MUFU.RCP
IADD32I
F2I.FTZ.U32.F32.TRUNC
XMAD
XMAD.MRG
XMAD.PSL.CBCC
IADD
XMAD
XMAD
XMAD
XMAD.CHI
IADD3.RS
XMAD
XMAD
XMAD
XMAD.CHI
IADD3.RS
IADD
XMAD
XMAD.MRG
XMAD.PSL.CBCC
ISETP.LE.U32.AND
IADD
ISETP.LE.U32.AND
IADD
MOV
IADD
SEL
F2I.S32.F32.TRUNC
XMAD.MRG
XMAD
XMAD.PSL.CBCC
SHL
SHR
IADD
IADD.X
LDG.E
MOV
XMAD
XMAD.MRG
SHL
XMAD.PSL.CBCC
SHR
ISETP.LT.AND
IADD
IADD.X
MOV
STG.E
BRA
BRA
MOV
S2R
S2R
XMAD.MRG
XMAD
XMAD.PSL.CBCC
ISETP.GE.AND
I2I.S32.S32
I2F.F32.U32.RP
MUFU.RCP
IADD32I
F2I.FTZ.U32.F32.TRUNC
XMAD
XMAD.MRG
XMAD.PSL.CBCC
IADD
XMAD
XMAD
XMAD
XMAD.CHI
IADD3.RS
ISETP.NE.AND
I2I.S32.S32
XMAD
I2I.S32.S32
XMAD
XMAD
XMAD.CHI
I2I.S32.S32
IADD3.RS
IADD
XMAD
XMAD.MRG
XMAD.PSL.CBCC
I2I.S32.S32
ISETP.LE.U32.AND
IADD
ISETP.GE.U32.AND
LOP.XOR
IADD32I
ISETP.GE.AND
IADD32I
PSETP.AND.AND
LOP.PASS_B
IADD
SEL
SHL
SHR
IADD
IADD.X
I2F.F32.U32.RP
ISETP.GE.AND
LDG.E.64
MUFU.RCP
IADD32I
F2I.FTZ.U32.F32.TRUNC
XMAD
XMAD.MRG
XMAD.PSL.CBCC
IADD
XMAD
XMAD
XMAD
XMAD.CHI
IADD3.RS
XMAD
XMAD
XMAD
XMAD.CHI
IADD3.RS
IADD
XMAD
XMAD.MRG
XMAD.PSL.CBCC
ISETP.LE.U32.AND
IADD
ISETP.LE.U32.AND
IADD
MOV
IADD
SEL
F2I.S32.F64.TRUNC
XMAD.MRG
XMAD
XMAD.PSL.CBCC
SHL
SHR
IADD
IADD.X
LDG.E.64
MOV
XMAD
XMAD.MRG
SHL
XMAD.PSL.CBCC
SHR
ISETP.LT.AND
IADD
IADD.X
MOV
STG.E.64
BRA
BRA
