MOV
S2R
S2R
IMAD
ISETP.GE.AND
MOV
IMUL
SHL.W
SHR
IADD
SSY
IADD.X
LD.E.64
DSETP.GT.AND
I2I.S32.S32
I2F.F32.U32.RP
MUFU.RCP
IADD32I
F2I.FTZ.U32.F32.TRUNC
IMUL.U32.U32
I2I.S32.S32
I2I.S32.S32
IMAD.U32.U32.HI
IMUL.U32.U32.HI
IMAD.U32.U32
I2I.S32.S32
ISETP.LE.U32.AND
I2F.F32.U32.RP
ISUB
IADD
MUFU.RCP
ISETP.GE.U32.AND
LOP.XOR
IADD32I
IADD
ISETP.GE.AND
F2I.FTZ.U32.F32.TRUNC
ISETP.NE.AND
LOP.PASS_B
I2I.S32.S32
IMUL.U32.U32
SEL
I2I.S32.S32
ISETP.GE.AND
I2I.S32.S32
IMAD.U32.U32.HI
IMUL.U32.U32.HI
IMAD.U32.U32
I2I.S32.S32
ISETP.LE.U32.AND
I2F.F32.U32.RP
ISUB
MUFU.RCP
ISETP.LE.U32.AND
IADD32I
ISUB
ISETP.NE.AND
F2I.FTZ.U32.F32.TRUNC
I2I.S32.S32
LOP.PASS_B
IMUL.U32.U32
SEL
I2I.S32.S32
I2I.S32.S32
IMAD.U32.U32.HI
IMUL.U32.U32.HI
LOP.XOR
IMAD.U32.U32
ISETP.GE.AND
ISETP.LE.U32.AND
ISUB
IADD
ISETP.GE.U32.AND
IADD
LOP.PASS_B
ISETP.NE.AND
I2I.S32.S32
MOV32I
SEL
IMAD
IMAD.HI.X
LD.E.64
DMUL.S
IADD
IADD
IADD.X
ISETP.LT.AND
ST.E.64
BRA
MOV
S2R
S2R
IMAD
ISETP.GE.AND
I2I.S32.S32
I2I.S32.S32
I2F.F32.U32.RP
I2F.F32.U32.RP
MUFU.RCP
MUFU.RCP
IADD32I
IADD32I
F2I.FTZ.U32.F32.TRUNC
F2I.FTZ.U32.F32.TRUNC
IMUL.U32.U32
IMUL.U32.U32
MOV
I2I.S32.S32
I2I.S32.S32
LOP.PASS_B
LOP.PASS_B
IMAD.U32.U32.HI
I2I.S32.S32
IMAD.U32.U32.HI
IMUL
I2I.S32.S32
LOP.XOR
IMUL.U32.U32.HI
ISETP.GE.AND
IMAD.U32.U32
MOV32I
ISETP.LE.U32.AND
ISUB
IADD
ISETP.GE.U32.AND
IADD
ISETP.NE.AND
I2I.S32.S32
SEL
I2I.S32.S32
ISETP.GE.AND
IMUL.U32.U32.HI
IMAD.U32.U32
I2F.F32.U32.RP
ISETP.LE.U32.AND
MUFU.RCP
ISUB
ISETP.LE.U32.AND
IADD32I
ISUB
F2I.FTZ.U32.F32.TRUNC
ISETP.NE.AND
I2I.S32.S32
IMUL.U32.U32
SEL
I2I.S32.S32
I2I.S32.S32
IMAD.U32.U32.HI
IMUL.U32.U32.HI
IMAD.U32.U32
LOP.XOR
ISETP.LE.U32.AND
ISETP.GE.AND
ISUB
IADD
ISETP.GE.U32.AND
LOP.PASS_B
IMAD
IADD
ISETP.NE.AND
I2I.S32.S32
IMAD.HI.X
SEL
IMAD
LD.E.64
IMAD.HI.X
LD.E.64
IMAD
IMAD.HI.X
LD.E.64
DSETP.GT.AND
DSETP.LE.AND
SEL
SEL
SEL
I2F.F64.S32
DADD
DMUL
IMAD
IMAD.HI.X
IADD
ST.E.64
ISETP.LT.AND
BRA
MOV
S2R
S2R
IMAD
ISETP.GE.AND
MOV
MOV
ISETP.GT.AND
IMUL
BRA
MOV32I
MOV
IMAD
IADD
IMAD.HI.X
IMAD
LD.E
IMAD.HI.X
ISETP.GT.AND
MOV32I
LD.E
FMUL
IMAD
FCMP.LE
IMAD.HI.X
ST.E
BRA
MOV32I
IMAD
IMAD
IMAD.HI.X
IMAD
LD.E
IMAD.HI.X
LD.E
IADD
IMAD
IADD
FMUL
ISETP.LT.AND
FCMP.LE
IMAD
FADD
IMAD.HI.X
IMAD
ST.E
IMAD.HI.X
LD.E
LD.E
FMUL
FCMP.LE
FADD
ST.E
BRA
ISETP.LT.AND
BRA
MOV32I
IMAD
IMAD
IADD
IMAD.HI.X
IMAD
LD.E
IMAD.HI.X
ISETP.LT.AND
LD.E
FMUL
FCMP.LE
FADD
ST.E
BRA
IADD
ISETP.LT.AND
BRA
BRA
MOV32I
IMAD
IMAD.HI.X
IMAD
LD.E
IMAD.HI.X
LD.E
IMAD
IMAD.HI.X
IADD
ISETP.LT.AND
FMUL
FCMP.LE
ST.E
BRA
MOV
S2R
S2R
IMAD
ISETP.GE.AND
I2I.S32.S32
I2I.S32.S32
I2I.S32.S32
I2F.F32.U32.RP
I2F.F32.U32.RP
I2F.F32.U32.RP
MUFU.RCP
MUFU.RCP
MUFU.RCP
IADD32I
IADD32I
IADD32I
F2I.FTZ.U32.F32.TRUNC
F2I.FTZ.U32.F32.TRUNC
F2I.FTZ.U32.F32.TRUNC
IMUL.U32.U32
IMUL.U32.U32
IMUL.U32.U32
I2I.S32.S32
MOV
I2I.S32.S32
I2I.S32.S32
LOP.PASS_B
LOP.PASS_B
LOP.PASS_B
IMAD.U32.U32.HI
IMUL
IMAD.U32.U32.HI
IMAD.U32.U32.HI
I2I.S32.S32
LOP.XOR
IMUL.U32.U32.HI
ISETP.GE.AND
IMAD.U32.U32
MOV32I
ISETP.LE.U32.AND
ISUB
IADD
ISETP.GE.U32.AND
IADD
ISETP.NE.AND
I2I.S32.S32
SEL
I2I.S32.S32
ISETP.GE.AND
IMUL.U32.U32.HI
IMAD.U32.U32
ISETP.LE.U32.AND
ISUB
ISETP.LE.U32.AND
ISUB
ISETP.NE.AND
I2I.S32.S32
SEL
I2I.S32.S32
IMUL.U32.U32.HI
LOP.XOR
IMAD.U32.U32
ISETP.GE.AND
ISETP.LE.U32.AND
ISUB
IADD
ISETP.GE.U32.AND
IADD
IMAD
ISETP.NE.AND
I2I.S32.S32
SEL
IMAD.HI.X
IMAD
LD.E
IMAD.HI.X
LD.E
IMAD
IMAD.HI.X
LD.E
FCMP.LEU
FCMP.LE
I2F.F32.S32
IMAD
FADD
IMAD.HI.X
FMUL
IADD
ST.E
ISETP.LT.AND
BRA
MOV
S2R
S2R
IMAD
ISETP.GE.AND
MOV
MOV
ISETP.GT.AND
IMUL
BRA
MOV32I
MOV
IMAD
IADD
IMAD.HI.X
IMAD
LD.E.64
IMAD.HI.X
MOV32I
LD.E.64
DMUL
DSETP.LE.AND
IMAD
IMAD.HI.X
SEL
SEL
ISETP.GT.AND
ST.E.64
BRA
MOV32I
IMAD
IMAD
IMAD.HI.X
IMAD
LD.E.64
IMAD.HI.X
IADD
IADD
LD.E.64
DMUL
DSETP.LE.AND
SEL
SEL
IMAD
DADD
IMAD
IMAD.HI.X
IMAD
IMAD.HI.X
ST.E.64
LD.E.64
LD.E.64
DMUL
DSETP.LE.AND
SEL
SEL
DADD
ISETP.LT.AND
ST.E.64
BRA
ISETP.LT.AND
BRA
MOV32I
IMAD
IMAD
IADD
IMAD.HI.X
IMAD
IMAD.HI.X
LD.E.64
LD.E.64
DMUL
DSETP.LE.AND
SEL
SEL
DADD
ISETP.LT.AND
ST.E.64
BRA
IADD
ISETP.LT.AND
BRA
BRA
MOV32I
IMAD
IMAD.HI.X
IMAD
LD.E.64
IMAD.HI.X
LD.E.64
DMUL
DSETP.LE.AND
IMAD
SEL
IMAD.HI.X
SEL
IADD
ST.E.64
ISETP.LT.AND
BRA
MOV
S2R
S2R
IMAD
ISETP.GE.AND
MOV
IMUL
SHL.W
SHR
IADD
SSY
IADD.X
LD.E
FSETP.GT.AND
I2I.S32.S32
I2F.F32.U32.RP
MUFU.RCP
IADD32I
F2I.FTZ.U32.F32.TRUNC
IMUL.U32.U32
I2I.S32.S32
I2I.S32.S32
IMAD.U32.U32.HI
IMUL.U32.U32.HI
IMAD.U32.U32
I2I.S32.S32
ISETP.LE.U32.AND
I2F.F32.U32.RP
ISUB
IADD
MUFU.RCP
ISETP.GE.U32.AND
LOP.XOR
IADD32I
IADD
ISETP.GE.AND
F2I.FTZ.U32.F32.TRUNC
ISETP.NE.AND
LOP.PASS_B
I2I.S32.S32
IMUL.U32.U32
SEL
I2I.S32.S32
ISETP.GE.AND
I2I.S32.S32
IMAD.U32.U32.HI
IMUL.U32.U32.HI
IMAD.U32.U32
I2I.S32.S32
ISETP.LE.U32.AND
I2F.F32.U32.RP
ISUB
MUFU.RCP
ISETP.LE.U32.AND
IADD32I
ISUB
ISETP.NE.AND
F2I.FTZ.U32.F32.TRUNC
I2I.S32.S32
LOP.PASS_B
IMUL.U32.U32
SEL
I2I.S32.S32
I2I.S32.S32
IMAD.U32.U32.HI
IMUL.U32.U32.HI
LOP.XOR
IMAD.U32.U32
ISETP.GE.AND
ISETP.LE.U32.AND
ISUB
IADD
ISETP.GE.U32.AND
IADD
LOP.PASS_B
ISETP.NE.AND
I2I.S32.S32
SEL
MOV32I
IMAD
IMAD.HI.X
LD.E
FMUL.S
IADD
IADD
IADD.X
ISETP.LT.AND
ST.E
BRA
MOV
S2R
S2R
IMAD
ISETP.GE.AND
MOV
IMUL
SHL.W
SHR
SSY
IADD
IADD.X
LD.E.64
DSETP.GT.AND
I2I.S32.S32
I2I.S32.S32
ISETP.NE.AND
I2F.F32.U32.RP
MUFU.RCP
IADD32I
F2I.FTZ.U32.F32.TRUNC
IMUL.U32.U32
I2I.S32.S32
IMAD.U32.U32.HI
IMUL.U32.U32.HI
I2I.S32.S32
IMAD.U32.U32
I2F.F32.U32.RP
ISETP.LE.U32.AND
MUFU.RCP
LOP.XOR
ISUB
IADD
IADD32I
ISETP.GE.U32.AND
ISETP.GE.AND
F2I.FTZ.U32.F32.TRUNC
IADD
LOP.PASS_B
IMUL.U32.U32
I2I.S32.S32
I2I.S32.S32
SEL
ISETP.NE.AND
IMAD.U32.U32.HI
I2I.S32.S32
ISETP.GE.AND
LOP.PASS_B
IMUL.U32.U32.HI
I2I.S32.S32
IMAD.U32.U32
I2F.F32.U32.RP
ISETP.LE.U32.AND
MUFU.RCP
ISUB
IADD32I
ISETP.LE.U32.AND
F2I.FTZ.U32.F32.TRUNC
ISUB
IMUL.U32.U32
I2I.S32.S32
I2I.S32.S32
SEL
IMAD.U32.U32.HI
I2I.S32.S32
LOP.XOR
IMUL.U32.U32.HI
ISETP.GE.AND
IMAD.U32.U32
ISETP.LE.U32.AND
ISUB
IADD
ISETP.GE.U32.AND
LOP.PASS_B
MOV32I
IADD
ISETP.NE.AND
I2I.S32.S32
SEL
IMAD
IMAD.HI.X
LD.E.64
DMUL.S
IADD
IADD
IADD.X
ISETP.LT.AND
ST.E.64
BRA
MOV
S2R
S2R
IMAD
ISETP.GE.AND
I2I.S32.S32
I2I.S32.S32
LOP.PASS_B
I2F.F32.U32.RP
I2F.F32.U32.RP
LOP.PASS_B
MUFU.RCP
MOV
MUFU.RCP
IADD32I
I2I.S32.S32
IADD32I
F2I.FTZ.U32.F32.TRUNC
IMUL
F2I.FTZ.U32.F32.TRUNC
IMUL.U32.U32
IMUL.U32.U32
I2I.S32.S32
I2I.S32.S32
IMAD.U32.U32.HI
IMAD.U32.U32.HI
I2I.S32.S32
LOP.XOR
MOV32I
IMUL.U32.U32.HI
ISETP.GE.AND
IMAD.U32.U32
ISETP.LE.U32.AND
ISUB
IADD
ISETP.GE.U32.AND
IADD
ISETP.NE.AND
I2I.S32.S32
SEL
I2I.S32.S32
ISETP.GE.AND
IMUL.U32.U32.HI
IMAD.U32.U32
I2F.F32.U32.RP
ISETP.LE.U32.AND
MUFU.RCP
ISUB
IADD32I
ISETP.LE.U32.AND
F2I.FTZ.U32.F32.TRUNC
ISUB
ISETP.NE.AND
IMUL.U32.U32
I2I.S32.S32
ISETP.NE.AND
I2I.S32.S32
SEL
IMAD.U32.U32.HI
I2I.S32.S32
IMUL.U32.U32.HI
LOP.XOR
LOP.PASS_B
IMAD.U32.U32
ISETP.GE.AND
ISETP.LE.U32.AND
ISUB
IADD
ISETP.GE.U32.AND
IMAD
IADD
IMAD.HI.X
I2I.S32.S32
LD.E.64
SEL
IMAD
IMAD.HI.X
IMAD
LD.E.64
IMAD.HI.X
LD.E.64
DSETP.GT.AND
SEL
DSETP.LE.AND
I2F.F64.S32
IMAD
IMAD.HI.X
SEL
SEL
IADD
DADD
ISETP.LT.AND
DMUL
ST.E.64
BRA
MOV
S2R
S2R
IMAD
ISETP.GE.AND
MOV
MOV
ISETP.GT.AND
IMUL
BRA
MOV32I
MOV
IMAD
IADD
MOV32I
IMAD.HI.X
IMAD
ISETP.GT.AND
LD.E
IMAD.HI.X
IMAD
LD.E
FMUL
IMAD.HI.X
FCMP.LE
ST.E
BRA
MOV32I
IMAD
IADD
IADD
IMAD
IMAD
ISETP.LT.AND
IMAD.HI.X
IMAD
LD.E
IMAD.HI.X
LD.E
IMAD
FMUL
FCMP.LE
IMAD.HI.X
IMAD
FADD
IMAD.HI.X
ST.E
LD.E
LD.E
FMUL
FCMP.LE
FADD
ST.E
BRA
ISETP.LT.AND
BRA
MOV32I
IMAD
IADD
IMAD
ISETP.LT.AND
IMAD.HI.X
IMAD
LD.E
IMAD.HI.X
LD.E
FMUL
FCMP.LE
FADD
ST.E
BRA
IADD
ISETP.LT.AND
BRA
BRA
MOV32I
IMAD
IMAD.HI.X
IMAD
LD.E
IMAD.HI.X
IMAD
LD.E
IMAD.HI.X
IADD
ISETP.LT.AND
FMUL
FCMP.LE
ST.E
BRA
MOV
S2R
S2R
IMAD
ISETP.GE.AND
I2I.S32.S32
I2I.S32.S32
I2I.S32.S32
MOV
I2F.F32.U32.RP
I2F.F32.U32.RP
I2F.F32.U32.RP
IMUL
MUFU.RCP
LOP.PASS_B
MUFU.RCP
IADD32I
MUFU.RCP
IADD32I
F2I.FTZ.U32.F32.TRUNC
IADD32I
F2I.FTZ.U32.F32.TRUNC
IMUL.U32.U32
F2I.FTZ.U32.F32.TRUNC
IMUL.U32.U32
I2I.S32.S32
IMUL.U32.U32
I2I.S32.S32
LOP.PASS_B
I2I.S32.S32
LOP.PASS_B
IMAD.U32.U32.HI
IMAD.U32.U32.HI
IMAD.U32.U32.HI
I2I.S32.S32
LOP.XOR
MOV32I
IMUL.U32.U32.HI
ISETP.GE.AND
IMAD.U32.U32
ISETP.LE.U32.AND
ISUB
IADD
ISETP.GE.U32.AND
IADD
ISETP.NE.AND
I2I.S32.S32
SEL
I2I.S32.S32
ISETP.GE.AND
IMUL.U32.U32.HI
IMAD.U32.U32
ISETP.LE.U32.AND
ISUB
ISETP.LE.U32.AND
ISUB
ISETP.NE.AND
I2I.S32.S32
SEL
I2I.S32.S32
LOP.XOR
IMUL.U32.U32.HI
ISETP.GE.AND
IMAD.U32.U32
ISETP.LE.U32.AND
ISUB
IADD
ISETP.GE.U32.AND
IMAD
IADD
ISETP.NE.AND
I2I.S32.S32
SEL
IMAD.HI.X
IMAD
LD.E
IMAD.HI.X
IMAD
LD.E
IMAD.HI.X
IMAD
LD.E
FCMP.LEU
I2F.F32.S32
FCMP.LE
IMAD.HI.X
IADD
FADD
ISETP.LT.AND
FMUL
ST.E
BRA
MOV
S2R
S2R
IMAD
ISETP.GE.AND
MOV
MOV
ISETP.GT.AND
IMUL
BRA
MOV32I
MOV
IMAD
IADD
MOV32I
IMAD.HI.X
IMAD
LD.E.64
IMAD.HI.X
IMAD
LD.E.64
IMAD.HI.X
DMUL
DSETP.LE.AND
SEL
SEL
ISETP.GT.AND
ST.E.64
BRA
MOV32I
IMAD
IADD
IADD
IMAD
IMAD
IMAD.HI.X
IMAD
LD.E.64
IMAD.HI.X
LD.E.64
IMAD
IMAD.HI.X
DMUL
DSETP.LE.AND
SEL
SEL
IMAD
DADD
IMAD.HI.X
ST.E.64
LD.E.64
LD.E.64
DMUL
DSETP.LE.AND
SEL
SEL
ISETP.LT.AND
DADD
ST.E.64
BRA
ISETP.LT.AND
BRA
MOV32I
IMAD
IADD
IMAD
IMAD.HI.X
IMAD
IMAD.HI.X
LD.E.64
LD.E.64
DMUL
DSETP.LE.AND
SEL
SEL
ISETP.LT.AND
DADD
ST.E.64
BRA
IADD
ISETP.LT.AND
BRA
BRA
MOV32I
IMAD
IMAD.HI.X
IMAD
LD.E.64
IMAD.HI.X
IMAD
LD.E.64
IMAD.HI.X
IADD
DMUL
DSETP.LE.AND
SEL
SEL
ISETP.LT.AND
ST.E.64
BRA
MOV
S2R
S2R
IMAD
ISETP.GE.AND
MOV
IMUL
SHL.W
SHR
SSY
IADD
IADD.X
LD.E
FSETP.GT.AND
I2I.S32.S32
I2I.S32.S32
ISETP.NE.AND
I2F.F32.U32.RP
MUFU.RCP
IADD32I
F2I.FTZ.U32.F32.TRUNC
IMUL.U32.U32
I2I.S32.S32
IMAD.U32.U32.HI
IMUL.U32.U32.HI
I2I.S32.S32
IMAD.U32.U32
I2F.F32.U32.RP
ISETP.LE.U32.AND
MUFU.RCP
LOP.XOR
ISUB
IADD
IADD32I
ISETP.GE.U32.AND
ISETP.GE.AND
F2I.FTZ.U32.F32.TRUNC
IADD
LOP.PASS_B
IMUL.U32.U32
I2I.S32.S32
I2I.S32.S32
SEL
ISETP.NE.AND
IMAD.U32.U32.HI
I2I.S32.S32
ISETP.GE.AND
LOP.PASS_B
IMUL.U32.U32.HI
I2I.S32.S32
IMAD.U32.U32
I2F.F32.U32.RP
ISETP.LE.U32.AND
MUFU.RCP
ISUB
IADD32I
ISETP.LE.U32.AND
F2I.FTZ.U32.F32.TRUNC
ISUB
IMUL.U32.U32
I2I.S32.S32
I2I.S32.S32
SEL
IMAD.U32.U32.HI
I2I.S32.S32
LOP.XOR
IMUL.U32.U32.HI
ISETP.GE.AND
MOV32I
IMAD.U32.U32
ISETP.LE.U32.AND
ISUB
IADD
ISETP.GE.U32.AND
LOP.PASS_B
IADD
ISETP.NE.AND
I2I.S32.S32
SEL
IMAD
IMAD.HI.X
LD.E
FMUL.S
IADD
IADD
IADD.X
ISETP.LT.AND
ST.E
BRA
MOV
S2R
S2R
IMAD
ISETP.GE.AND
MOV
IMUL
SHL.W
SSY
SHR
IADD
IADD.X
LD.E.64
DSETP.GT.AND
I2I.S32.S32
I2F.F32.U32.RP
MUFU.RCP
IADD32I
I2I.S32.S32
F2I.FTZ.U32.F32.TRUNC
IMUL.U32.U32
I2I.S32.S32
I2I.S32.S32
IMAD.U32.U32.HI
IMUL.U32.U32.HI
IMAD.U32.U32
I2F.F32.U32.RP
ISETP.LE.U32.AND
MUFU.RCP
IADD
ISUB
IADD32I
LOP.XOR
ISETP.GE.U32.AND
F2I.FTZ.U32.F32.TRUNC
ISETP.GE.AND
IADD
ISETP.NE.AND
IMUL.U32.U32
LOP.PASS_B
I2I.S32.S32
LOP.PASS_B
I2I.S32.S32
SEL
IMAD.U32.U32.HI
I2I.S32.S32
IMUL.U32.U32.HI
I2I.S32.S32
ISETP.GE.AND
IMAD.U32.U32
I2F.F32.U32.RP
ISETP.LE.U32.AND
MUFU.RCP
ISUB
IADD32I
ISETP.LE.U32.AND
F2I.FTZ.U32.F32.TRUNC
ISUB
ISETP.NE.AND
IMUL.U32.U32
I2I.S32.S32
I2I.S32.S32
SEL
IMAD.U32.U32.HI
I2I.S32.S32
LOP.XOR
IMUL.U32.U32.HI
IMAD.U32.U32
ISETP.LE.U32.AND
ISUB
IADD
ISETP.GE.U32.AND
ISETP.GE.AND
IADD
ISETP.NE.AND
LOP.PASS_B
I2I.S32.S32
MOV32I
SEL
IMAD
IMAD.HI.X
LD.E.64
DMUL.S
IADD
IADD
IADD.X
ISETP.LT.AND
ST.E.64
BRA
BRA
MOV
S2R
S2R
IMAD
ISETP.GE.AND
I2I.S32.S32
LOP.PASS_B
I2I.S32.S32
LOP.PASS_B
I2I.S32.S32
LOP.PASS_B
I2F.F32.U32.RP
MOV32I
I2F.F32.U32.RP
I2F.F32.U32.RP
MUFU.RCP
MUFU.RCP
IADD32I
MUFU.RCP
IADD32I
IADD32I
F2I.FTZ.U32.F32.TRUNC
F2I.FTZ.U32.F32.TRUNC
F2I.FTZ.U32.F32.TRUNC
MOV
IMUL.U32.U32
IMUL.U32.U32
IMUL.U32.U32
I2I.S32.S32
IMUL
I2I.S32.S32
I2I.S32.S32
IMAD.U32.U32.HI
IMAD.U32.U32.HI
IMAD.U32.U32.HI
I2I.S32.S32
LOP.XOR
IMUL.U32.U32.HI
IMAD.U32.U32
ISETP.LE.U32.AND
ISUB
IADD
ISETP.GE.U32.AND
ISETP.GE.AND
IADD
ISETP.NE.AND
I2I.S32.S32
SEL
I2I.S32.S32
ISETP.GE.AND
IMUL.U32.U32.HI
IMAD.U32.U32
ISETP.LE.U32.AND
ISUB
ISETP.LE.U32.AND
ISUB
ISETP.NE.AND
I2I.S32.S32
SEL
I2I.S32.S32
LOP.XOR
IMUL.U32.U32.HI
IMAD.U32.U32
ISETP.LE.U32.AND
IMAD
ISUB
IADD
IMAD.HI.X
ISETP.GE.AND
ISETP.GE.U32.AND
LD.E.64
IADD
ISETP.NE.AND
I2I.S32.S32
SEL
DSETP.GT.AND
IMAD
IMAD.HI.X
DSETP.LE.AND
SEL
LD.E.64
IMAD
I2F.F64.S32
IMAD.HI.X
SEL
SEL
LD.E.64
DADD
DMUL
IMAD
IMAD.HI.X
IADD
ISETP.LT.AND
ST.E.64
BRA
BRA
MOV
S2R
S2R
IMAD
ISETP.GE.AND
MOV
MOV
ISETP.GT.AND
IMUL
BRA
MOV32I
MOV
IMAD
IMAD.HI.X
IMAD
IMAD.HI.X
LD.E
LD.E
IMAD
IADD
FMUL
IMAD.HI.X
ISETP.GT.AND
FCMP.LE
MOV32I
ST.E
BRA
MOV32I
IMAD
IMAD
IMAD.HI.X
IMAD
LD.E
IMAD.HI.X
IADD
LD.E
FMUL
IADD
FCMP.LE
IMAD
ISETP.LT.AND
IMAD
IMAD.HI.X
IMAD
FADD
IMAD.HI.X
ST.E
LD.E
LD.E
FMUL
FCMP.LE
FADD
ST.E
BRA
ISETP.LT.AND
BRA
MOV32I
IMAD
IADD
IMAD
IMAD.HI.X
IMAD
IMAD.HI.X
LD.E
LD.E
ISETP.LT.AND
FMUL
FCMP.LE
FADD
ST.E
BRA
IADD
ISETP.LT.AND
BRA
BRA
MOV32I
IMAD
IMAD.HI.X
IMAD
IMAD.HI.X
LD.E
LD.E
IMAD
IMAD.HI.X
IADD
FMUL
ISETP.LT.AND
FCMP.LE
ST.E
BRA
BRA
MOV
S2R
S2R
IMAD
ISETP.GE.AND
I2I.S32.S32
LOP.PASS_B
I2I.S32.S32
I2I.S32.S32
LOP.PASS_B
I2F.F32.U32.RP
I2F.F32.U32.RP
I2F.F32.U32.RP
MUFU.RCP
MUFU.RCP
MUFU.RCP
IADD32I
IADD32I
IADD32I
F2I.FTZ.U32.F32.TRUNC
MOV
F2I.FTZ.U32.F32.TRUNC
F2I.FTZ.U32.F32.TRUNC
IMUL.U32.U32
IMUL.U32.U32
IMUL.U32.U32
I2I.S32.S32
I2I.S32.S32
I2I.S32.S32
LOP.PASS_B
IMAD.U32.U32.HI
MOV32I
IMUL
IMAD.U32.U32.HI
IMAD.U32.U32.HI
I2I.S32.S32
LOP.XOR
IMUL.U32.U32.HI
ISETP.GE.AND
IMAD.U32.U32
ISETP.LE.U32.AND
ISUB
IADD
ISETP.GE.U32.AND
IADD
ISETP.NE.AND
I2I.S32.S32
SEL
I2I.S32.S32
ISETP.GE.AND
IMUL.U32.U32.HI
IMAD.U32.U32
ISETP.LE.U32.AND
ISUB
ISETP.LE.U32.AND
ISUB
ISETP.NE.AND
I2I.S32.S32
SEL
I2I.S32.S32
LOP.XOR
IMUL.U32.U32.HI
ISETP.GE.AND
IMAD.U32.U32
ISETP.LE.U32.AND
ISUB
IADD
ISETP.GE.U32.AND
IADD
ISETP.NE.AND
IMAD
I2I.S32.S32
IMAD.HI.X
SEL
LD.E
IMAD
IMAD.HI.X
IMAD
LD.E
FCMP.LEU
IMAD.HI.X
I2F.F32.S32
LD.E
FCMP.LE
IMAD
FADD
IMAD.HI.X
IADD
FMUL
ISETP.LT.AND
ST.E
BRA
BRA
MOV
S2R
S2R
IMAD
ISETP.GE.AND
MOV
MOV
ISETP.GT.AND
IMUL
BRA
MOV32I
MOV
IMAD
IADD
IMAD.HI.X
IMAD
LD.E.64
IMAD.HI.X
MOV32I
LD.E.64
DMUL
DSETP.LE.AND
IMAD
IMAD.HI.X
SEL
SEL
ISETP.GT.AND
ST.E.64
BRA
MOV32I
IMAD
IMAD
IMAD.HI.X
IMAD
LD.E.64
IMAD.HI.X
LD.E.64
DMUL
DSETP.LE.AND
IADD
SEL
SEL
DADD
IMAD
ST.E.64
IMAD
IMAD.HI.X
IMAD
LD.E.64
IMAD.HI.X
LD.E.64
IADD
DMUL
DSETP.LE.AND
SEL
SEL
DADD
ISETP.LT.AND
ST.E.64
BRA
ISETP.LT.AND
BRA
MOV32I
IMAD
IADD
IMAD
IMAD.HI.X
IMAD
IMAD.HI.X
LD.E.64
LD.E.64
DMUL
DSETP.LE.AND
SEL
SEL
DADD
ISETP.LT.AND
ST.E.64
BRA
IADD
ISETP.LT.AND
BRA
BRA
MOV32I
IMAD
IMAD.HI.X
IMAD
IMAD.HI.X
LD.E.64
LD.E.64
DMUL
DSETP.LE.AND
IMAD
IMAD.HI.X
IADD
SEL
SEL
ISETP.LT.AND
ST.E.64
BRA
BRA
MOV
S2R
S2R
IMAD
ISETP.GE.AND
MOV
IMUL
SHL.W
SSY
SHR
IADD
IADD.X
LD.E
FSETP.GT.AND
I2I.S32.S32
I2F.F32.U32.RP
MUFU.RCP
IADD32I
I2I.S32.S32
F2I.FTZ.U32.F32.TRUNC
IMUL.U32.U32
I2I.S32.S32
I2I.S32.S32
IMAD.U32.U32.HI
IMUL.U32.U32.HI
IMAD.U32.U32
I2F.F32.U32.RP
ISETP.LE.U32.AND
MUFU.RCP
ISUB
IADD
LOP.XOR
IADD32I
ISETP.GE.U32.AND
ISETP.GE.AND
IADD
F2I.FTZ.U32.F32.TRUNC
ISETP.NE.AND
LOP.PASS_B
I2I.S32.S32
IMUL.U32.U32
SEL
I2I.S32.S32
ISETP.GE.AND
I2I.S32.S32
IMAD.U32.U32.HI
I2I.S32.S32
IMUL.U32.U32.HI
IMAD.U32.U32
I2F.F32.U32.RP
ISETP.LE.U32.AND
MUFU.RCP
ISUB
IADD32I
ISETP.LE.U32.AND
F2I.FTZ.U32.F32.TRUNC
ISUB
ISETP.NE.AND
IMUL.U32.U32
LOP.PASS_B
I2I.S32.S32
I2I.S32.S32
SEL
IMAD.U32.U32.HI
I2I.S32.S32
LOP.XOR
IMUL.U32.U32.HI
ISETP.GE.AND
IMAD.U32.U32
ISETP.LE.U32.AND
ISUB
IADD
ISETP.GE.U32.AND
LOP.PASS_B
IADD
ISETP.NE.AND
I2I.S32.S32
MOV32I
SEL
IMAD
IMAD.HI.X
LD.E
FMUL.S
IADD
IADD
IADD.X
ISETP.LT.AND
ST.E
BRA
BRA
MOV
S2R
S2R
IMAD
ISETP.GE.AND
MOV
IMUL
SHF.L.W
SSY
SHR
IADD
IADD.X
LD.E.64
DSETP.GT.AND
I2I.S32.S32
I2F.F32.U32.RP
MUFU.RCP
IADD32I
I2I.S32.S32
F2I.FTZ.U32.F32.TRUNC
IMUL.U32.U32
I2I.S32.S32
I2I.S32.S32
IMAD.U32.U32.HI
IMUL.U32.U32.HI
IMAD.U32.U32
I2F.F32.U32.RP
ISETP.LE.U32.AND
MUFU.RCP
IADD
ISUB
IADD32I
LOP.XOR
ISETP.GE.U32.AND
F2I.FTZ.U32.F32.TRUNC
ISETP.GE.AND
IADD
ISETP.NE.AND
IMUL.U32.U32
LOP.PASS_B
I2I.S32.S32
LOP.PASS_B
I2I.S32.S32
SEL
IMAD.U32.U32.HI
I2I.S32.S32
IMUL.U32.U32.HI
I2I.S32.S32
ISETP.GE.AND
IMAD.U32.U32
I2F.F32.U32.RP
ISETP.LE.U32.AND
MUFU.RCP
ISUB
IADD32I
ISETP.LE.U32.AND
F2I.FTZ.U32.F32.TRUNC
ISUB
ISETP.NE.AND
IMUL.U32.U32
I2I.S32.S32
I2I.S32.S32
SEL
IMAD.U32.U32.HI
I2I.S32.S32
LOP.XOR
IMUL.U32.U32.HI
IMAD.U32.U32
ISETP.LE.U32.AND
ISUB
IADD
ISETP.GE.U32.AND
ISETP.GE.AND
IADD
ISETP.NE.AND
LOP.PASS_B
I2I.S32.S32
MOV32I
SEL
IMAD
IMAD.HI.X
LD.E.64
DMUL.S
IADD
IADD
IADD.X
ISETP.LT.AND
ST.E.64
BRA
MOV
BRA
MOV
S2R
S2R
IMAD
ISETP.GE.AND
I2I.S32.S32
LOP.PASS_B
I2I.S32.S32
LOP.PASS_B
I2I.S32.S32
LOP.PASS_B
I2F.F32.U32.RP
MOV32I
I2F.F32.U32.RP
I2F.F32.U32.RP
MUFU.RCP
MUFU.RCP
IADD32I
MUFU.RCP
IADD32I
IADD32I
F2I.FTZ.U32.F32.TRUNC
F2I.FTZ.U32.F32.TRUNC
F2I.FTZ.U32.F32.TRUNC
MOV
IMUL.U32.U32
IMUL.U32.U32
IMUL.U32.U32
I2I.S32.S32
IMUL
I2I.S32.S32
I2I.S32.S32
IMAD.U32.U32.HI
IMAD.U32.U32.HI
IMAD.U32.U32.HI
I2I.S32.S32
LOP.XOR
IMUL.U32.U32.HI
IMAD.U32.U32
ISETP.LE.U32.AND
ISUB
IADD
ISETP.GE.U32.AND
ISETP.GE.AND
IADD
ISETP.NE.AND
I2I.S32.S32
SEL
I2I.S32.S32
ISETP.GE.AND
IMUL.U32.U32.HI
IMAD.U32.U32
ISETP.LE.U32.AND
ISUB
ISETP.LE.U32.AND
ISUB
ISETP.NE.AND
I2I.S32.S32
SEL
I2I.S32.S32
LOP.XOR
IMUL.U32.U32.HI
ISETP.GE.AND
IMAD.U32.U32
ISETP.LE.U32.AND
ISUB
IADD
ISETP.GE.U32.AND
IMAD
IADD
ISETP.NE.AND
IMAD.HI.X
I2I.S32.S32
LD.E.64
SEL
IMAD
IMAD.HI.X
LD.E.64
DSETP.GT.AND
IMAD
SEL
DSETP.LE.AND
IMAD.HI.X
LD.E.64
I2F.F64.S32
SEL
SEL
DADD
IMAD
IMAD.HI.X
IADD
DMUL
ISETP.LT.AND
ST.E.64
BRA
MOV
BRA
MOV
S2R
S2R
IMAD
ISETP.GE.AND
MOV
MOV
ISETP.GT.AND
IMUL
BRA
MOV32I
MOV
IMAD
IMAD.HI.X
IMAD
IMAD.HI.X
LD.E
LD.E
IMAD
IADD
FMUL
IMAD.HI.X
ISETP.GT.AND
FCMP.LE
MOV32I
ST.E
BRA
MOV32I
IMAD
IMAD
IMAD.HI.X
IMAD
LD.E
IMAD.HI.X
IADD
LD.E
FMUL
IADD
FCMP.LE
IMAD
ISETP.LT.AND
IMAD
IMAD.HI.X
IMAD
FADD
IMAD.HI.X
ST.E
LD.E
LD.E
FMUL
FCMP.LE
FADD
ST.E
BRA
ISETP.LT.AND
BRA
MOV32I
IMAD
IADD
IMAD
IMAD.HI.X
IMAD
IMAD.HI.X
LD.E
LD.E
ISETP.LT.AND
FMUL
FCMP.LE
FADD
ST.E
BRA
IADD
ISETP.LT.AND
BRA
BRA
MOV32I
IMAD
IMAD.HI.X
IMAD
IMAD.HI.X
LD.E
LD.E
IMAD
IMAD.HI.X
IADD
FMUL
ISETP.LT.AND
FCMP.LE
ST.E
BRA
MOV
BRA
MOV
S2R
S2R
IMAD
ISETP.GE.AND
I2I.S32.S32
LOP.PASS_B
I2I.S32.S32
I2I.S32.S32
LOP.PASS_B
I2F.F32.U32.RP
I2F.F32.U32.RP
I2F.F32.U32.RP
MUFU.RCP
MUFU.RCP
MUFU.RCP
IADD32I
IADD32I
IADD32I
F2I.FTZ.U32.F32.TRUNC
MOV
F2I.FTZ.U32.F32.TRUNC
F2I.FTZ.U32.F32.TRUNC
IMUL.U32.U32
IMUL.U32.U32
IMUL.U32.U32
I2I.S32.S32
I2I.S32.S32
I2I.S32.S32
LOP.PASS_B
IMAD.U32.U32.HI
MOV32I
IMUL
IMAD.U32.U32.HI
IMAD.U32.U32.HI
I2I.S32.S32
LOP.XOR
IMUL.U32.U32.HI
ISETP.GE.AND
IMAD.U32.U32
ISETP.LE.U32.AND
ISUB
IADD
ISETP.GE.U32.AND
IADD
ISETP.NE.AND
I2I.S32.S32
SEL
I2I.S32.S32
ISETP.GE.AND
IMUL.U32.U32.HI
IMAD.U32.U32
ISETP.LE.U32.AND
ISUB
ISETP.LE.U32.AND
ISUB
ISETP.NE.AND
I2I.S32.S32
SEL
I2I.S32.S32
LOP.XOR
IMUL.U32.U32.HI
ISETP.GE.AND
IMAD.U32.U32
ISETP.LE.U32.AND
ISUB
IADD
ISETP.GE.U32.AND
IADD
ISETP.NE.AND
IMAD
I2I.S32.S32
IMAD.HI.X
SEL
LD.E
IMAD
IMAD.HI.X
IMAD
LD.E
FCMP.LEU
IMAD.HI.X
I2F.F32.S32
LD.E
FCMP.LE
IMAD
FADD
IMAD.HI.X
IADD
FMUL
ISETP.LT.AND
ST.E
BRA
MOV
BRA
MOV
S2R
S2R
IMAD
ISETP.GE.AND
MOV
MOV
ISETP.GT.AND
IMUL
BRA
MOV32I
MOV
IMAD
IADD
IMAD.HI.X
IMAD
LD.E.64
IMAD.HI.X
MOV32I
LD.E.64
DSETP.LE.AND
DMUL
IMAD
SEL
SEL
IMAD.HI.X
ISETP.GT.AND
ST.E.64
BRA
MOV32I
IMAD
IMAD
IMAD.HI.X
IMAD
LD.E.64
IMAD.HI.X
LD.E.64
IADD
IADD
DMUL
DSETP.LE.AND
IMAD
SEL
SEL
IMAD
DADD
IMAD.HI.X
IMAD
ST.E.64
IMAD.HI.X
LD.E.64
LD.E.64
DMUL
DSETP.LE.AND
SEL
SEL
ISETP.LT.AND
DADD
ST.E.64
BRA
ISETP.LT.AND
BRA
MOV32I
IMAD
IADD
IMAD
IMAD.HI.X
IMAD
IMAD.HI.X
LD.E.64
LD.E.64
DMUL
DSETP.LE.AND
SEL
SEL
ISETP.LT.AND
DADD
ST.E.64
BRA
IADD
ISETP.LT.AND
BRA
BRA
MOV32I
IMAD
IMAD.HI.X
IMAD
IMAD.HI.X
LD.E.64
LD.E.64
DSETP.LE.AND
DMUL
IMAD
SEL
IMAD.HI.X
IADD
SEL
ISETP.LT.AND
ST.E.64
BRA
MOV
BRA
MOV
S2R
S2R
IMAD
ISETP.GE.AND
MOV
IMUL
SHF.L.W
SSY
SHR
IADD
IADD.X
LD.E
FSETP.GT.AND
I2I.S32.S32
I2F.F32.U32.RP
MUFU.RCP
IADD32I
I2I.S32.S32
F2I.FTZ.U32.F32.TRUNC
IMUL.U32.U32
I2I.S32.S32
I2I.S32.S32
IMAD.U32.U32.HI
IMUL.U32.U32.HI
IMAD.U32.U32
I2F.F32.U32.RP
ISETP.LE.U32.AND
MUFU.RCP
ISUB
IADD
LOP.XOR
IADD32I
ISETP.GE.U32.AND
ISETP.GE.AND
IADD
F2I.FTZ.U32.F32.TRUNC
ISETP.NE.AND
LOP.PASS_B
I2I.S32.S32
IMUL.U32.U32
SEL
I2I.S32.S32
ISETP.GE.AND
I2I.S32.S32
IMAD.U32.U32.HI
I2I.S32.S32
IMUL.U32.U32.HI
IMAD.U32.U32
I2F.F32.U32.RP
ISETP.LE.U32.AND
MUFU.RCP
ISUB
IADD32I
ISETP.LE.U32.AND
F2I.FTZ.U32.F32.TRUNC
ISUB
ISETP.NE.AND
IMUL.U32.U32
LOP.PASS_B
I2I.S32.S32
I2I.S32.S32
SEL
IMAD.U32.U32.HI
I2I.S32.S32
LOP.XOR
IMUL.U32.U32.HI
ISETP.GE.AND
IMAD.U32.U32
ISETP.LE.U32.AND
ISUB
IADD
ISETP.GE.U32.AND
LOP.PASS_B
IADD
ISETP.NE.AND
I2I.S32.S32
MOV32I
SEL
IMAD
IMAD.HI.X
LD.E
FMUL.S
IADD
IADD
IADD.X
ISETP.LT.AND
ST.E
BRA
MOV
BRA
MOV
S2R
S2R
XMAD.MRG
XMAD
XMAD.PSL.CBCC
ISETP.GE.AND
SHL
SSY
SHR
IADD
IADD.X
LDG.E.64
DSETP.GT.AND
SYNC;
I2I.S32.S32
I2F.F32.U32.RP
MUFU.RCP
IADD32I
I2I.S32.S32
ISETP.NE.AND
F2I.FTZ.U32.F32.TRUNC
XMAD
XMAD.MRG
XMAD.PSL.CBCC
IADD
XMAD
XMAD
XMAD
XMAD.CHI
IADD3.RS
XMAD
XMAD
XMAD
XMAD.CHI
I2I.S32.S32
IADD3.RS
I2F.F32.U32.RP
IADD
MUFU.RCP
XMAD
XMAD.MRG
XMAD.PSL.CBCC
I2I.S32.S32
ISETP.LE.U32.AND
IADD32I
F2I.FTZ.U32.F32.TRUNC
IADD
ISETP.GE.U32.AND
LOP.XOR
XMAD
XMAD.MRG
IADD32I
ISETP.GE.AND
XMAD.PSL.CBCC
I2I.S32.S32
IADD32I
PSETP.AND.AND
IADD
LOP.PASS_B
IADD
XMAD
SEL
XMAD
I2I.S32.S32
XMAD
XMAD.CHI
IADD3.RS
XMAD
XMAD
XMAD
XMAD.CHI
I2I.S32.S32
IADD3.RS
I2F.F32.U32.RP
IADD
MUFU.RCP
XMAD
XMAD.MRG
XMAD.PSL.CBCC
ISETP.LE.U32.AND
IADD32I
F2I.FTZ.U32.F32.TRUNC
ISETP.NE.AND
IADD
ISETP.LE.U32.AND
XMAD
XMAD.MRG
ISETP.GE.AND
XMAD.PSL.CBCC
IADD
PSETP.AND.AND
IADD
LOP.PASS_B
IADD
XMAD
SEL
XMAD
I2I.S32.S32
XMAD
XMAD.CHI
IADD3.RS
XMAD
XMAD
XMAD
XMAD.CHI
IADD3.RS
IADD
XMAD
XMAD.MRG
XMAD.PSL.CBCC
I2I.S32.S32
ISETP.LE.U32.AND
ISETP.NE.AND
IADD
ISETP.GE.U32.AND
LOP.XOR
IADD32I
ISETP.GE.AND
IADD32I
PSETP.AND.AND
LOP.PASS_B
IADD
SEL
SHL
SHR
IADD
IADD.X
LDG.E.64
DMUL
SYNC;
MOV
XMAD
XMAD.MRG
XMAD.PSL.CBCC
IADD
ISETP.LT.AND
IADD.X
STG.E.64
BRA
BRA
MOV
S2R
S2R
XMAD.MRG
XMAD
XMAD.PSL.CBCC
ISETP.GE.AND
I2I.S32.S32
I2F.F32.U32.RP
MUFU.RCP
IADD32I
F2I.FTZ.U32.F32.TRUNC
ISETP.NE.AND
XMAD
XMAD.MRG
XMAD.PSL.CBCC
IADD
PSETP.AND.AND
XMAD
XMAD
XMAD
XMAD.CHI
LOP.PASS_B
IADD3.RS
ISETP.NE.AND
I2I.S32.S32
SHL
I2I.S32.S32
XMAD
XMAD
XMAD
XMAD.CHI
I2I.S32.S32
IADD3.RS
I2F.F32.U32.RP
IADD
MUFU.RCP
XMAD
XMAD.MRG
XMAD.PSL.CBCC
I2I.S32.S32
ISETP.LE.U32.AND
IADD32I
IADD
F2I.FTZ.U32.F32.TRUNC
ISETP.GE.U32.AND
LOP.XOR
IADD32I
XMAD
XMAD.MRG
ISETP.GE.AND
IADD32I
XMAD.PSL.CBCC
PSETP.AND.AND
IADD
LOP.PASS_B
IADD
XMAD
SEL
XMAD
I2I.S32.S32
XMAD
XMAD.CHI
IADD3.RS
XMAD
XMAD
XMAD
XMAD.CHI
I2I.S32.S32
IADD3.RS
I2F.F32.U32.RP
IADD
MUFU.RCP
XMAD
I2I.S32.S32
XMAD.MRG
XMAD.PSL.CBCC
ISETP.LE.U32.AND
IADD32I
F2I.FTZ.U32.F32.TRUNC
ISETP.NE.AND
IADD
ISETP.LE.U32.AND
XMAD
XMAD.MRG
ISETP.GE.AND
XMAD.PSL.CBCC
IADD
PSETP.AND.AND
IADD
LOP.PASS_B
IADD
XMAD
SEL
XMAD
I2I.S32.S32
XMAD
XMAD.CHI
IADD3.RS
XMAD
XMAD
XMAD
XMAD.CHI
IADD3.RS
IADD
XMAD
XMAD.MRG
XMAD.PSL.CBCC
I2I.S32.S32
ISETP.LE.U32.AND
SHR
IADD
IADD
IADD.X
ISETP.GE.U32.AND
MOV
MOV
LDG.E.64
LOP.XOR
IADD32I
ISETP.GE.AND
IADD32I
IADD
SEL
SHL
SHR
IADD
IADD.X
LDG.E.64
IADD
IADD.X
LDG.E.64
MOV
DEPBAR.LE
DSETP.GT.AND
SEL
DSETP.LE.AND
I2F.F64.S32
DEPBAR.LE
SEL
SEL
XMAD
XMAD.MRG
MOV
XMAD.PSL.CBCC
IADD
ISETP.LT.AND
DADD
IADD.X
DMUL
MOV
STG.E.64
BRA
BRA
MOV
S2R
S2R
XMAD.MRG
XMAD
XMAD.PSL.CBCC
ISETP.GE.AND
MOV
ISETP.GT.AND
BRA
SHL
SHR
IADD
IADD.X
IADD
LDG.E
IADD.X
LDG.E
MOV
XMAD
XMAD.MRG
XMAD.PSL.CBCC
IADD
ISETP.LT.AND
IADD.X
FMUL
FCMP.LE
MOV
STG.E
BRA
SHL
SHR
IADD
IADD.X
IADD
LDG.E
IADD.X
LDG.E
IADD
IADD.X
MOV
FMUL
FCMP.LE
MOV
MOV
MOV32I
STG.E
MOV
MOV32I
VABSDIFF.ACC
BRA
XMAD
XMAD.MRG
XMAD.PSL.CBCC
SHL
SHR
IADD
IADD.X
IADD
IADD.X
LDG.E
IADD32I
LDG.E
XMAD
XMAD.MRG
XMAD.PSL.CBCC
SHL
SHR
IADD
IADD.X
IADD
FMUL
IADD.X
FCMP.LE
FADD
MOV
STG.E
MOV
LDG.E
IADD32I
LDG.E
XMAD
XMAD.MRG
XMAD.PSL.CBCC
SHL
SHR
IADD
IADD.X
IADD
IADD.X
FMUL
FCMP.LE
MOV
FADD
MOV
STG.E
IADD32I
LDG.E
XMAD
LDG.E
XMAD.MRG
XMAD.PSL.CBCC
SHL
SHR
IADD
IADD.X
IADD
FMUL
FCMP.LE
IADD.X
MOV
MOV
FADD
MOV
STG.E
IADD32I
LDG.E
MOV
LDG.E
VABSDIFF.ACC
FMUL
FCMP.LE
FADD
STG.E
MOV
BRA
MOV32I
MOV
VABSDIFF.ACC
BRA
XMAD
XMAD.MRG
XMAD.PSL.CBCC
SHL
SHR
IADD
IADD.X
IADD
LDG.E
IADD.X
LDG.E
IADD32I
XMAD
XMAD.MRG
XMAD.PSL.CBCC
SHL
SHR
IADD
IADD.X
IADD
IADD.X
FMUL
FCMP.LE
FADD
STG.E
LDG.E
LDG.E
IADD32I
FMUL
FCMP.LE
FADD
STG.E
MOV
ISETP.LT.AND
BRA
XMAD
XMAD.MRG
XMAD.PSL.CBCC
SHL
SHR
IADD
IADD.X
IADD
IADD.X
LDG.E
IADD32I
LDG.E
ISETP.LT.AND
FMUL
FCMP.LE
FADD
STG.E
MOV
BRA
MOV
XMAD
XMAD.MRG
XMAD.PSL.CBCC
ISETP.LT.AND
BRA
BRA
MOV
S2R
S2R
XMAD.MRG
XMAD
XMAD.PSL.CBCC
ISETP.GE.AND
I2I.S32.S32
I2F.F32.U32.RP
MUFU.RCP
IADD32I
F2I.FTZ.U32.F32.TRUNC
ISETP.NE.AND
XMAD
XMAD.MRG
XMAD.PSL.CBCC
IADD
PSETP.AND.AND
XMAD
XMAD
XMAD
XMAD.CHI
LOP.PASS_B
IADD3.RS
ISETP.NE.AND
I2I.S32.S32
SHL
I2I.S32.S32
XMAD
XMAD
XMAD
XMAD.CHI
I2I.S32.S32
IADD3.RS
I2F.F32.U32.RP
IADD
MUFU.RCP
XMAD
XMAD.MRG
XMAD.PSL.CBCC
I2I.S32.S32
ISETP.LE.U32.AND
IADD32I
IADD
F2I.FTZ.U32.F32.TRUNC
ISETP.GE.U32.AND
LOP.XOR
IADD32I
XMAD
XMAD.MRG
ISETP.GE.AND
IADD32I
XMAD.PSL.CBCC
PSETP.AND.AND
IADD
LOP.PASS_B
IADD
XMAD
SEL
XMAD
I2I.S32.S32
XMAD
XMAD.CHI
IADD3.RS
XMAD
XMAD
XMAD
XMAD.CHI
I2I.S32.S32
IADD3.RS
I2F.F32.U32.RP
IADD
MUFU.RCP
XMAD
I2I.S32.S32
XMAD.MRG
XMAD.PSL.CBCC
ISETP.LE.U32.AND
IADD32I
F2I.FTZ.U32.F32.TRUNC
ISETP.NE.AND
IADD
ISETP.LE.U32.AND
XMAD
XMAD.MRG
ISETP.GE.AND
XMAD.PSL.CBCC
IADD
PSETP.AND.AND
IADD
LOP.PASS_B
IADD
XMAD
SEL
XMAD
I2I.S32.S32
XMAD
XMAD.CHI
IADD3.RS
XMAD
XMAD
XMAD
XMAD.CHI
IADD3.RS
IADD
XMAD
XMAD.MRG
XMAD.PSL.CBCC
I2I.S32.S32
ISETP.LE.U32.AND
IADD
ISETP.GE.U32.AND
LOP.XOR
IADD32I
ISETP.GE.AND
IADD32I
IADD
SHR
IADD
SEL
IADD.X
SHL
SHR
LDG.E
IADD
IADD.X
LDG.E
IADD
IADD.X
LDG.E
MOV
XMAD
XMAD.MRG
XMAD.PSL.CBCC
IADD
ISETP.LT.AND
IADD.X
DEPBAR.LE
FCMP.LEU
I2F.F32.S32
DEPBAR.LE
FCMP.LE
FADD
FMUL
MOV
STG.E
BRA
BRA
MOV
S2R
S2R
XMAD.MRG
XMAD
XMAD.PSL.CBCC
ISETP.GE.AND
MOV
ISETP.GT.AND
BRA
SHL
SHR
IADD
IADD.X
IADD
LDG.E.64
IADD.X
LDG.E.64
MOV
XMAD
XMAD.MRG
XMAD.PSL.CBCC
ISETP.LT.AND
DSETP.LE.AND
DMUL
IADD
IADD.X
SEL
SEL
STG.E.64
BRA
SHL
SHR
IADD
IADD.X
IADD
LDG.E.64
IADD.X
LDG.E.64
MOV
DSETP.LE.AND
DMUL
IADD
MOV32I
SEL
MOV
MOV32I
SEL
IADD.X
VABSDIFF.ACC
STG.E.64
MOV
MOV
BRA
XMAD
XMAD.MRG
XMAD.PSL.CBCC
SHL
SHR
IADD
IADD.X
IADD
IADD.X
LDG.E.64
IADD32I
LDG.E.64
XMAD
XMAD.MRG
XMAD.PSL.CBCC
SHL
SHR
DSETP.LE.AND
DMUL
IADD
SEL
SEL
IADD.X
IADD
DADD
STG.E.64
LDG.E.64
IADD.X
MOV
LDG.E.64
IADD32I
XMAD
XMAD.MRG
XMAD.PSL.CBCC
SHL
SHR
DSETP.LE.AND
DMUL
IADD
IADD.X
SEL
SEL
IADD
DADD
IADD.X
STG.E.64
MOV
LDG.E.64
MOV
LDG.E.64
IADD32I
XMAD
XMAD.MRG
XMAD.PSL.CBCC
SHL
SHR
IADD
IADD.X
DSETP.LE.AND
DMUL
SEL
SEL
IADD
DADD
STG.E.64
LDG.E.64
IADD.X
LDG.E.64
IADD32I
MOV
VABSDIFF.ACC
DSETP.LE.AND
DMUL
SEL
SEL
DADD
STG.E.64
MOV
MOV
BRA
MOV32I
MOV
VABSDIFF.ACC
BRA
XMAD
XMAD.MRG
XMAD.PSL.CBCC
SHL
SHR
IADD
IADD.X
IADD
LDG.E.64
IADD.X
LDG.E.64
IADD32I
XMAD
XMAD.MRG
XMAD.PSL.CBCC
SHL
SHR
DSETP.LE.AND
DMUL
IADD
SEL
SEL
IADD.X
IADD
DADD
STG.E.64
LDG.E.64
IADD.X
LDG.E.64
IADD32I
DSETP.LE.AND
DMUL
SEL
SEL
DADD
STG.E.64
MOV
MOV
ISETP.LT.AND
BRA
XMAD
XMAD.MRG
XMAD.PSL.CBCC
SHL
SHR
IADD
IADD.X
IADD
LDG.E.64
IADD.X
LDG.E.64
IADD32I
DSETP.LE.AND
DMUL
SEL
SEL
ISETP.LT.AND
MOV
DADD
MOV
STG.E.64
MOV
MOV
BRA
MOV
XMAD
XMAD.MRG
XMAD.PSL.CBCC
ISETP.LT.AND
BRA
BRA
MOV
S2R
S2R
XMAD.MRG
XMAD
XMAD.PSL.CBCC
ISETP.GE.AND
SHL
SSY
SHR
IADD
IADD.X
LDG.E
FSETP.GT.AND
SYNC;
I2I.S32.S32
I2F.F32.U32.RP
MUFU.RCP
IADD32I
I2I.S32.S32
ISETP.NE.AND
F2I.FTZ.U32.F32.TRUNC
XMAD
XMAD.MRG
XMAD.PSL.CBCC
IADD
XMAD
XMAD
XMAD
XMAD.CHI
IADD3.RS
XMAD
XMAD
XMAD
XMAD.CHI
I2I.S32.S32
IADD3.RS
I2F.F32.U32.RP
IADD
MUFU.RCP
XMAD
XMAD.MRG
XMAD.PSL.CBCC
I2I.S32.S32
ISETP.LE.U32.AND
IADD32I
F2I.FTZ.U32.F32.TRUNC
IADD
ISETP.GE.U32.AND
LOP.XOR
XMAD
XMAD.MRG
IADD32I
ISETP.GE.AND
XMAD.PSL.CBCC
I2I.S32.S32
IADD32I
PSETP.AND.AND
IADD
LOP.PASS_B
IADD
XMAD
SEL
XMAD
I2I.S32.S32
XMAD
XMAD.CHI
IADD3.RS
XMAD
XMAD
XMAD
XMAD.CHI
I2I.S32.S32
IADD3.RS
I2F.F32.U32.RP
IADD
MUFU.RCP
XMAD
XMAD.MRG
XMAD.PSL.CBCC
ISETP.LE.U32.AND
IADD32I
F2I.FTZ.U32.F32.TRUNC
ISETP.NE.AND
IADD
ISETP.LE.U32.AND
XMAD
XMAD.MRG
ISETP.GE.AND
XMAD.PSL.CBCC
IADD
PSETP.AND.AND
IADD
LOP.PASS_B
IADD
XMAD
SEL
XMAD
I2I.S32.S32
XMAD
XMAD.CHI
IADD3.RS
XMAD
XMAD
XMAD
XMAD.CHI
IADD3.RS
IADD
XMAD
XMAD.MRG
XMAD.PSL.CBCC
I2I.S32.S32
ISETP.LE.U32.AND
ISETP.NE.AND
IADD
ISETP.GE.U32.AND
LOP.XOR
IADD32I
ISETP.GE.AND
IADD32I
PSETP.AND.AND
LOP.PASS_B
IADD
SEL
SHL
SHR
IADD
IADD.X
LDG.E
FMUL
SYNC;
MOV
XMAD
XMAD.MRG
XMAD.PSL.CBCC
IADD
ISETP.LT.AND
IADD.X
STG.E
BRA
BRA
MOV
S2R
S2R
XMAD.MRG
XMAD
XMAD.PSL.CBCC
ISETP.GE.AND
SHL
SSY
SHR
IADD
IADD.X
LDG.E.64
DSETP.GT.AND
SYNC;
I2I.S32.S32
I2F.F32.U32.RP
MUFU.RCP
IADD32I
I2I.S32.S32
ISETP.NE.AND
F2I.FTZ.U32.F32.TRUNC
XMAD
XMAD.MRG
XMAD.PSL.CBCC
IADD
XMAD
XMAD
XMAD
XMAD.CHI
IADD3.RS
XMAD
XMAD
XMAD
XMAD.CHI
I2I.S32.S32
IADD3.RS
I2F.F32.U32.RP
IADD
MUFU.RCP
XMAD
XMAD.MRG
XMAD.PSL.CBCC
I2I.S32.S32
ISETP.LE.U32.AND
IADD32I
F2I.FTZ.U32.F32.TRUNC
IADD
ISETP.GE.U32.AND
LOP.XOR
XMAD
XMAD.MRG
IADD32I
ISETP.GE.AND
XMAD.PSL.CBCC
I2I.S32.S32
IADD32I
PSETP.AND.AND
IADD
LOP.PASS_B
IADD
XMAD
SEL
XMAD
I2I.S32.S32
XMAD
XMAD.CHI
IADD3.RS
XMAD
XMAD
XMAD
XMAD.CHI
I2I.S32.S32
IADD3.RS
I2F.F32.U32.RP
IADD
MUFU.RCP
XMAD
XMAD.MRG
XMAD.PSL.CBCC
ISETP.LE.U32.AND
IADD32I
F2I.FTZ.U32.F32.TRUNC
ISETP.NE.AND
IADD
ISETP.LE.U32.AND
XMAD
XMAD.MRG
ISETP.GE.AND
XMAD.PSL.CBCC
IADD
PSETP.AND.AND
IADD
LOP.PASS_B
IADD
XMAD
SEL
XMAD
I2I.S32.S32
XMAD
XMAD.CHI
IADD3.RS
XMAD
XMAD
XMAD
XMAD.CHI
IADD3.RS
IADD
XMAD
XMAD.MRG
XMAD.PSL.CBCC
I2I.S32.S32
ISETP.LE.U32.AND
ISETP.NE.AND
IADD
ISETP.GE.U32.AND
LOP.XOR
IADD32I
ISETP.GE.AND
IADD32I
PSETP.AND.AND
LOP.PASS_B
IADD
SEL
SHL
SHR
IADD
IADD.X
LDG.E.64
DMUL
SYNC;
MOV
XMAD
XMAD.MRG
XMAD.PSL.CBCC
IADD
ISETP.LT.AND
IADD.X
STG.E.64
BRA
BRA
MOV
S2R
S2R
XMAD.MRG
XMAD
XMAD.PSL.CBCC
ISETP.GE.AND
I2I.S32.S32
I2F.F32.U32.RP
MUFU.RCP
IADD32I
F2I.FTZ.U32.F32.TRUNC
ISETP.NE.AND
XMAD
XMAD.MRG
XMAD.PSL.CBCC
IADD
PSETP.AND.AND
XMAD
XMAD
XMAD
XMAD.CHI
LOP.PASS_B
IADD3.RS
ISETP.NE.AND
I2I.S32.S32
SHL
I2I.S32.S32
XMAD
XMAD
XMAD
XMAD.CHI
I2I.S32.S32
IADD3.RS
I2F.F32.U32.RP
IADD
MUFU.RCP
XMAD
XMAD.MRG
XMAD.PSL.CBCC
I2I.S32.S32
ISETP.LE.U32.AND
IADD32I
IADD
F2I.FTZ.U32.F32.TRUNC
ISETP.GE.U32.AND
LOP.XOR
IADD32I
XMAD
XMAD.MRG
ISETP.GE.AND
IADD32I
XMAD.PSL.CBCC
PSETP.AND.AND
IADD
LOP.PASS_B
IADD
XMAD
SEL
XMAD
I2I.S32.S32
XMAD
XMAD.CHI
IADD3.RS
XMAD
XMAD
XMAD
XMAD.CHI
I2I.S32.S32
IADD3.RS
I2F.F32.U32.RP
IADD
MUFU.RCP
XMAD
I2I.S32.S32
XMAD.MRG
XMAD.PSL.CBCC
ISETP.LE.U32.AND
IADD32I
F2I.FTZ.U32.F32.TRUNC
ISETP.NE.AND
IADD
ISETP.LE.U32.AND
XMAD
XMAD.MRG
ISETP.GE.AND
XMAD.PSL.CBCC
IADD
PSETP.AND.AND
IADD
LOP.PASS_B
IADD
XMAD
SEL
XMAD
I2I.S32.S32
XMAD
XMAD.CHI
IADD3.RS
XMAD
XMAD
XMAD
XMAD.CHI
IADD3.RS
IADD
XMAD
XMAD.MRG
XMAD.PSL.CBCC
I2I.S32.S32
ISETP.LE.U32.AND
SHR
IADD
IADD
IADD.X
ISETP.GE.U32.AND
MOV
MOV
LDG.E.64
LOP.XOR
IADD32I
ISETP.GE.AND
IADD32I
IADD
SEL
SHL
SHR
IADD
IADD.X
LDG.E.64
IADD
IADD.X
LDG.E.64
MOV
DEPBAR.LE
DSETP.GT.AND
SEL
DSETP.LE.AND
I2F.F64.S32
DEPBAR.LE
SEL
SEL
XMAD
XMAD.MRG
MOV
XMAD.PSL.CBCC
IADD
ISETP.LT.AND
DADD
IADD.X
DMUL
MOV
STG.E.64
BRA
BRA
MOV
S2R
S2R
XMAD.MRG
XMAD
XMAD.PSL.CBCC
ISETP.GE.AND
MOV
ISETP.GT.AND
BRA
SHL
SHR
IADD
IADD.X
IADD
LDG.E
IADD.X
LDG.E
MOV
XMAD
XMAD.MRG
XMAD.PSL.CBCC
IADD
ISETP.LT.AND
IADD.X
FMUL
FCMP.LE
MOV
STG.E
BRA
SHL
SHR
IADD
IADD.X
IADD
LDG.E
IADD.X
LDG.E
IADD
IADD.X
MOV
FMUL
FCMP.LE
MOV
MOV
MOV32I
STG.E
MOV
MOV32I
VABSDIFF.ACC
BRA
XMAD
XMAD.MRG
XMAD.PSL.CBCC
SHL
SHR
IADD
IADD.X
IADD
IADD.X
LDG.E
IADD32I
LDG.E
XMAD
XMAD.MRG
XMAD.PSL.CBCC
SHL
SHR
IADD
IADD.X
IADD
FMUL
IADD.X
FCMP.LE
FADD
MOV
STG.E
MOV
LDG.E
IADD32I
LDG.E
XMAD
XMAD.MRG
XMAD.PSL.CBCC
SHL
SHR
IADD
IADD.X
IADD
IADD.X
FMUL
FCMP.LE
MOV
FADD
MOV
STG.E
IADD32I
LDG.E
XMAD
LDG.E
XMAD.MRG
XMAD.PSL.CBCC
SHL
SHR
IADD
IADD.X
IADD
FMUL
FCMP.LE
IADD.X
MOV
MOV
FADD
MOV
STG.E
IADD32I
LDG.E
MOV
LDG.E
VABSDIFF.ACC
FMUL
FCMP.LE
FADD
STG.E
MOV
BRA
MOV32I
MOV
VABSDIFF.ACC
BRA
XMAD
XMAD.MRG
XMAD.PSL.CBCC
SHL
SHR
IADD
IADD.X
IADD
LDG.E
IADD.X
LDG.E
IADD32I
XMAD
XMAD.MRG
XMAD.PSL.CBCC
SHL
SHR
IADD
IADD.X
IADD
IADD.X
FMUL
FCMP.LE
FADD
STG.E
LDG.E
LDG.E
IADD32I
FMUL
FCMP.LE
FADD
STG.E
MOV
ISETP.LT.AND
BRA
XMAD
XMAD.MRG
XMAD.PSL.CBCC
SHL
SHR
IADD
IADD.X
IADD
IADD.X
LDG.E
IADD32I
LDG.E
ISETP.LT.AND
FMUL
FCMP.LE
FADD
STG.E
MOV
BRA
MOV
XMAD
XMAD.MRG
XMAD.PSL.CBCC
ISETP.LT.AND
BRA
BRA
MOV
S2R
S2R
XMAD.MRG
XMAD
XMAD.PSL.CBCC
ISETP.GE.AND
I2I.S32.S32
I2F.F32.U32.RP
MUFU.RCP
IADD32I
F2I.FTZ.U32.F32.TRUNC
ISETP.NE.AND
XMAD
XMAD.MRG
XMAD.PSL.CBCC
IADD
PSETP.AND.AND
XMAD
XMAD
XMAD
XMAD.CHI
LOP.PASS_B
IADD3.RS
ISETP.NE.AND
I2I.S32.S32
SHL
I2I.S32.S32
XMAD
XMAD
XMAD
XMAD.CHI
I2I.S32.S32
IADD3.RS
I2F.F32.U32.RP
IADD
MUFU.RCP
XMAD
XMAD.MRG
XMAD.PSL.CBCC
I2I.S32.S32
ISETP.LE.U32.AND
IADD32I
IADD
F2I.FTZ.U32.F32.TRUNC
ISETP.GE.U32.AND
LOP.XOR
IADD32I
XMAD
XMAD.MRG
ISETP.GE.AND
IADD32I
XMAD.PSL.CBCC
PSETP.AND.AND
IADD
LOP.PASS_B
IADD
XMAD
SEL
XMAD
I2I.S32.S32
XMAD
XMAD.CHI
IADD3.RS
XMAD
XMAD
XMAD
XMAD.CHI
I2I.S32.S32
IADD3.RS
I2F.F32.U32.RP
IADD
MUFU.RCP
XMAD
I2I.S32.S32
XMAD.MRG
XMAD.PSL.CBCC
ISETP.LE.U32.AND
IADD32I
F2I.FTZ.U32.F32.TRUNC
ISETP.NE.AND
IADD
ISETP.LE.U32.AND
XMAD
XMAD.MRG
ISETP.GE.AND
XMAD.PSL.CBCC
IADD
PSETP.AND.AND
IADD
LOP.PASS_B
IADD
XMAD
SEL
XMAD
I2I.S32.S32
XMAD
XMAD.CHI
IADD3.RS
XMAD
XMAD
XMAD
XMAD.CHI
IADD3.RS
IADD
XMAD
XMAD.MRG
XMAD.PSL.CBCC
I2I.S32.S32
ISETP.LE.U32.AND
IADD
ISETP.GE.U32.AND
LOP.XOR
IADD32I
ISETP.GE.AND
IADD32I
IADD
SHR
IADD
SEL
IADD.X
SHL
SHR
LDG.E
IADD
IADD.X
LDG.E
IADD
IADD.X
LDG.E
MOV
XMAD
XMAD.MRG
XMAD.PSL.CBCC
IADD
ISETP.LT.AND
IADD.X
DEPBAR.LE
FCMP.LEU
I2F.F32.S32
DEPBAR.LE
FCMP.LE
FADD
FMUL
MOV
STG.E
BRA
BRA
MOV
S2R
S2R
XMAD.MRG
XMAD
XMAD.PSL.CBCC
ISETP.GE.AND
MOV
ISETP.GT.AND
BRA
SHL
SHR
IADD
IADD.X
IADD
LDG.E.64
IADD.X
LDG.E.64
MOV
XMAD
XMAD.MRG
XMAD.PSL.CBCC
ISETP.LT.AND
DSETP.LE.AND
DMUL
IADD
IADD.X
SEL
SEL
STG.E.64
BRA
SHL
SHR
IADD
IADD.X
IADD
LDG.E.64
IADD.X
LDG.E.64
MOV
DSETP.LE.AND
DMUL
IADD
MOV32I
SEL
MOV
MOV32I
SEL
IADD.X
VABSDIFF.ACC
STG.E.64
MOV
MOV
BRA
XMAD
XMAD.MRG
XMAD.PSL.CBCC
SHL
SHR
IADD
IADD.X
IADD
IADD.X
LDG.E.64
IADD32I
LDG.E.64
XMAD
XMAD.MRG
XMAD.PSL.CBCC
SHL
SHR
DSETP.LE.AND
DMUL
IADD
SEL
SEL
IADD.X
IADD
DADD
STG.E.64
LDG.E.64
IADD.X
MOV
LDG.E.64
IADD32I
XMAD
XMAD.MRG
XMAD.PSL.CBCC
SHL
SHR
DSETP.LE.AND
DMUL
IADD
IADD.X
SEL
SEL
IADD
DADD
IADD.X
STG.E.64
MOV
LDG.E.64
MOV
LDG.E.64
IADD32I
XMAD
XMAD.MRG
XMAD.PSL.CBCC
SHL
SHR
IADD
IADD.X
DSETP.LE.AND
DMUL
SEL
SEL
IADD
DADD
STG.E.64
LDG.E.64
IADD.X
LDG.E.64
IADD32I
MOV
VABSDIFF.ACC
DSETP.LE.AND
DMUL
SEL
SEL
DADD
STG.E.64
MOV
MOV
BRA
MOV32I
MOV
VABSDIFF.ACC
BRA
XMAD
XMAD.MRG
XMAD.PSL.CBCC
SHL
SHR
IADD
IADD.X
IADD
LDG.E.64
IADD.X
LDG.E.64
IADD32I
XMAD
XMAD.MRG
XMAD.PSL.CBCC
SHL
SHR
DSETP.LE.AND
DMUL
IADD
SEL
SEL
IADD.X
IADD
DADD
STG.E.64
LDG.E.64
IADD.X
LDG.E.64
IADD32I
DSETP.LE.AND
DMUL
SEL
SEL
DADD
STG.E.64
MOV
MOV
ISETP.LT.AND
BRA
XMAD
XMAD.MRG
XMAD.PSL.CBCC
SHL
SHR
IADD
IADD.X
IADD
LDG.E.64
IADD.X
LDG.E.64
IADD32I
DSETP.LE.AND
DMUL
SEL
SEL
ISETP.LT.AND
MOV
DADD
MOV
STG.E.64
MOV
MOV
BRA
MOV
XMAD
XMAD.MRG
XMAD.PSL.CBCC
ISETP.LT.AND
BRA
BRA
MOV
S2R
S2R
XMAD.MRG
XMAD
XMAD.PSL.CBCC
ISETP.GE.AND
SHL
SSY
SHR
IADD
IADD.X
LDG.E
FSETP.GT.AND
SYNC;
I2I.S32.S32
I2F.F32.U32.RP
MUFU.RCP
IADD32I
I2I.S32.S32
ISETP.NE.AND
F2I.FTZ.U32.F32.TRUNC
XMAD
XMAD.MRG
XMAD.PSL.CBCC
IADD
XMAD
XMAD
XMAD
XMAD.CHI
IADD3.RS
XMAD
XMAD
XMAD
XMAD.CHI
I2I.S32.S32
IADD3.RS
I2F.F32.U32.RP
IADD
MUFU.RCP
XMAD
XMAD.MRG
XMAD.PSL.CBCC
I2I.S32.S32
ISETP.LE.U32.AND
IADD32I
F2I.FTZ.U32.F32.TRUNC
IADD
ISETP.GE.U32.AND
LOP.XOR
XMAD
XMAD.MRG
IADD32I
ISETP.GE.AND
XMAD.PSL.CBCC
I2I.S32.S32
IADD32I
PSETP.AND.AND
IADD
LOP.PASS_B
IADD
XMAD
SEL
XMAD
I2I.S32.S32
XMAD
XMAD.CHI
IADD3.RS
XMAD
XMAD
XMAD
XMAD.CHI
I2I.S32.S32
IADD3.RS
I2F.F32.U32.RP
IADD
MUFU.RCP
XMAD
XMAD.MRG
XMAD.PSL.CBCC
ISETP.LE.U32.AND
IADD32I
F2I.FTZ.U32.F32.TRUNC
ISETP.NE.AND
IADD
ISETP.LE.U32.AND
XMAD
XMAD.MRG
ISETP.GE.AND
XMAD.PSL.CBCC
IADD
PSETP.AND.AND
IADD
LOP.PASS_B
IADD
XMAD
SEL
XMAD
I2I.S32.S32
XMAD
XMAD.CHI
IADD3.RS
XMAD
XMAD
XMAD
XMAD.CHI
IADD3.RS
IADD
XMAD
XMAD.MRG
XMAD.PSL.CBCC
I2I.S32.S32
ISETP.LE.U32.AND
ISETP.NE.AND
IADD
ISETP.GE.U32.AND
LOP.XOR
IADD32I
ISETP.GE.AND
IADD32I
PSETP.AND.AND
LOP.PASS_B
IADD
SEL
SHL
SHR
IADD
IADD.X
LDG.E
FMUL
SYNC;
MOV
XMAD
XMAD.MRG
XMAD.PSL.CBCC
IADD
ISETP.LT.AND
IADD.X
STG.E
BRA
BRA
